Москва г;77
Санкт-Петербург г;78
Адыгея Респ;1
Алтай Респ;4
Алтайский край;22
Амурская обл;28
Архангельская обл;29
Астраханская обл;30
Байконур г;99
Башкортостан Респ;2
Белгородская обл;31
Брянская обл;32
Бурятия Респ;3
Владимирская обл;33
Волгоградская обл;34
Вологодская обл;35
Воронежская обл;36
Дагестан Респ;5
Еврейская Аобл;79
Забайкальский край;75
Ивановская обл;37
Ингушетия Респ;6
Иркутская обл;38
Кабардино-Балкарская Респ;7
Калининградская обл;39
Калмыкия Респ;8
Калужская обл;40
Камчатский край;41
Карачаево-Черкесская Респ;9
Карелия Респ;10
Кемеровская обл;42
Кировская обл;43
Коми Респ;11
Костромская обл;44
Краснодарский край;23
Красноярский край;24
Крым Респ;91
Курганская обл;45
Курская обл;46
Ленинградская обл;47
Липецкая обл;48
Магаданская обл;49
Марий Эл Респ;12
Мордовия Респ;13
Московская обл;50
Мурманская обл;51
Ненецкий АО;83
Нижегородская обл;52
Новгородская обл;53
Новосибирская обл;54
Омская обл;55
Оренбургская обл;56
Орловская обл;57
Пензенская обл;58
Пермский край;59
Приднестровье;90
Приморский край;25
Псковская обл;60
Ростовская обл;61
Рязанская обл;62
Самарская обл;63
Саратовская обл;64
Саха /Якутия/ Респ;14
Сахалинская обл;65
Свердловская обл;66
Севастополь г;92
Северная Осетия - Алания Респ;15
Смоленская обл;67
Ставропольский край;26
Тамбовская обл;68
Татарстан Респ;16
Тверская обл;69
Томская обл;70
Тульская обл;71
Тыва Респ;17
Тюменская обл;72
Удмуртская Респ;18
Ульяновская обл;73
Хабаровский край;27
Хакасия Респ;19
Ханты-Мансийский Автономный округ - Югра АО;86
Челябинская обл;74
Чеченская Респ;20
Чувашская Республика - Чувашия;21
Чукотский АО;87
Ямало-Ненецкий АО;89
Ярославская обл;76