Абитуриент
Array
(
    [GUID] => 
    [Фамилия] => Липенская
    [Имя] => Александра
    [Отчество] => Андреевна
    [ДатаРождения] => 1996-02-03
    [МестоРождения] => гор.Екатеринбург
    [Пол] => Женский
    [Гражданство] => РОССИЯ
    [ИндексР] => 620076
    [РегионР] => Москва
    [ГородР] => Москва
    [НасПунктР] => 
    [УлицаР] => Грекова
    [ДомР] => 10
    [КорпусР] => 
    [КвартираР] => 64
    [ИндексП] => 127224
    [РегионП] => Москва
    [ГородП] => Москва
    [НасПунктП] => 
    [УлицаП] => Широкая
    [ДомП] => 19
    [КорпусП] => 
    [КвартираП] => 77
    [ТелефонКонтактный] => +7(985) 458-83-77
    [ТелефонДомашний] => 
    [ТелефонСлужебный] => 
    [ЭлПочта] => a.lipenskaya@gmail.com
    [НужноОбщежитие] => 
    [ПаспортВид] => Паспорт гражданина РФ
    [ПаспортСерия] => 6515
    [ПаспортНомер] => 139466
    [ПаспортДата] => 0001-01-01
    [ПаспортВыдан] => 
    [ПаспортКодПодразделения] => 
    [СемейноеПоложение] => 
    [ПосещениеПодготовительныхКурсов] => 
    [ЗаведениеПодготовительныхКурсов] => 
    [МестоРаботы] => 
    [Должность] => 
    [ОтношениеКВоинскойСлужбе] => 
    [ВидДокументаВС] => 
    [ДокументВСНомер] => 
    [ДокументВСДата] => 0001-01-01
    [ДокументВСМестоВыдачи] => 
    [Военкомат] => 
    [ВоинскоеЗвание] => 
    [КатегорияЗапаса] => 
    [КатегорияГодностиКВоеннойСлужбе] => 
    [РегионДляФИС] => Москва г
    [ТипНаселенногоПунктаДляФИС] => citytype00-000002
    [ИностранныйГражданин] => 
    [ПаспортВид2] => 
    [ПаспортСерия2] => 
    [ПаспортНомер2] => 
    [ПаспортДата2] => 0001-01-01
    [ПаспортВыдан2] => 
    [ПаспортКодПодразделения2] => 
    [СтатусЗаявки] => 
    [IDMain] => 10538
    [Keyword] => 
)

2018-07-20T20:41:15Z
========

ИностранныеЯзыки

2018-07-20T20:41:15Z
========

РезультатыЕГЭ

2018-07-20T20:41:15Z
========

ФайлыАбитуриента

2018-07-20T20:41:16Z
========

ПоданныеДокументы

2018-07-20T20:41:16Z
========

Заявления

2018-07-20T20:41:16Z
========

*********************************************************************
2018-07-20T20:41:16Z
========

Абитуриент
Array
(
    [GUID] => 
    [Фамилия] => Липенская
    [Имя] => Александра
    [Отчество] => Андреевна
    [ДатаРождения] => 1996-02-03
    [МестоРождения] => гор.Екатеринбург
    [Пол] => Женский
    [Гражданство] => РОССИЯ
    [ИндексР] => 620076
    [РегионР] => Свердловская
    [ГородР] => Екатеринбург
    [НасПунктР] => 
    [УлицаР] => Прониной
    [ДомР] => 121
    [КорпусР] => 
    [КвартираР] => 64
    [ИндексП] => 127224
    [РегионП] => Москва
    [ГородП] => Москва
    [НасПунктП] => 
    [УлицаП] => Широкая
    [ДомП] => 19
    [КорпусП] => 
    [КвартираП] => 77
    [ТелефонКонтактный] => +7(985) 458-83-77
    [ТелефонДомашний] => 
    [ТелефонСлужебный] => 
    [ЭлПочта] => a.lipenskaya@gmail.com
    [НужноОбщежитие] => 
    [ПаспортВид] => Паспорт гражданина РФ
    [ПаспортСерия] => 6515
    [ПаспортНомер] => 139466
    [ПаспортДата] => 2016-02-06
    [ПаспортВыдан] => ОУФМС РОССИИ ПО СВЕРДЛОВСКОЙ ОБЛАСТИ В ЧКАЛОВСКОМ Р-НЕ Г.ЕКАТЕРИНБУРГА
    [ПаспортКодПодразделения] => 660-010
    [СемейноеПоложение] => Холост
    [ПосещениеПодготовительныхКурсов] => не посещал(-а)
    [ЗаведениеПодготовительныхКурсов] => 
    [МестоРаботы] => Cleary Gottlieb Steen & Hamilton
    [Должность] => Paralegal
    [ОтношениеКВоинскойСлужбе] => 
    [ВидДокументаВС] => 
    [ДокументВСНомер] => 
    [ДокументВСДата] => 0001-01-01
    [ДокументВСМестоВыдачи] => 
    [Военкомат] => 
    [ВоинскоеЗвание] => 
    [КатегорияЗапаса] => 
    [КатегорияГодностиКВоеннойСлужбе] => 
    [РегионДляФИС] => Москва г
    [ТипНаселенногоПунктаДляФИС] => citytype00-000002
    [ИностранныйГражданин] => 
    [ПаспортВид2] => 
    [ПаспортСерия2] => 
    [ПаспортНомер2] => 
    [ПаспортДата2] => 0001-01-01
    [ПаспортВыдан2] => 
    [ПаспортКодПодразделения2] => 
    [СтатусЗаявки] => 
    [IDMain] => 10538
    [Keyword] => 
)

2018-07-20T21:33:08Z
========

ИностранныеЯзыки
Array
(
    [ИностранныйЯзык] => 00-000000010
    [Основной] => 1
)

2018-07-20T21:33:09Z
========

РезультатыЕГЭ

2018-07-20T21:33:09Z
========

ФайлыАбитуриента
Array
(
    [0] => Array
        (
            [ТипДокумента] => 00-000001
            [ПутьКФайлу] => 10538\passport.pdf
            [ДатаИзменения] => 2018-07-20
        )

    [1] => Array
        (
            [ТипДокумента] => 00-000050
            [ПутьКФайлу] => 10538\education_00-000050.pdf
            [ДатаИзменения] => 2018-07-20
        )

)

2018-07-20T21:33:09Z
========

ПоданныеДокументы
Array
(
    [ВидДокумента] => 00-000050
    [Серия] => ААК
    [Номер] => 2601947
    [Дата] => 2018-06-30
)

2018-07-20T21:33:09Z
========

Заявления

2018-07-20T21:33:10Z
========

*********************************************************************
2018-07-20T21:33:10Z
========

Абитуриент
Array
(
    [GUID] => 
    [Фамилия] => Липенская
    [Имя] => Александра
    [Отчество] => Андреевна
    [ДатаРождения] => 1996-02-03
    [МестоРождения] => гор.Екатеринбург
    [Пол] => Женский
    [Гражданство] => РОССИЯ
    [ИндексР] => 620076
    [РегионР] => Свердловская
    [ГородР] => Екатеринбург
    [НасПунктР] => 
    [УлицаР] => Прониной
    [ДомР] => 121
    [КорпусР] => 
    [КвартираР] => 64
    [ИндексП] => 127224
    [РегионП] => Москва
    [ГородП] => Москва
    [НасПунктП] => 
    [УлицаП] => Широкая
    [ДомП] => 19
    [КорпусП] => 
    [КвартираП] => 77
    [ТелефонКонтактный] => +7(985) 458-83-77
    [ТелефонДомашний] => 
    [ТелефонСлужебный] => 
    [ЭлПочта] => a.lipenskaya@gmail.com
    [НужноОбщежитие] => 
    [ПаспортВид] => Паспорт гражданина РФ
    [ПаспортСерия] => 6515
    [ПаспортНомер] => 139466
    [ПаспортДата] => 2016-02-06
    [ПаспортВыдан] => ОУФМС РОССИИ ПО СВЕРДЛОВСКОЙ ОБЛАСТИ В ЧКАЛОВСКОМ Р-НЕ Г.ЕКАТЕРИНБУРГА
    [ПаспортКодПодразделения] => 660-010
    [СемейноеПоложение] => Холост
    [ПосещениеПодготовительныхКурсов] => не посещал(-а)
    [ЗаведениеПодготовительныхКурсов] => 
    [МестоРаботы] => Cleary Gottlieb Steen & Hamilton
    [Должность] => Paralegal
    [ОтношениеКВоинскойСлужбе] => 
    [ВидДокументаВС] => 
    [ДокументВСНомер] => 
    [ДокументВСДата] => 0001-01-01
    [ДокументВСМестоВыдачи] => 
    [Военкомат] => 
    [ВоинскоеЗвание] => 
    [КатегорияЗапаса] => 
    [КатегорияГодностиКВоеннойСлужбе] => 
    [РегионДляФИС] => Москва г
    [ТипНаселенногоПунктаДляФИС] => citytype00-000002
    [ИностранныйГражданин] => 
    [ПаспортВид2] => 
    [ПаспортСерия2] => 
    [ПаспортНомер2] => 
    [ПаспортДата2] => 0001-01-01
    [ПаспортВыдан2] => 
    [ПаспортКодПодразделения2] => 
    [СтатусЗаявки] => 
    [IDMain] => 10538
    [Keyword] => 
)

2018-07-20T21:37:35Z
========

ИностранныеЯзыки
Array
(
    [ИностранныйЯзык] => 00-000000010
    [Основной] => 1
)

2018-07-20T21:37:36Z
========

РезультатыЕГЭ

2018-07-20T21:37:36Z
========

ФайлыАбитуриента
Array
(
    [0] => Array
        (
            [ТипДокумента] => 00-000001
            [ПутьКФайлу] => 10538\passport.pdf
            [ДатаИзменения] => 2018-07-20
        )

    [1] => Array
        (
            [ТипДокумента] => 00-000050
            [ПутьКФайлу] => 10538\education_00-000050.pdf
            [ДатаИзменения] => 2018-07-20
        )

)

2018-07-20T21:37:36Z
========

ПоданныеДокументы
Array
(
    [ВидДокумента] => 00-000050
    [Серия] => ААК
    [Номер] => 2601947
    [Дата] => 2018-06-30
)

2018-07-20T21:37:36Z
========

Заявления
Array
(
    [НаправлениеПодготовки] => 
    [GUIDНП] => c4517bc6-5667-11e7-80e8-005056b32020
    [ФормаОбучения] => 
    [GUIDФО] => 
    [ЗаявлениеПроверено] => 
    [КонкурснаяГруппа] => МАГ Юрисп ОЧНАЯ бюджет
    [GUIDКГ] => c44182c5-371d-11e8-812c-005056b32020
    [УровеньОбразования] => 
    [GUIDУО] => 
    [Состояние] => 
    [РегНомер] => 
    [ДатаЗаявления] => 0001-01-01
    [ДатаОтзываЗаявления] => 0001-01-01
    [НаличиеПодлинника] => 
    [СогласиеНаЗачисление] => 1
    [ДатаСогласиеНаЗачисление] => 0001-01-01
    [ДатаОтзываСогласиеНаЗачисление] => 0001-01-01
    [ВыбранныйИнститут] => 
    [ВыбранныйПрофиль] => 
    [ВидФинансирования] => 
    [ЦелевойПрием] => 
    [ОсобаяКвота] => 
    [ПутьКФайлу] => 10538\c44182c5-371d-11e8-812c-005056b32020_zayavlenie_o_prikreplenii_2007213633.pdf
    [ДатаИзменения] => 2018-07-20
    [RequestStatus] => На рассмотрении
)

2018-07-20T21:37:37Z
========

*********************************************************************
2018-07-20T21:37:37Z
========

