Абитуриент
Array
(
    [GUID] => 
    [Фамилия] => Киященко
    [Имя] => София
    [Отчество] => Леонидовна
    [ДатаРождения] => 1995-09-01
    [МестоРождения] => 
    [Пол] => Женский
    [Гражданство] => РОССИЯ
    [ИндексР] => 109144
    [РегионР] => Москва
    [ГородР] => Москва
    [НасПунктР] => 
    [УлицаР] => Люблинская
    [ДомР] => 118
    [КорпусР] => 
    [КвартираР] => 257
    [ИндексП] => 
    [РегионП] => Москва
    [ГородП] => Москва
    [НасПунктП] => 
    [УлицаП] => Новочеркасский
    [ДомП] => 46
    [КорпусП] => 
    [КвартираП] => 257
    [ТелефонКонтактный] => +7(909) 164-77-79
    [ТелефонДомашний] => 
    [ТелефонСлужебный] => 
    [ЭлПочта] => sobisha@mail.ru
    [НужноОбщежитие] => 
    [ПаспортВид] => Паспорт гражданина РФ
    [ПаспортСерия] => 4515
    [ПаспортНомер] => 313433
    [ПаспортДата] => 0001-01-01
    [ПаспортВыдан] => 
    [ПаспортКодПодразделения] => 
    [СемейноеПоложение] => Холост
    [ПосещениеПодготовительныхКурсов] => не посещал(-а)
    [ЗаведениеПодготовительныхКурсов] => 
    [МестоРаботы] => АО ПАНКЛУБ
    [Должность] => Помощник юриста
    [ОтношениеКВоинскойСлужбе] => 
    [ВидДокументаВС] => 
    [ДокументВСНомер] => 
    [ДокументВСДата] => 0001-01-01
    [ДокументВСМестоВыдачи] => 
    [Военкомат] => 
    [ВоинскоеЗвание] => 
    [КатегорияЗапаса] => 
    [КатегорияГодностиКВоеннойСлужбе] => 
    [РегионДляФИС] => Москва г
    [ТипНаселенногоПунктаДляФИС] => citytype00-000001
    [ИностранныйГражданин] => 
    [ПаспортВид2] => 
    [ПаспортСерия2] => 
    [ПаспортНомер2] => 
    [ПаспортДата2] => 0001-01-01
    [ПаспортВыдан2] => 
    [ПаспортКодПодразделения2] => 
    [СтатусЗаявки] => 
    [IDMain] => 10724
    [Keyword] => 
)

2018-07-23T16:35:46Z
========

СоставСемьи

2018-07-23T16:35:46Z
========

ИностранныеЯзыки
Array
(
    [0] => Array
        (
            [ИностранныйЯзык] => 00-000000010
            [Основной] => 
        )

    [1] => Array
        (
            [ИностранныйЯзык] => 00-000000011
            [Основной] => 1
        )

)

2018-07-23T16:35:47Z
========

РезультатыЕГЭ

2018-07-23T16:35:47Z
========

ФайлыАбитуриента

2018-07-23T16:35:47Z
========

ПоданныеДокументы

2018-07-23T16:35:47Z
========

Заявления

2018-07-23T16:35:47Z
========

*********************************************************************
2018-07-23T16:35:47Z
========

