Абитуриент
Array
(
    [GUID] => 
    [Фамилия] => Наджафов
    [Имя] => Аяз
    [Отчество] => Ниязович
    [ДатаРождения] => 2000-07-20
    [МестоРождения] => ТП УФМС ПО РЕСП. Дагестан в Пос.Белиджи
    [Пол] => Мужской
    [Гражданство] => РОССИЯ
    [ИндексР] => 368615
    [РегионР] => Дагестан
    [ГородР] => Белиджи
    [НасПунктР] => Дербентский
    [УлицаР] => Родниковая
    [ДомР] => 6
    [КорпусР] => 
    [КвартираР] => 6
    [ИндексП] => 368615
    [РегионП] => Дагестан
    [ГородП] => Белиджи
    [НасПунктП] => Дербентский
    [УлицаП] => Родниковая
    [ДомП] => 6
    [КорпусП] => 
    [КвартираП] => 6
    [ТелефонКонтактный] => +7(928) 558-14-82
    [ТелефонДомашний] => +7(928) 558-14-82
    [ТелефонСлужебный] => +7(928) 558-14-82
    [ЭлПочта] => Nadzhafov.ayaz.00@mail.ru
    [НужноОбщежитие] => 1
    [ПаспортВид] => Паспорт гражданина РФ
    [ПаспортСерия] => 8214
    [ПаспортНомер] => 566195
    [ПаспортДата] => 2014-11-06
    [ПаспортВыдан] => ТП УФМС РОССИИ ПО РЕСП. ДАГЕСТАН В ПОС. БЕЛИДЖИ
    [ПаспортКодПодразделения] => 050-057
    [СемейноеПоложение] => Холост
    [ПосещениеПодготовительныхКурсов] => не посещал(-а)
    [ЗаведениеПодготовительныхКурсов] => 
    [МестоРаботы] => 
    [Должность] => 
    [ОтношениеКВоинскойСлужбе] => 
    [ВидДокументаВС] => 
    [ДокументВСНомер] => 
    [ДокументВСДата] => 0001-01-01
    [ДокументВСМестоВыдачи] => 
    [Военкомат] => 
    [ВоинскоеЗвание] => 
    [КатегорияЗапаса] => 
    [КатегорияГодностиКВоеннойСлужбе] => 
    [РегионДляФИС] => Дагестан Респ
    [ТипНаселенногоПунктаДляФИС] => citytype00-000004
    [ИностранныйГражданин] => 
    [ПаспортВид2] => Паспорт гражданина РФ
    [ПаспортСерия2] => 8214
    [ПаспортНомер2] => 566195
    [ПаспортДата2] => 0001-01-01
    [ПаспортВыдан2] => 
    [ПаспортКодПодразделения2] => 
    [СтатусЗаявки] => 
    [IDMain] => 2023
    [Keyword] => 
)

2018-07-14T11:46:26Z
========

СоставСемьи

2018-07-14T11:46:26Z
========

ИностранныеЯзыки

2018-07-14T11:46:26Z
========

РезультатыЕГЭ
Array
(
    [0] => Array
        (
            [Дисциплина] => История
            [Отметка] => 55
        )

    [1] => Array
        (
            [Дисциплина] => Русский
            [Отметка] => 49
        )

    [2] => Array
        (
            [Дисциплина] => Обществознание
            [Отметка] => 62
        )

)

2018-07-14T11:46:27Z
========

ФайлыАбитуриента

2018-07-14T11:46:27Z
========

ПоданныеДокументы
Array
(
    [ВидДокумента] => 00-000047
    [Серия] => 
    [Номер] => 00518001213030
    [Дата] => 2017-06-24
)

2018-07-14T11:46:27Z
========

Заявления

2018-07-14T11:46:27Z
========

*********************************************************************
2018-07-14T11:46:27Z
========

