Абитуриент
Array
(
    [GUID] => 
    [Фамилия] => Сидоров
    [Имя] => Михаил
    [Отчество] => Валентинович
    [ДатаРождения] => 2000-11-22
    [МестоРождения] => 
    [Пол] => Мужской
    [Гражданство] => РОССИЯ
    [ИндексР] => 462431
    [РегионР] => Оренбургская
    [ГородР] => Орск
    [НасПунктР] => 
    [УлицаР] => Круторожная
    [ДомР] => 2Б
    [КорпусР] => 
    [КвартираР] => 
    [ИндексП] => 462431
    [РегионП] => Оренбургская
    [ГородП] => Орск
    [НасПунктП] => 
    [УлицаП] => Круторожная
    [ДомП] => 2Б
    [КорпусП] => 
    [КвартираП] => -
    [ТелефонКонтактный] => +7(912) 843-16-12
    [ТелефонДомашний] => 
    [ТелефонСлужебный] => 
    [ЭлПочта] => sidorovmihai@mail.ru
    [НужноОбщежитие] => 1
    [ПаспортВид] => Паспорт гражданина РФ
    [ПаспортСерия] => 5315
    [ПаспортНомер] => 540500
    [ПаспортДата] => 0001-01-01
    [ПаспортВыдан] => 
    [ПаспортКодПодразделения] => 
    [СемейноеПоложение] => 
    [ПосещениеПодготовительныхКурсов] => 
    [ЗаведениеПодготовительныхКурсов] => 
    [МестоРаботы] => 
    [Должность] => 
    [ОтношениеКВоинскойСлужбе] => 
    [ВидДокументаВС] => 
    [ДокументВСНомер] => 
    [ДокументВСДата] => 0001-01-01
    [ДокументВСМестоВыдачи] => 
    [Военкомат] => 
    [ВоинскоеЗвание] => 
    [КатегорияЗапаса] => 
    [КатегорияГодностиКВоеннойСлужбе] => 
    [РегионДляФИС] => Москва г
    [ТипНаселенногоПунктаДляФИС] => citytype00-000002
    [ИностранныйГражданин] => 
    [ПаспортВид2] => 
    [ПаспортСерия2] => 
    [ПаспортНомер2] => 
    [ПаспортДата2] => 0001-01-01
    [ПаспортВыдан2] => 
    [ПаспортКодПодразделения2] => 
    [СтатусЗаявки] => 
    [IDMain] => 2216
    [Keyword] => 
)

2018-07-12T11:05:24Z
========

ИностранныеЯзыки

2018-07-12T11:05:24Z
========

РезультатыЕГЭ

2018-07-12T11:05:24Z
========

ФайлыАбитуриента

2018-07-12T11:05:24Z
========

ПоданныеДокументы

2018-07-12T11:05:25Z
========

Заявления

2018-07-12T11:05:25Z
========

*********************************************************************
2018-07-12T11:05:25Z
========

