Абитуриент
Array
(
    [GUID] => 
    [Фамилия] => Воротницкая
    [Имя] => Мария
    [Отчество] => Владимировна
    [ДатаРождения] => 1996-08-24
    [МестоРождения] => Тюмень
    [Пол] => Женский
    [Гражданство] => РОССИЯ
    [ИндексР] => 625048
    [РегионР] => Тюменская
    [ГородР] => Тюмень
    [НасПунктР] => 
    [УлицаР] => Холодильная
    [ДомР] => 136
    [КорпусР] => 
    [КвартираР] => 137
    [ИндексП] => 625048
    [РегионП] => Тюменская
    [ГородП] => Тюмень
    [НасПунктП] => 
    [УлицаП] => Холодильная
    [ДомП] => 136
    [КорпусП] => 
    [КвартираП] => 137
    [ТелефонКонтактный] => +7(925) 940-42-19
    [ТелефонДомашний] => 
    [ТелефонСлужебный] => 
    [ЭлПочта] => vorotnitskaya.maria@yandex.ru
    [НужноОбщежитие] => 1
    [ПаспортВид] => Паспорт гражданина РФ
    [ПаспортСерия] => 7116
    [ПаспортНомер] => 236281
    [ПаспортДата] => 0001-01-01
    [ПаспортВыдан] => 
    [ПаспортКодПодразделения] => 
    [СемейноеПоложение] => 
    [ПосещениеПодготовительныхКурсов] => 
    [ЗаведениеПодготовительныхКурсов] => 
    [МестоРаботы] => 
    [Должность] => 
    [ОтношениеКВоинскойСлужбе] => 
    [ВидДокументаВС] => 
    [ДокументВСНомер] => 
    [ДокументВСДата] => 0001-01-01
    [ДокументВСМестоВыдачи] => 
    [Военкомат] => 
    [ВоинскоеЗвание] => 
    [КатегорияЗапаса] => 
    [КатегорияГодностиКВоеннойСлужбе] => 
    [РегионДляФИС] => Тюменская обл
    [ТипНаселенногоПунктаДляФИС] => citytype00-000002
    [ИностранныйГражданин] => 
    [ПаспортВид2] => 
    [ПаспортСерия2] => 
    [ПаспортНомер2] => 
    [ПаспортДата2] => 0001-01-01
    [ПаспортВыдан2] => 
    [ПаспортКодПодразделения2] => 
    [СтатусЗаявки] => 
    [IDMain] => 2233
    [Keyword] => 
)

2018-07-10T10:20:23Z
========

ИностранныеЯзыки

2018-07-10T10:20:24Z
========

РезультатыЕГЭ

2018-07-10T10:20:24Z
========

ФайлыАбитуриента

2018-07-10T10:20:24Z
========

ПоданныеДокументы

2018-07-10T10:20:24Z
========

Заявления

2018-07-10T10:20:24Z
========

*********************************************************************
2018-07-10T10:20:24Z
========

Абитуриент
Array
(
    [GUID] => 
    [Фамилия] => Воротницкая
    [Имя] => Мария
    [Отчество] => Владимировна
    [ДатаРождения] => 1996-08-24
    [МестоРождения] => Тюмень
    [Пол] => Женский
    [Гражданство] => РОССИЯ
    [ИндексР] => 625048
    [РегионР] => Тюменская
    [ГородР] => Тюмень
    [НасПунктР] => 
    [УлицаР] => Холодильная
    [ДомР] => 136
    [КорпусР] => 
    [КвартираР] => 137
    [ИндексП] => 625048
    [РегионП] => Тюменская
    [ГородП] => Тюмень
    [НасПунктП] => 
    [УлицаП] => Холодильная
    [ДомП] => 136
    [КорпусП] => 
    [КвартираП] => 137
    [ТелефонКонтактный] => +7(925) 940-42-19
    [ТелефонДомашний] => 
    [ТелефонСлужебный] => 
    [ЭлПочта] => vorotnitskaya.maria@yandex.ru
    [НужноОбщежитие] => 1
    [ПаспортВид] => Паспорт гражданина РФ
    [ПаспортСерия] => 7116
    [ПаспортНомер] => 236281
    [ПаспортДата] => 0001-01-01
    [ПаспортВыдан] => 
    [ПаспортКодПодразделения] => 
    [СемейноеПоложение] => Не замужем
    [ПосещениеПодготовительныхКурсов] => не посещал(-а)
    [ЗаведениеПодготовительныхКурсов] => 
    [МестоРаботы] => 
    [Должность] => Помощник юриста
    [ОтношениеКВоинскойСлужбе] => 
    [ВидДокументаВС] => 
    [ДокументВСНомер] => 
    [ДокументВСДата] => 0001-01-01
    [ДокументВСМестоВыдачи] => 
    [Военкомат] => 
    [ВоинскоеЗвание] => 
    [КатегорияЗапаса] => 
    [КатегорияГодностиКВоеннойСлужбе] => 
    [РегионДляФИС] => Тюменская обл
    [ТипНаселенногоПунктаДляФИС] => citytype00-000002
    [ИностранныйГражданин] => 
    [ПаспортВид2] => 
    [ПаспортСерия2] => 
    [ПаспортНомер2] => 
    [ПаспортДата2] => 0001-01-01
    [ПаспортВыдан2] => 
    [ПаспортКодПодразделения2] => 
    [СтатусЗаявки] => 
    [IDMain] => 2233
    [Keyword] => 
)

2018-07-10T11:24:27Z
========

ИностранныеЯзыки
Array
(
    [ИностранныйЯзык] => 00-000000010
    [Основной] => 1
)

2018-07-10T11:24:27Z
========

РезультатыЕГЭ

2018-07-10T11:24:28Z
========

ФайлыАбитуриента

2018-07-10T11:24:28Z
========

ПоданныеДокументы

2018-07-10T11:24:28Z
========

Заявления

2018-07-10T11:24:28Z
========

*********************************************************************
2018-07-10T11:24:28Z
========

Абитуриент
Array
(
    [GUID] => 
    [Фамилия] => Воротницкая
    [Имя] => Мария
    [Отчество] => Владимировна
    [ДатаРождения] => 1996-08-24
    [МестоРождения] => Тюмень
    [Пол] => Женский
    [Гражданство] => РОССИЯ
    [ИндексР] => 625048
    [РегионР] => Тюменская
    [ГородР] => Тюмень
    [НасПунктР] => 
    [УлицаР] => Холодильная
    [ДомР] => 136
    [КорпусР] => 
    [КвартираР] => 137
    [ИндексП] => 625048
    [РегионП] => Тюменская
    [ГородП] => Тюмень
    [НасПунктП] => 
    [УлицаП] => Холодильная
    [ДомП] => 136
    [КорпусП] => 
    [КвартираП] => 137
    [ТелефонКонтактный] => +7(925) 940-42-19
    [ТелефонДомашний] => 
    [ТелефонСлужебный] => 
    [ЭлПочта] => vorotnitskaya.maria@yandex.ru
    [НужноОбщежитие] => 1
    [ПаспортВид] => Паспорт гражданина РФ
    [ПаспортСерия] => 7116
    [ПаспортНомер] => 236281
    [ПаспортДата] => 0001-01-01
    [ПаспортВыдан] => 
    [ПаспортКодПодразделения] => 
    [СемейноеПоложение] => Не замужем
    [ПосещениеПодготовительныхКурсов] => не посещал(-а)
    [ЗаведениеПодготовительныхКурсов] => 
    [МестоРаботы] => 
    [Должность] => Помощник юриста
    [ОтношениеКВоинскойСлужбе] => 
    [ВидДокументаВС] => 
    [ДокументВСНомер] => 
    [ДокументВСДата] => 0001-01-01
    [ДокументВСМестоВыдачи] => 
    [Военкомат] => 
    [ВоинскоеЗвание] => 
    [КатегорияЗапаса] => 
    [КатегорияГодностиКВоеннойСлужбе] => 
    [РегионДляФИС] => Тюменская обл
    [ТипНаселенногоПунктаДляФИС] => citytype00-000002
    [ИностранныйГражданин] => 
    [ПаспортВид2] => 
    [ПаспортСерия2] => 
    [ПаспортНомер2] => 
    [ПаспортДата2] => 0001-01-01
    [ПаспортВыдан2] => 
    [ПаспортКодПодразделения2] => 
    [СтатусЗаявки] => 
    [IDMain] => 2233
    [Keyword] => 
)

2018-07-22T23:09:06Z
========

ИностранныеЯзыки
Array
(
    [ИностранныйЯзык] => 00-000000010
    [Основной] => 1
)

2018-07-22T23:09:06Z
========

РезультатыЕГЭ

2018-07-22T23:09:06Z
========

ФайлыАбитуриента

2018-07-22T23:09:06Z
========

ПоданныеДокументы

2018-07-22T23:09:07Z
========

Заявления

2018-07-22T23:09:07Z
========

*********************************************************************
2018-07-22T23:09:07Z
========

