Абитуриент
Array
(
    [GUID] => 
    [Фамилия] => Шевченко
    [Имя] => Игнат
    [Отчество] => Олегович
    [ДатаРождения] => 2000-05-08
    [МестоРождения] => 
    [Пол] => Мужской
    [Гражданство] => РОССИЯ
    [ИндексР] => 123557
    [РегионР] => Москва
    [ГородР] => Москва
    [НасПунктР] => 
    [УлицаР] => Климашкина
    [ДомР] => 19
    [КорпусР] => 
    [КвартираР] => 85
    [ИндексП] => 123557
    [РегионП] => Москва
    [ГородП] => Москва
    [НасПунктП] => 
    [УлицаП] => Климашкина
    [ДомП] => 19
    [КорпусП] => 
    [КвартираП] => 85
    [ТелефонКонтактный] => +7(917) 595-46-49
    [ТелефонДомашний] => 
    [ТелефонСлужебный] => 
    [ЭлПочта] => sheffignat21@gmail.com
    [НужноОбщежитие] => 
    [ПаспортВид] => Паспорт гражданина РФ
    [ПаспортСерия] => 4514
    [ПаспортНомер] => 694576
    [ПаспортДата] => 2014-05-26
    [ПаспортВыдан] => УФМС по г. Москве
    [ПаспортКодПодразделения] => 770-140
    [СемейноеПоложение] => 
    [ПосещениеПодготовительныхКурсов] => не посещал(-а)
    [ЗаведениеПодготовительныхКурсов] => 
    [МестоРаботы] => 
    [Должность] => 
    [ОтношениеКВоинскойСлужбе] => 
    [ВидДокументаВС] => 
    [ДокументВСНомер] => 
    [ДокументВСДата] => 0001-01-01
    [ДокументВСМестоВыдачи] => 
    [Военкомат] => 
    [ВоинскоеЗвание] => 
    [КатегорияЗапаса] => 
    [КатегорияГодностиКВоеннойСлужбе] => 
    [РегионДляФИС] => Москва г
    [ТипНаселенногоПунктаДляФИС] => citytype00-000001
    [ИностранныйГражданин] => 
    [ПаспортВид2] => 
    [ПаспортСерия2] => 
    [ПаспортНомер2] => 
    [ПаспортДата2] => 0001-01-01
    [ПаспортВыдан2] => 
    [ПаспортКодПодразделения2] => 
    [СтатусЗаявки] => 
    [IDMain] => 3338
    [Keyword] => 
)

2018-07-16T13:44:57Z
========

СоставСемьи

2018-07-16T13:44:57Z
========

ИностранныеЯзыки
Array
(
    [ИностранныйЯзык] => 00-000000010
    [Основной] => 
)

2018-07-16T13:44:57Z
========

РезультатыЕГЭ
Array
(
    [0] => Array
        (
            [Дисциплина] => История
            [Отметка] => 79
        )

    [1] => Array
        (
            [Дисциплина] => Русский
            [Отметка] => 78
        )

    [2] => Array
        (
            [Дисциплина] => Обществознание
            [Отметка] => 97
        )

)

2018-07-16T13:44:57Z
========

ФайлыАбитуриента
Array
(
    [0] => Array
        (
            [ТипДокумента] => 00-000047
            [ПутьКФайлу] => 3338\education_00-000047.pdf
            [ДатаИзменения] => 2018-06-28
        )

    [1] => Array
        (
            [ТипДокумента] => 00-000001
            [ПутьКФайлу] => 3338\passport.jpg
            [ДатаИзменения] => 2018-06-28
        )

)

2018-07-16T13:44:57Z
========

ПоданныеДокументы

2018-07-16T13:44:58Z
========

Заявления

2018-07-16T13:44:58Z
========

*********************************************************************
2018-07-16T13:44:58Z
========

Абитуриент
Array
(
    [GUID] => 
    [Фамилия] => Шевченко
    [Имя] => Игнат
    [Отчество] => Олегович
    [ДатаРождения] => 2000-05-08
    [МестоРождения] => Москва 
    [Пол] => Мужской
    [Гражданство] => РОССИЯ
    [ИндексР] => 123557
    [РегионР] => Москва
    [ГородР] => Москва
    [НасПунктР] => 
    [УлицаР] => Климашкина
    [ДомР] => 19
    [КорпусР] => 
    [КвартираР] => 85
    [ИндексП] => 123557
    [РегионП] => Москва
    [ГородП] => Москва
    [НасПунктП] => 
    [УлицаП] => Климашкина
    [ДомП] => 19
    [КорпусП] => 
    [КвартираП] => 85
    [ТелефонКонтактный] => +7(917) 595-46-49
    [ТелефонДомашний] => 
    [ТелефонСлужебный] => 
    [ЭлПочта] => sheffignat21@gmail.com
    [НужноОбщежитие] => 
    [ПаспортВид] => Паспорт гражданина РФ
    [ПаспортСерия] => 4514
    [ПаспортНомер] => 694576
    [ПаспортДата] => 2014-05-26
    [ПаспортВыдан] => УФМС по г. Москве
    [ПаспортКодПодразделения] => 770-140
    [СемейноеПоложение] => Холост
    [ПосещениеПодготовительныхКурсов] => не посещал(-а)
    [ЗаведениеПодготовительныхКурсов] => 
    [МестоРаботы] => 
    [Должность] => 
    [ОтношениеКВоинскойСлужбе] => 
    [ВидДокументаВС] => 
    [ДокументВСНомер] => 
    [ДокументВСДата] => 0001-01-01
    [ДокументВСМестоВыдачи] => 
    [Военкомат] => 
    [ВоинскоеЗвание] => 
    [КатегорияЗапаса] => 
    [КатегорияГодностиКВоеннойСлужбе] => 
    [РегионДляФИС] => Москва г
    [ТипНаселенногоПунктаДляФИС] => citytype00-000001
    [ИностранныйГражданин] => 
    [ПаспортВид2] => 
    [ПаспортСерия2] => 
    [ПаспортНомер2] => 
    [ПаспортДата2] => 0001-01-01
    [ПаспортВыдан2] => 
    [ПаспортКодПодразделения2] => 
    [СтатусЗаявки] => 
    [IDMain] => 3338
    [Keyword] => 
)

2018-07-17T10:31:51Z
========

СоставСемьи
Array
(
    [0] => Array
        (
            [СтепеньРодства] => 000000002
            [ФИО] => Шевченко Олег Алексеевич
            [ДатаРождения] => 1968-07-03
            [МестоРаботы] => 
            [Телефон] => +7(985) 764-25-29
            [Адрес] => Москва, ул. Климашкина, д. 19, кв.85
        )

    [1] => Array
        (
            [СтепеньРодства] => 000000001
            [ФИО] => Муравьева Татьяна Евгеньевна
            [ДатаРождения] => 1972-07-01
            [МестоРаботы] => 
            [Телефон] => +7(916) 674-79-43
            [Адрес] => Москва, ул. Климашкина, д. 19, кв.85
        )

)

2018-07-17T10:31:51Z
========

ИностранныеЯзыки
Array
(
    [0] => Array
        (
            [ИностранныйЯзык] => 00-000000010
            [Основной] => 
        )

    [1] => Array
        (
            [ИностранныйЯзык] => 00-000000012
            [Основной] => 1
        )

)

2018-07-17T10:31:52Z
========

РезультатыЕГЭ
Array
(
    [0] => Array
        (
            [Дисциплина] => История
            [Отметка] => 79
        )

    [1] => Array
        (
            [Дисциплина] => Русский
            [Отметка] => 78
        )

    [2] => Array
        (
            [Дисциплина] => Обществознание
            [Отметка] => 97
        )

)

2018-07-17T10:31:52Z
========

ФайлыАбитуриента
Array
(
    [0] => Array
        (
            [ТипДокумента] => 00-000001
            [ПутьКФайлу] => 3338\passport.jpg
            [ДатаИзменения] => 2018-06-28
        )

    [1] => Array
        (
            [ТипДокумента] => 00-000047
            [ПутьКФайлу] => 3338\education_00-000047.pdf
            [ДатаИзменения] => 2018-06-28
        )

)

2018-07-17T10:31:52Z
========

ПоданныеДокументы

2018-07-17T10:31:52Z
========

Заявления

2018-07-17T10:31:53Z
========

*********************************************************************
2018-07-17T10:31:53Z
========

