Абитуриент
Array
(
    [GUID] => 
    [Фамилия] => Аникеев
    [Имя] => Павел
    [Отчество] => Олегович
    [ДатаРождения] => 2000-07-28
    [МестоРождения] => Московская область город Егорьевск улица Гражданская дом 25
    [Пол] => Мужской
    [Гражданство] => РОССИЯ
    [ИндексР] => 140300
    [РегионР] => Московская
    [ГородР] => Егорьевск
    [НасПунктР] => Егорьевский
    [УлицаР] => Гражданская
    [ДомР] => 25
    [КорпусР] => 
    [КвартираР] => Нет
    [ИндексП] => 140300
    [РегионП] => Московская
    [ГородП] => Егорьевск
    [НасПунктП] => Егорьевский
    [УлицаП] => Гражданская
    [ДомП] => 25
    [КорпусП] => 
    [КвартираП] => Нет
    [ТелефонКонтактный] => +7(999) 960-09-06
    [ТелефонДомашний] => +7(496) 404-06-45
    [ТелефонСлужебный] => +7(999) 960-09-06
    [ЭлПочта] => anikeev.pavel333@mail.ru
    [НужноОбщежитие] => 
    [ПаспортВид] => Паспорт гражданина РФ
    [ПаспортСерия] => 4614
    [ПаспортНомер] => 542485
    [ПаспортДата] => 0001-01-01
    [ПаспортВыдан] => 
    [ПаспортКодПодразделения] => 
    [СемейноеПоложение] => Холост
    [ПосещениеПодготовительныхКурсов] => не посещал(-а)
    [ЗаведениеПодготовительныхКурсов] => 
    [МестоРаботы] => 
    [Должность] => 
    [ОтношениеКВоинскойСлужбе] => 
    [ВидДокументаВС] => 
    [ДокументВСНомер] => 
    [ДокументВСДата] => 0001-01-01
    [ДокументВСМестоВыдачи] => 
    [Военкомат] => 
    [ВоинскоеЗвание] => 
    [КатегорияЗапаса] => 
    [КатегорияГодностиКВоеннойСлужбе] => 
    [РегионДляФИС] => Московская обл
    [ТипНаселенногоПунктаДляФИС] => citytype00-000002
    [ИностранныйГражданин] => 
    [ПаспортВид2] => 
    [ПаспортСерия2] => 
    [ПаспортНомер2] => 
    [ПаспортДата2] => 0001-01-01
    [ПаспортВыдан2] => 
    [ПаспортКодПодразделения2] => 
    [СтатусЗаявки] => 
    [IDMain] => 3485
    [Keyword] => 
)

2018-07-03T10:49:52Z
========

СоставСемьи

2018-07-03T10:49:52Z
========

РезультатыЕГЭ

2018-07-03T10:49:52Z
========

ФайлыАбитуриента

2018-07-03T10:49:52Z
========

ПоданныеДокументы

2018-07-03T10:49:52Z
========

Заявления

2018-07-03T10:49:53Z
========

*********************************************************************
2018-07-03T10:49:53Z
========

