Абитуриент
Array
(
    [GUID] => 
    [Фамилия] => Акчурина
    [Имя] => Гульнара
    [Отчество] => Ильгизовна
    [ДатаРождения] => 2000-07-10
    [МестоРождения] => с.Неверкино
    [Пол] => Женский
    [Гражданство] => РОССИЯ
    [ИндексР] => 442485
    [РегионР] => Пензенская
    [ГородР] => Карновар
    [НасПунктР] => Неверкинский
    [УлицаР] => Колхозная
    [ДомР] => 24
    [КорпусР] => 
    [КвартираР] => 1
    [ИндексП] => 442485
    [РегионП] => Пензенская
    [ГородП] => Карновар
    [НасПунктП] => Неверкинский
    [УлицаП] => Колхозная
    [ДомП] => 24
    [КорпусП] => 
    [КвартираП] => 1
    [ТелефонКонтактный] => +7(906) 398-74-18
    [ТелефонДомашний] => +7(841) 642-72-55
    [ТелефонСлужебный] => 
    [ЭлПочта] => akchurina8@mail.ru
    [НужноОбщежитие] => 1
    [ПаспортВид] => Паспорт гражданина РФ
    [ПаспортСерия] => 5614
    [ПаспортНомер] => 223734
    [ПаспортДата] => 2018-07-02
    [ПаспортВыдан] => МОУФМС России
    [ПаспортКодПодразделения] => 580-006
    [СемейноеПоложение] => Не замужем
    [ПосещениеПодготовительныхКурсов] => не посещал(-а)
    [ЗаведениеПодготовительныхКурсов] => 
    [МестоРаботы] => 
    [Должность] => 
    [ОтношениеКВоинскойСлужбе] => 
    [ВидДокументаВС] => 
    [ДокументВСНомер] => 
    [ДокументВСДата] => 0001-01-01
    [ДокументВСМестоВыдачи] => 
    [Военкомат] => 
    [ВоинскоеЗвание] => 
    [КатегорияЗапаса] => 
    [КатегорияГодностиКВоеннойСлужбе] => 
    [РегионДляФИС] => Пензенская обл
    [ТипНаселенногоПунктаДляФИС] => citytype00-000004
    [ИностранныйГражданин] => 
    [ПаспортВид2] => Паспорт гражданина РФ
    [ПаспортСерия2] => 
    [ПаспортНомер2] => 
    [ПаспортДата2] => 0001-01-01
    [ПаспортВыдан2] => 
    [ПаспортКодПодразделения2] => 
    [СтатусЗаявки] => 
    [IDMain] => 3559
    [Keyword] => 
)

2018-07-02T13:27:08Z
========

СоставСемьи

2018-07-02T13:27:08Z
========

ИностранныеЯзыки

2018-07-02T13:27:09Z
========

ФайлыАбитуриента
Array
(
    [ТипДокумента] => 00-000047
    [ПутьКФайлу] => 3559\education_00-000047.jpg
    [ДатаИзменения] => 2018-07-02
)

2018-07-02T13:27:09Z
========

ПоданныеДокументы
Array
(
    [ВидДокумента] => 00-000047
    [Серия] => 
    [Номер] => 05806000000342
    [Дата] => 2018-06-23
)

2018-07-02T13:27:09Z
========

Заявления

2018-07-02T13:27:09Z
========

*********************************************************************
2018-07-02T13:27:09Z
========

Абитуриент
Array
(
    [GUID] => 
    [Фамилия] => Акчурина
    [Имя] => Гульнара
    [Отчество] => Ильгизовна
    [ДатаРождения] => 2000-07-10
    [МестоРождения] => с.Неверкино
    [Пол] => Женский
    [Гражданство] => РОССИЯ
    [ИндексР] => 442485
    [РегионР] => Пензенская
    [ГородР] => Карновар
    [НасПунктР] => Неверкинский
    [УлицаР] => Колхозная
    [ДомР] => 24
    [КорпусР] => 
    [КвартираР] => 1
    [ИндексП] => 442485
    [РегионП] => Пензенская
    [ГородП] => Карновар
    [НасПунктП] => Неверкинский
    [УлицаП] => Колхозная
    [ДомП] => 24
    [КорпусП] => 
    [КвартираП] => 1
    [ТелефонКонтактный] => +7(906) 398-74-18
    [ТелефонДомашний] => +7(841) 642-72-55
    [ТелефонСлужебный] => 
    [ЭлПочта] => akchurina8@mail.ru
    [НужноОбщежитие] => 1
    [ПаспортВид] => Паспорт гражданина РФ
    [ПаспортСерия] => 5614
    [ПаспортНомер] => 223734
    [ПаспортДата] => 2018-07-02
    [ПаспортВыдан] => МОУФМС России
    [ПаспортКодПодразделения] => 580-006
    [СемейноеПоложение] => Не замужем
    [ПосещениеПодготовительныхКурсов] => не посещал(-а)
    [ЗаведениеПодготовительныхКурсов] => 
    [МестоРаботы] => 
    [Должность] => 
    [ОтношениеКВоинскойСлужбе] => 
    [ВидДокументаВС] => 
    [ДокументВСНомер] => 
    [ДокументВСДата] => 0001-01-01
    [ДокументВСМестоВыдачи] => 
    [Военкомат] => 
    [ВоинскоеЗвание] => 
    [КатегорияЗапаса] => 
    [КатегорияГодностиКВоеннойСлужбе] => 
    [РегионДляФИС] => Пензенская обл
    [ТипНаселенногоПунктаДляФИС] => citytype00-000004
    [ИностранныйГражданин] => 
    [ПаспортВид2] => Паспорт гражданина РФ
    [ПаспортСерия2] => 
    [ПаспортНомер2] => 
    [ПаспортДата2] => 0001-01-01
    [ПаспортВыдан2] => 
    [ПаспортКодПодразделения2] => 
    [СтатусЗаявки] => 
    [IDMain] => 3559
    [Keyword] => 
)

2018-07-02T13:27:35Z
========

СоставСемьи

2018-07-02T13:27:36Z
========

ИностранныеЯзыки

2018-07-02T13:27:36Z
========

ФайлыАбитуриента
Array
(
    [ТипДокумента] => 00-000047
    [ПутьКФайлу] => 3559\education_00-000047.jpg
    [ДатаИзменения] => 2018-07-02
)

2018-07-02T13:27:36Z
========

ПоданныеДокументы
Array
(
    [ВидДокумента] => 00-000047
    [Серия] => 
    [Номер] => 05806000000342
    [Дата] => 2018-06-23
)

2018-07-02T13:27:36Z
========

Заявления

2018-07-02T13:27:36Z
========

*********************************************************************
2018-07-02T13:27:36Z
========

Абитуриент
Array
(
    [GUID] => 
    [Фамилия] => Акчурина
    [Имя] => Гульнара
    [Отчество] => Ильгизовна
    [ДатаРождения] => 2000-07-10
    [МестоРождения] => с.Неверкино
    [Пол] => Женский
    [Гражданство] => РОССИЯ
    [ИндексР] => 442485
    [РегионР] => Пензенская
    [ГородР] => Карновар
    [НасПунктР] => Неверкинский
    [УлицаР] => Колхозная
    [ДомР] => 24
    [КорпусР] => 
    [КвартираР] => 1
    [ИндексП] => 442485
    [РегионП] => Пензенская
    [ГородП] => Карновар
    [НасПунктП] => Неверкинский
    [УлицаП] => Колхозная
    [ДомП] => 24
    [КорпусП] => 
    [КвартираП] => 1
    [ТелефонКонтактный] => +7(906) 398-74-18
    [ТелефонДомашний] => +7(841) 642-72-55
    [ТелефонСлужебный] => 
    [ЭлПочта] => akchurina8@mail.ru
    [НужноОбщежитие] => 1
    [ПаспортВид] => Паспорт гражданина РФ
    [ПаспортСерия] => 5614
    [ПаспортНомер] => 223734
    [ПаспортДата] => 2018-07-02
    [ПаспортВыдан] => МОУФМС России
    [ПаспортКодПодразделения] => 580-006
    [СемейноеПоложение] => Не замужем
    [ПосещениеПодготовительныхКурсов] => не посещал(-а)
    [ЗаведениеПодготовительныхКурсов] => 
    [МестоРаботы] => 
    [Должность] => 
    [ОтношениеКВоинскойСлужбе] => 
    [ВидДокументаВС] => 
    [ДокументВСНомер] => 
    [ДокументВСДата] => 0001-01-01
    [ДокументВСМестоВыдачи] => 
    [Военкомат] => 
    [ВоинскоеЗвание] => 
    [КатегорияЗапаса] => 
    [КатегорияГодностиКВоеннойСлужбе] => 
    [РегионДляФИС] => Пензенская обл
    [ТипНаселенногоПунктаДляФИС] => citytype00-000004
    [ИностранныйГражданин] => 
    [ПаспортВид2] => Паспорт гражданина РФ
    [ПаспортСерия2] => 
    [ПаспортНомер2] => 
    [ПаспортДата2] => 0001-01-01
    [ПаспортВыдан2] => 
    [ПаспортКодПодразделения2] => 
    [СтатусЗаявки] => 
    [IDMain] => 3559
    [Keyword] => 
)

2018-07-02T13:56:19Z
========

СоставСемьи

2018-07-02T13:56:19Z
========

ИностранныеЯзыки
Array
(
    [ИностранныйЯзык] => 00-000000010
    [Основной] => 1
)

2018-07-02T13:56:19Z
========

ФайлыАбитуриента
Array
(
    [0] => Array
        (
            [ТипДокумента] => 00-000001
            [ПутьКФайлу] => 3559\passport.jpg
            [ДатаИзменения] => 2018-07-02
        )

    [1] => Array
        (
            [ТипДокумента] => 
            [ПутьКФайлу] => 
            [ДатаИзменения] => 0001-01-01
        )

    [2] => Array
        (
            [ТипДокумента] => 00-000047
            [ПутьКФайлу] => 3559\education_00-000047.jpg
            [ДатаИзменения] => 2018-07-02
        )

)

2018-07-02T13:56:19Z
========

ПоданныеДокументы
Array
(
    [0] => Array
        (
            [ВидДокумента] => 
            [Серия] => 
            [Номер] => 
            [Дата] => 0001-01-01
        )

    [1] => Array
        (
            [ВидДокумента] => 00-000047
            [Серия] => 
            [Номер] => 05806000000342
            [Дата] => 2018-06-23
        )

)

2018-07-02T13:56:19Z
========

Заявления
Array
(
    [НаправлениеПодготовки] => 
    [GUIDНП] => 
    [ФормаОбучения] => 
    [GUIDФО] => 
    [ЗаявлениеПроверено] => 
    [КонкурснаяГруппа] => 
    [GUIDКГ] => 
    [УровеньОбразования] => 
    [GUIDУО] => 
    [Состояние] => 
    [РегНомер] => 
    [ДатаЗаявления] => 0001-01-01
    [ДатаОтзываЗаявления] => 0001-01-01
    [НаличиеПодлинника] => 
    [СогласиеНаЗачисление] => 
    [ДатаСогласиеНаЗачисление] => 0001-01-01
    [ДатаОтзываСогласиеНаЗачисление] => 0001-01-01
    [ВыбранныйИнститут] => 
    [ВыбранныйПрофиль] => 
    [ВидФинансирования] => 
    [ЦелевойПрием] => 
    [ОсобаяКвота] => 
    [ПутьКФайлу] => 
    [ДатаИзменения] => 0001-01-01
    [RequestStatus] => 
)

2018-07-02T13:56:20Z
========

*********************************************************************
2018-07-02T13:56:20Z
========

Абитуриент
Array
(
    [GUID] => 
    [Фамилия] => Акчурина
    [Имя] => Гульнара
    [Отчество] => Ильгизовна
    [ДатаРождения] => 2000-07-10
    [МестоРождения] => с.Неверкино
    [Пол] => Женский
    [Гражданство] => РОССИЯ
    [ИндексР] => 442485
    [РегионР] => Пензенская
    [ГородР] => Карновар
    [НасПунктР] => Неверкинский
    [УлицаР] => Колхозная
    [ДомР] => 24
    [КорпусР] => 
    [КвартираР] => .
    [ИндексП] => 442485
    [РегионП] => Пензенская
    [ГородП] => Карновар
    [НасПунктП] => Неверкинский
    [УлицаП] => Колхозная
    [ДомП] => 24
    [КорпусП] => 
    [КвартираП] => .
    [ТелефонКонтактный] => +7(906) 398-74-18
    [ТелефонДомашний] => +7(841) 642-72-55
    [ТелефонСлужебный] => 
    [ЭлПочта] => 
    [НужноОбщежитие] => 1
    [ПаспортВид] => 
    [ПаспортСерия] => 
    [ПаспортНомер] => 
    [ПаспортДата] => 2018-07-02
    [ПаспортВыдан] => МОУФМС России
    [ПаспортКодПодразделения] => 580-006
    [СемейноеПоложение] => Не замужем
    [ПосещениеПодготовительныхКурсов] => не посещал(-а)
    [ЗаведениеПодготовительныхКурсов] => 
    [МестоРаботы] => 
    [Должность] => 
    [ОтношениеКВоинскойСлужбе] => 
    [ВидДокументаВС] => 
    [ДокументВСНомер] => 
    [ДокументВСДата] => 0001-01-01
    [ДокументВСМестоВыдачи] => 
    [Военкомат] => 
    [ВоинскоеЗвание] => 
    [КатегорияЗапаса] => 
    [КатегорияГодностиКВоеннойСлужбе] => 
    [РегионДляФИС] => Пензенская обл
    [ТипНаселенногоПунктаДляФИС] => citytype00-000004
    [ИностранныйГражданин] => 
    [ПаспортВид2] => 
    [ПаспортСерия2] => 
    [ПаспортНомер2] => 
    [ПаспортДата2] => 0001-01-01
    [ПаспортВыдан2] => 
    [ПаспортКодПодразделения2] => 
    [СтатусЗаявки] => На доработке
    [IDMain] => 3559
    [Keyword] => 
)

2018-07-02T17:49:46Z
========

СоставСемьи

2018-07-02T17:49:46Z
========

ИностранныеЯзыки
Array
(
    [ИностранныйЯзык] => 00-000000010
    [Основной] => 1
)

2018-07-02T17:49:46Z
========

ФайлыАбитуриента
Array
(
    [0] => Array
        (
            [ТипДокумента] => 00-000047
            [ПутьКФайлу] => 3559\education_00-000047.pdf
            [ДатаИзменения] => 2018-07-02
        )

    [1] => Array
        (
            [ТипДокумента] => 
            [ПутьКФайлу] => 
            [ДатаИзменения] => 0001-01-01
        )

)

2018-07-02T17:49:47Z
========

ПоданныеДокументы
Array
(
    [0] => Array
        (
            [ВидДокумента] => 
            [Серия] => 
            [Номер] => 
            [Дата] => 0001-01-01
        )

    [1] => Array
        (
            [ВидДокумента] => 00-000047
            [Серия] => -
            [Номер] => 05806000000342
            [Дата] => 2018-06-23
        )

)

2018-07-02T17:49:47Z
========

Заявления
Array
(
    [НаправлениеПодготовки] => 
    [GUIDНП] => 
    [ФормаОбучения] => 
    [GUIDФО] => 
    [ЗаявлениеПроверено] => 
    [КонкурснаяГруппа] => 
    [GUIDКГ] => 
    [УровеньОбразования] => 
    [GUIDУО] => 
    [Состояние] => 
    [РегНомер] => 
    [ДатаЗаявления] => 0001-01-01
    [ДатаОтзываЗаявления] => 0001-01-01
    [НаличиеПодлинника] => 
    [СогласиеНаЗачисление] => 
    [ДатаСогласиеНаЗачисление] => 0001-01-01
    [ДатаОтзываСогласиеНаЗачисление] => 0001-01-01
    [ВыбранныйИнститут] => 
    [ВыбранныйПрофиль] => 
    [ВидФинансирования] => 
    [ЦелевойПрием] => 
    [ОсобаяКвота] => 
    [ПутьКФайлу] => 
    [ДатаИзменения] => 0001-01-01
    [RequestStatus] => 
)

2018-07-02T17:49:47Z
========

*********************************************************************
2018-07-02T17:49:47Z
========

Абитуриент
Array
(
    [GUID] => 
    [Фамилия] => Акчурина
    [Имя] => Гульнара
    [Отчество] => Ильгизовна
    [ДатаРождения] => 2000-07-10
    [МестоРождения] => с.Неверкино
    [Пол] => Женский
    [Гражданство] => РОССИЯ
    [ИндексР] => 442485
    [РегионР] => Пензенская
    [ГородР] => Карновар
    [НасПунктР] => Неверкинский
    [УлицаР] => Колхозная
    [ДомР] => 24
    [КорпусР] => 
    [КвартираР] => .
    [ИндексП] => 442485
    [РегионП] => Пензенская
    [ГородП] => Карновар
    [НасПунктП] => Неверкинский
    [УлицаП] => Колхозная
    [ДомП] => 24
    [КорпусП] => 
    [КвартираП] => .
    [ТелефонКонтактный] => +7(906) 398-74-18
    [ТелефонДомашний] => +7(841) 642-72-55
    [ТелефонСлужебный] => 
    [ЭлПочта] => 
    [НужноОбщежитие] => 1
    [ПаспортВид] => 
    [ПаспортСерия] => 
    [ПаспортНомер] => 
    [ПаспортДата] => 2018-07-02
    [ПаспортВыдан] => МОУФМС России
    [ПаспортКодПодразделения] => 580-006
    [СемейноеПоложение] => Не замужем
    [ПосещениеПодготовительныхКурсов] => не посещал(-а)
    [ЗаведениеПодготовительныхКурсов] => 
    [МестоРаботы] => 
    [Должность] => 
    [ОтношениеКВоинскойСлужбе] => 
    [ВидДокументаВС] => 
    [ДокументВСНомер] => 
    [ДокументВСДата] => 0001-01-01
    [ДокументВСМестоВыдачи] => 
    [Военкомат] => 
    [ВоинскоеЗвание] => 
    [КатегорияЗапаса] => 
    [КатегорияГодностиКВоеннойСлужбе] => 
    [РегионДляФИС] => Пензенская обл
    [ТипНаселенногоПунктаДляФИС] => citytype00-000004
    [ИностранныйГражданин] => 
    [ПаспортВид2] => 
    [ПаспортСерия2] => 
    [ПаспортНомер2] => 
    [ПаспортДата2] => 0001-01-01
    [ПаспортВыдан2] => 
    [ПаспортКодПодразделения2] => 
    [СтатусЗаявки] => На доработке
    [IDMain] => 3559
    [Keyword] => 
)

2018-07-02T19:25:11Z
========

СоставСемьи

2018-07-02T19:25:11Z
========

ИностранныеЯзыки
Array
(
    [ИностранныйЯзык] => 00-000000010
    [Основной] => 1
)

2018-07-02T19:25:11Z
========

ФайлыАбитуриента
Array
(
    [0] => Array
        (
            [ТипДокумента] => 00-000047
            [ПутьКФайлу] => 3559\education_00-000047.pdf
            [ДатаИзменения] => 2018-07-02
        )

    [1] => Array
        (
            [ТипДокумента] => 
            [ПутьКФайлу] => 
            [ДатаИзменения] => 0001-01-01
        )

)

2018-07-02T19:25:11Z
========

ПоданныеДокументы
Array
(
    [0] => Array
        (
            [ВидДокумента] => 
            [Серия] => 
            [Номер] => 
            [Дата] => 0001-01-01
        )

    [1] => Array
        (
            [ВидДокумента] => 00-000047
            [Серия] => -
            [Номер] => 05806000000342
            [Дата] => 2018-06-23
        )

)

2018-07-02T19:25:11Z
========

Заявления
Array
(
    [0] => Array
        (
            [НаправлениеПодготовки] => 
            [GUIDНП] => 32b9a3a5-55b8-11e7-80e8-005056b32020
            [ФормаОбучения] => 
            [GUIDФО] => 
            [ЗаявлениеПроверено] => 
            [КонкурснаяГруппа] => 
            [GUIDКГ] => 0c98b658-371f-11e8-812c-005056b32020
            [УровеньОбразования] => 
            [GUIDУО] => 
            [Состояние] => 
            [РегНомер] => 
            [ДатаЗаявления] => 0001-01-01
            [ДатаОтзываЗаявления] => 0001-01-01
            [НаличиеПодлинника] => 
            [СогласиеНаЗачисление] => 1
            [ДатаСогласиеНаЗачисление] => 0001-01-01
            [ДатаОтзываСогласиеНаЗачисление] => 0001-01-01
            [ВыбранныйИнститут] => 
            [ВыбранныйПрофиль] => 
            [ВидФинансирования] => 
            [ЦелевойПрием] => 
            [ОсобаяКвота] => 
            [ПутьКФайлу] => 3559\0c98b658-371f-11e8-812c-005056b32020_zayavlenie__0207072046.pdf
            [ДатаИзменения] => 2018-07-02
            [RequestStatus] => 
        )

    [1] => Array
        (
            [НаправлениеПодготовки] => 
            [GUIDНП] => 
            [ФормаОбучения] => 
            [GUIDФО] => 
            [ЗаявлениеПроверено] => 
            [КонкурснаяГруппа] => 
            [GUIDКГ] => 
            [УровеньОбразования] => 
            [GUIDУО] => 
            [Состояние] => 
            [РегНомер] => 
            [ДатаЗаявления] => 0001-01-01
            [ДатаОтзываЗаявления] => 0001-01-01
            [НаличиеПодлинника] => 
            [СогласиеНаЗачисление] => 
            [ДатаСогласиеНаЗачисление] => 0001-01-01
            [ДатаОтзываСогласиеНаЗачисление] => 0001-01-01
            [ВыбранныйИнститут] => 
            [ВыбранныйПрофиль] => 
            [ВидФинансирования] => 
            [ЦелевойПрием] => 
            [ОсобаяКвота] => 
            [ПутьКФайлу] => 
            [ДатаИзменения] => 0001-01-01
            [RequestStatus] => 
        )

)

2018-07-02T19:25:12Z
========

*********************************************************************
2018-07-02T19:25:12Z
========

Абитуриент
Array
(
    [GUID] => 
    [Фамилия] => Акчурина
    [Имя] => Гульнара
    [Отчество] => Ильгизовна
    [ДатаРождения] => 2000-07-10
    [МестоРождения] => с.Неверкино
    [Пол] => Женский
    [Гражданство] => РОССИЯ
    [ИндексР] => 442485
    [РегионР] => Пензенская
    [ГородР] => Карновар
    [НасПунктР] => Неверкинский
    [УлицаР] => Колхозная
    [ДомР] => 24
    [КорпусР] => 
    [КвартираР] => .
    [ИндексП] => 442485
    [РегионП] => Пензенская
    [ГородП] => Карновар
    [НасПунктП] => Неверкинский
    [УлицаП] => Колхозная
    [ДомП] => 24
    [КорпусП] => 
    [КвартираП] => .
    [ТелефонКонтактный] => +7(906) 398-74-18
    [ТелефонДомашний] => +7(841) 642-72-55
    [ТелефонСлужебный] => 
    [ЭлПочта] => akchurina8@mail.ru
    [НужноОбщежитие] => 1
    [ПаспортВид] => Паспорт гражданина РФ
    [ПаспортСерия] => 5614
    [ПаспортНомер] => 223734
    [ПаспортДата] => 2018-07-02
    [ПаспортВыдан] => МОУФМС России
    [ПаспортКодПодразделения] => 580-006
    [СемейноеПоложение] => Не замужем
    [ПосещениеПодготовительныхКурсов] => не посещал(-а)
    [ЗаведениеПодготовительныхКурсов] => 
    [МестоРаботы] => 
    [Должность] => 
    [ОтношениеКВоинскойСлужбе] => 
    [ВидДокументаВС] => 
    [ДокументВСНомер] => 
    [ДокументВСДата] => 0001-01-01
    [ДокументВСМестоВыдачи] => 
    [Военкомат] => 
    [ВоинскоеЗвание] => 
    [КатегорияЗапаса] => 
    [КатегорияГодностиКВоеннойСлужбе] => 
    [РегионДляФИС] => Пензенская обл
    [ТипНаселенногоПунктаДляФИС] => citytype00-000004
    [ИностранныйГражданин] => 
    [ПаспортВид2] => 
    [ПаспортСерия2] => 
    [ПаспортНомер2] => 
    [ПаспортДата2] => 0001-01-01
    [ПаспортВыдан2] => 
    [ПаспортКодПодразделения2] => 
    [СтатусЗаявки] => На доработке
    [IDMain] => 3559
    [Keyword] => 
)

2018-07-06T15:27:59Z
========

СоставСемьи

2018-07-06T15:27:59Z
========

ИностранныеЯзыки
Array
(
    [ИностранныйЯзык] => 00-000000010
    [Основной] => 1
)

2018-07-06T15:27:59Z
========

ФайлыАбитуриента
Array
(
    [0] => Array
        (
            [ТипДокумента] => 00-000001
            [ПутьКФайлу] => 3559\passport.pdf
            [ДатаИзменения] => 2018-07-06
        )

    [1] => Array
        (
            [ТипДокумента] => 
            [ПутьКФайлу] => 
            [ДатаИзменения] => 0001-01-01
        )

    [2] => Array
        (
            [ТипДокумента] => 00-000047
            [ПутьКФайлу] => 3559\education_00-000047.pdf
            [ДатаИзменения] => 2018-07-02
        )

)

2018-07-06T15:27:59Z
========

ПоданныеДокументы
Array
(
    [0] => Array
        (
            [ВидДокумента] => 
            [Серия] => 
            [Номер] => 
            [Дата] => 0001-01-01
        )

    [1] => Array
        (
            [ВидДокумента] => 00-000047
            [Серия] => -
            [Номер] => 05806000000342
            [Дата] => 2018-06-23
        )

)

2018-07-06T15:28:00Z
========

Заявления
Array
(
    [0] => Array
        (
            [НаправлениеПодготовки] => 
            [GUIDНП] => 32b9a3a5-55b8-11e7-80e8-005056b32020
            [ФормаОбучения] => 
            [GUIDФО] => 
            [ЗаявлениеПроверено] => 
            [КонкурснаяГруппа] => 
            [GUIDКГ] => 0c98b658-371f-11e8-812c-005056b32020
            [УровеньОбразования] => 
            [GUIDУО] => 
            [Состояние] => 
            [РегНомер] => 
            [ДатаЗаявления] => 0001-01-01
            [ДатаОтзываЗаявления] => 0001-01-01
            [НаличиеПодлинника] => 
            [СогласиеНаЗачисление] => 1
            [ДатаСогласиеНаЗачисление] => 0001-01-01
            [ДатаОтзываСогласиеНаЗачисление] => 0001-01-01
            [ВыбранныйИнститут] => 
            [ВыбранныйПрофиль] => 
            [ВидФинансирования] => 
            [ЦелевойПрием] => 
            [ОсобаяКвота] => 
            [ПутьКФайлу] => 3559\0c98b658-371f-11e8-812c-005056b32020_zayavlenie__0207072046.pdf
            [ДатаИзменения] => 2018-07-02
            [RequestStatus] => На доработке
        )

    [1] => Array
        (
            [НаправлениеПодготовки] => 
            [GUIDНП] => 
            [ФормаОбучения] => 
            [GUIDФО] => 
            [ЗаявлениеПроверено] => 
            [КонкурснаяГруппа] => 
            [GUIDКГ] => 
            [УровеньОбразования] => 
            [GUIDУО] => 
            [Состояние] => 
            [РегНомер] => 
            [ДатаЗаявления] => 0001-01-01
            [ДатаОтзываЗаявления] => 0001-01-01
            [НаличиеПодлинника] => 
            [СогласиеНаЗачисление] => 
            [ДатаСогласиеНаЗачисление] => 0001-01-01
            [ДатаОтзываСогласиеНаЗачисление] => 0001-01-01
            [ВыбранныйИнститут] => 
            [ВыбранныйПрофиль] => 
            [ВидФинансирования] => 
            [ЦелевойПрием] => 
            [ОсобаяКвота] => 
            [ПутьКФайлу] => 
            [ДатаИзменения] => 0001-01-01
            [RequestStatus] => На доработке
        )

)

2018-07-06T15:28:00Z
========

*********************************************************************
2018-07-06T15:28:00Z
========

Абитуриент
Array
(
    [GUID] => 
    [Фамилия] => Акчурина
    [Имя] => Гульнара
    [Отчество] => Ильгизовна
    [ДатаРождения] => 2000-07-10
    [МестоРождения] => с.Неверкино
    [Пол] => Женский
    [Гражданство] => РОССИЯ
    [ИндексР] => 442485
    [РегионР] => Пензенская
    [ГородР] => Карновар
    [НасПунктР] => Неверкинский
    [УлицаР] => Колхозная
    [ДомР] => 24
    [КорпусР] => 
    [КвартираР] => .
    [ИндексП] => 442485
    [РегионП] => Пензенская
    [ГородП] => Карновар
    [НасПунктП] => Неверкинский
    [УлицаП] => Колхозная
    [ДомП] => 24
    [КорпусП] => 
    [КвартираП] => .
    [ТелефонКонтактный] => +7(906) 398-74-18
    [ТелефонДомашний] => +7(841) 642-72-55
    [ТелефонСлужебный] => 
    [ЭлПочта] => akchurina8@mail.ru
    [НужноОбщежитие] => 1
    [ПаспортВид] => Паспорт гражданина РФ
    [ПаспортСерия] => 5614
    [ПаспортНомер] => 223734
    [ПаспортДата] => 2018-07-02
    [ПаспортВыдан] => МОУФМС России
    [ПаспортКодПодразделения] => 580-006
    [СемейноеПоложение] => Не замужем
    [ПосещениеПодготовительныхКурсов] => не посещал(-а)
    [ЗаведениеПодготовительныхКурсов] => 
    [МестоРаботы] => 
    [Должность] => 
    [ОтношениеКВоинскойСлужбе] => 
    [ВидДокументаВС] => 
    [ДокументВСНомер] => 
    [ДокументВСДата] => 0001-01-01
    [ДокументВСМестоВыдачи] => 
    [Военкомат] => 
    [ВоинскоеЗвание] => 
    [КатегорияЗапаса] => 
    [КатегорияГодностиКВоеннойСлужбе] => 
    [РегионДляФИС] => Пензенская обл
    [ТипНаселенногоПунктаДляФИС] => citytype00-000004
    [ИностранныйГражданин] => 
    [ПаспортВид2] => 
    [ПаспортСерия2] => 
    [ПаспортНомер2] => 
    [ПаспортДата2] => 0001-01-01
    [ПаспортВыдан2] => 
    [ПаспортКодПодразделения2] => 
    [СтатусЗаявки] => Принята
    [IDMain] => 3559
    [Keyword] => 
)

2018-07-07T16:47:07Z
========

СоставСемьи

2018-07-07T16:47:07Z
========

ИностранныеЯзыки
Array
(
    [ИностранныйЯзык] => 00-000000010
    [Основной] => 1
)

2018-07-07T16:47:07Z
========

ФайлыАбитуриента
Array
(
    [0] => Array
        (
            [ТипДокумента] => 
            [ПутьКФайлу] => 
            [ДатаИзменения] => 0001-01-01
        )

    [1] => Array
        (
            [ТипДокумента] => 00-000047
            [ПутьКФайлу] => 3559\education_00-000047.pdf
            [ДатаИзменения] => 2018-07-02
        )

    [2] => Array
        (
            [ТипДокумента] => 00-000001
            [ПутьКФайлу] => 3559\passport.pdf
            [ДатаИзменения] => 2018-07-06
        )

)

2018-07-07T16:47:08Z
========

ПоданныеДокументы
Array
(
    [0] => Array
        (
            [ВидДокумента] => 
            [Серия] => 
            [Номер] => 
            [Дата] => 0001-01-01
        )

    [1] => Array
        (
            [ВидДокумента] => 00-000047
            [Серия] => -
            [Номер] => 05806000000342
            [Дата] => 2018-06-23
        )

)

2018-07-07T16:47:08Z
========

Заявления
Array
(
    [0] => Array
        (
            [НаправлениеПодготовки] => 
            [GUIDНП] => 
            [ФормаОбучения] => 
            [GUIDФО] => 
            [ЗаявлениеПроверено] => 
            [КонкурснаяГруппа] => 
            [GUIDКГ] => 
            [УровеньОбразования] => 
            [GUIDУО] => 
            [Состояние] => 
            [РегНомер] => 
            [ДатаЗаявления] => 0001-01-01
            [ДатаОтзываЗаявления] => 0001-01-01
            [НаличиеПодлинника] => 
            [СогласиеНаЗачисление] => 
            [ДатаСогласиеНаЗачисление] => 0001-01-01
            [ДатаОтзываСогласиеНаЗачисление] => 0001-01-01
            [ВыбранныйИнститут] => 
            [ВыбранныйПрофиль] => 
            [ВидФинансирования] => 
            [ЦелевойПрием] => 
            [ОсобаяКвота] => 
            [ПутьКФайлу] => 
            [ДатаИзменения] => 0001-01-01
            [RequestStatus] => Принята
        )

    [1] => Array
        (
            [НаправлениеПодготовки] => 
            [GUIDНП] => 32b9a3a5-55b8-11e7-80e8-005056b32020
            [ФормаОбучения] => 
            [GUIDФО] => 
            [ЗаявлениеПроверено] => 
            [КонкурснаяГруппа] => 
            [GUIDКГ] => 0c98b658-371f-11e8-812c-005056b32020
            [УровеньОбразования] => 
            [GUIDУО] => 
            [Состояние] => 
            [РегНомер] => 
            [ДатаЗаявления] => 0001-01-01
            [ДатаОтзываЗаявления] => 0001-01-01
            [НаличиеПодлинника] => 
            [СогласиеНаЗачисление] => 1
            [ДатаСогласиеНаЗачисление] => 0001-01-01
            [ДатаОтзываСогласиеНаЗачисление] => 0001-01-01
            [ВыбранныйИнститут] => 
            [ВыбранныйПрофиль] => 
            [ВидФинансирования] => 
            [ЦелевойПрием] => 
            [ОсобаяКвота] => 
            [ПутьКФайлу] => 3559\0c98b658-371f-11e8-812c-005056b32020_zayavlenie__0607153215.pdf
            [ДатаИзменения] => 2018-07-06
            [RequestStatus] => Принята
        )

)

2018-07-07T16:47:08Z
========

*********************************************************************
2018-07-07T16:47:08Z
========

Абитуриент
Array
(
    [GUID] => e660a3a8-81d5-11e8-8131-005056b32020
    [Фамилия] => Акчурина
    [Имя] => Гульнара
    [Отчество] => Ильгизовна
    [ДатаРождения] => 2000-07-10
    [МестоРождения] => с.Неверкино
    [Пол] => Женский
    [Гражданство] => РОССИЯ
    [ИндексР] => 442485
    [РегионР] => Пензенская обл
    [ГородР] => 
    [НасПунктР] => Карновар с
    [УлицаР] => Колхозная ул
    [ДомР] => 24
    [КорпусР] => 
    [КвартираР] => 
    [ИндексП] => 442485
    [РегионП] => Пензенская обл
    [ГородП] => 
    [НасПунктП] => Карновар с
    [УлицаП] => Колхозная ул
    [ДомП] => 24
    [КорпусП] => 
    [КвартираП] => 
    [ТелефонКонтактный] => +7(906) 398-74-18
    [ТелефонДомашний] => +7(841) 642-72-55
    [ТелефонСлужебный] => 
    [ЭлПочта] => akchurina8@mail.ru
    [НужноОбщежитие] => 1
    [ПаспортВид] => Паспорт гражданина РФ
    [ПаспортСерия] => 5614
    [ПаспортНомер] => 223734
    [ПаспортДата] => 2014-07-23
    [ПаспортВыдан] => МОУФМС России по Пензенской области в гор. Кузнецк
    [ПаспортКодПодразделения] => 580-006
    [СемейноеПоложение] => Не замужем
    [ПосещениеПодготовительныхКурсов] => Не посещал
    [ЗаведениеПодготовительныхКурсов] => 
    [МестоРаботы] => 
    [Должность] => 
    [ОтношениеКВоинскойСлужбе] => 
    [ВидДокументаВС] => 
    [ДокументВСНомер] => 
    [ДокументВСДата] => 0001-01-01
    [ДокументВСМестоВыдачи] => 
    [Военкомат] => 
    [ВоинскоеЗвание] => 
    [КатегорияЗапаса] => 
    [КатегорияГодностиКВоеннойСлужбе] => 
    [РегионДляФИС] => Пензенская обл
    [ТипНаселенногоПунктаДляФИС] => Населенный пункт сельского типа
    [ИностранныйГражданин] => 
    [ПаспортВид2] => 
    [ПаспортСерия2] => 
    [ПаспортНомер2] => 
    [ПаспортДата2] => 0001-01-01
    [ПаспортВыдан2] => 
    [ПаспортКодПодразделения2] => 
    [СтатусЗаявки] => Принята
    [IDMain] => 3559
    [Keyword] => 
)

2018-07-27T11:31:09Z
========

СоставСемьи

2018-07-27T11:31:09Z
========

ИностранныеЯзыки
Array
(
    [ИностранныйЯзык] => 00-000000010
    [Основной] => 
)

2018-07-27T11:31:09Z
========

ФайлыАбитуриента
Array
(
    [0] => Array
        (
            [ТипДокумента] => 00-000047
            [ПутьКФайлу] => 3559\education_00-000047.pdf
            [ДатаИзменения] => 2018-07-02
        )

    [1] => Array
        (
            [ТипДокумента] => 00-000001
            [ПутьКФайлу] => 3559\passport.pdf
            [ДатаИзменения] => 2018-07-06
        )

)

2018-07-27T11:31:10Z
========

ПоданныеДокументы
Array
(
    [0] => Array
        (
            [ВидДокумента] => 00-000047
            [Серия] => 
            [Номер] => 05806000000342
            [Дата] => 2018-06-23
        )

    [1] => Array
        (
            [ВидДокумента] => 00-000067
            [Серия] => 
            [Номер] => 
            [Дата] => 2018-06-23
        )

    [2] => Array
        (
            [ВидДокумента] => 00-000003
            [Серия] => 
            [Номер] => 
            [Дата] => 0001-01-01
        )

    [3] => Array
        (
            [ВидДокумента] => 000000002
            [Серия] => 
            [Номер] => 
            [Дата] => 0001-01-01
        )

)

2018-07-27T11:31:10Z
========

Заявления
Array
(
    [НаправлениеПодготовки] => Правовое обеспечение национальной безопасности
    [GUIDНП] => c1cff574-2b55-11e6-80be-005056b32020
    [ФормаОбучения] => Очная
    [GUIDФО] => 8f9f43a8-bc09-433b-9057-64c6a3ac8b10
    [ЗаявлениеПроверено] => 1
    [КонкурснаяГруппа] => Нац без ОЧНАЯ бюджет
    [GUIDКГ] => 0c98b658-371f-11e8-812c-005056b32020
    [УровеньОбразования] => Специалист
    [GUIDУО] => e7ec8534-0420-46b4-8c23-3933acf41357
    [Состояние] => Подал заявление
    [РегНомер] => 0111488
    [ДатаЗаявления] => 2018-07-06
    [ДатаОтзываЗаявления] => 0001-01-01
    [НаличиеПодлинника] => 
    [СогласиеНаЗачисление] => 
    [ДатаСогласиеНаЗачисление] => 0001-01-01
    [ДатаОтзываСогласиеНаЗачисление] => 0001-01-01
    [ВыбранныйИнститут] => 
    [ВыбранныйПрофиль] => 
    [GUIDПрофиль] => 00000000-0000-0000-0000-000000000000
    [ВидФинансирования] => Бюджетное
    [ЦелевойПрием] => 
    [ОсобаяКвота] => 
    [ПутьКФайлу] => 3559\0c98b658-371f-11e8-812c-005056b32020_zayavlenie__0607153215.pdf
    [ДатаИзменения] => 2018-07-06
    [RequestStatus] => Принята
)

2018-07-27T11:31:11Z
========

*********************************************************************
2018-07-27T11:31:11Z
========

Абитуриент
Array
(
    [GUID] => e660a3a8-81d5-11e8-8131-005056b32020
    [Фамилия] => Акчурина
    [Имя] => Гульнара
    [Отчество] => Ильгизовна
    [ДатаРождения] => 2000-07-10
    [МестоРождения] => с.Неверкино
    [Пол] => Женский
    [Гражданство] => РОССИЯ
    [ИндексР] => 442485
    [РегионР] => Пензенская обл
    [ГородР] => 
    [НасПунктР] => Карновар с
    [УлицаР] => Колхозная ул
    [ДомР] => 24
    [КорпусР] => 
    [КвартираР] => 
    [ИндексП] => 442485
    [РегионП] => Пензенская обл
    [ГородП] => 
    [НасПунктП] => Карновар с
    [УлицаП] => Колхозная ул
    [ДомП] => 24
    [КорпусП] => 
    [КвартираП] => 
    [ТелефонКонтактный] => +7(906) 398-74-18
    [ТелефонДомашний] => +7(841) 642-72-55
    [ТелефонСлужебный] => 
    [ЭлПочта] => akchurina8@mail.ru
    [НужноОбщежитие] => 1
    [ПаспортВид] => Паспорт гражданина РФ
    [ПаспортСерия] => 5614
    [ПаспортНомер] => 223734
    [ПаспортДата] => 2014-07-23
    [ПаспортВыдан] => МОУФМС России по Пензенской области в гор. Кузнецк
    [ПаспортКодПодразделения] => 580-006
    [СемейноеПоложение] => Не замужем
    [ПосещениеПодготовительныхКурсов] => Не посещал
    [ЗаведениеПодготовительныхКурсов] => 
    [МестоРаботы] => 
    [Должность] => 
    [ОтношениеКВоинскойСлужбе] => 
    [ВидДокументаВС] => 
    [ДокументВСНомер] => 
    [ДокументВСДата] => 0001-01-01
    [ДокументВСМестоВыдачи] => 
    [Военкомат] => 
    [ВоинскоеЗвание] => 
    [КатегорияЗапаса] => 
    [КатегорияГодностиКВоеннойСлужбе] => 
    [РегионДляФИС] => Пензенская обл
    [ТипНаселенногоПунктаДляФИС] => Населенный пункт сельского типа
    [ИностранныйГражданин] => 
    [ПаспортВид2] => 
    [ПаспортСерия2] => 
    [ПаспортНомер2] => 
    [ПаспортДата2] => 0001-01-01
    [ПаспортВыдан2] => 
    [ПаспортКодПодразделения2] => 
    [СтатусЗаявки] => Принята
    [IDMain] => 3559
    [Keyword] => 
)

2018-07-30T13:42:53Z
========

СоставСемьи

2018-07-30T13:42:53Z
========

ИностранныеЯзыки
Array
(
    [ИностранныйЯзык] => 00-000000010
    [Основной] => 
)

2018-07-30T13:42:54Z
========

ФайлыАбитуриента
Array
(
    [0] => Array
        (
            [ТипДокумента] => 00-000047
            [ПутьКФайлу] => 3559\education_00-000047.pdf
            [ДатаИзменения] => 2018-07-02
        )

    [1] => Array
        (
            [ТипДокумента] => 00-000001
            [ПутьКФайлу] => 3559\passport.pdf
            [ДатаИзменения] => 2018-07-06
        )

)

2018-07-30T13:42:54Z
========

ПоданныеДокументы
Array
(
    [0] => Array
        (
            [ВидДокумента] => 00-000047
            [Серия] => 
            [Номер] => 05806000000342
            [Дата] => 2018-06-23
        )

    [1] => Array
        (
            [ВидДокумента] => 00-000067
            [Серия] => 
            [Номер] => 
            [Дата] => 2018-06-23
        )

    [2] => Array
        (
            [ВидДокумента] => 00-000003
            [Серия] => 
            [Номер] => 
            [Дата] => 0001-01-01
        )

    [3] => Array
        (
            [ВидДокумента] => 000000002
            [Серия] => 
            [Номер] => 
            [Дата] => 0001-01-01
        )

)

2018-07-30T13:42:54Z
========

Заявления
Array
(
    [НаправлениеПодготовки] => Правовое обеспечение национальной безопасности
    [GUIDНП] => c1cff574-2b55-11e6-80be-005056b32020
    [ФормаОбучения] => Очная
    [GUIDФО] => 8f9f43a8-bc09-433b-9057-64c6a3ac8b10
    [ЗаявлениеПроверено] => 1
    [КонкурснаяГруппа] => Нац без ОЧНАЯ бюджет
    [GUIDКГ] => 0c98b658-371f-11e8-812c-005056b32020
    [УровеньОбразования] => Специалист
    [GUIDУО] => e7ec8534-0420-46b4-8c23-3933acf41357
    [Состояние] => Подал заявление
    [РегНомер] => 0111488
    [ДатаЗаявления] => 2018-07-06
    [ДатаОтзываЗаявления] => 0001-01-01
    [НаличиеПодлинника] => 
    [СогласиеНаЗачисление] => 
    [ДатаСогласиеНаЗачисление] => 0001-01-01
    [ДатаОтзываСогласиеНаЗачисление] => 0001-01-01
    [ВыбранныйИнститут] => 
    [ВыбранныйПрофиль] => 
    [GUIDПрофиль] => 00000000-0000-0000-0000-000000000000
    [ВидФинансирования] => Бюджетное
    [ЦелевойПрием] => 
    [ОсобаяКвота] => 
    [ПутьКФайлу] => 3559\0c98b658-371f-11e8-812c-005056b32020_zayavlenie__0607153215.pdf
    [ДатаИзменения] => 2018-07-06
    [RequestStatus] => Принята
)

2018-07-30T13:42:55Z
========

*********************************************************************
2018-07-30T13:42:55Z
========

