Абитуриент
Array
(
    [GUID] => 6ceea0b7-7ead-11e8-8131-005056b32020
    [Фамилия] => Шилова
    [Имя] => Мария
    [Отчество] => Ярославовна
    [ДатаРождения] => 2000-04-01
    [МестоРождения] => г. Нижневартовск
    [Пол] => Женский
    [Гражданство] => РОССИЯ
    [ИндексР] => 628007
    [РегионР] => Ханты-Мансийский Автономный округ - Югра АО
    [ГородР] => Ханты-Мансийск г
    [НасПунктР] => 
    [УлицаР] => Дунина-Горкавича ул
    [ДомР] => 7
    [КорпусР] => 
    [КвартираР] => 71
    [ИндексП] => 628007
    [РегионП] => Ханты-Мансийский Автономный округ - Югра АО
    [ГородП] => Ханты-Мансийск г
    [НасПунктП] => 
    [УлицаП] => Дунина-Горкавича ул
    [ДомП] => 7
    [КорпусП] => 
    [КвартираП] => 71
    [ТелефонКонтактный] => +7(950) 501-17-11
    [ТелефонДомашний] => 
    [ТелефонСлужебный] => 
    [ЭлПочта] => masha010400@mail.ru
    [НужноОбщежитие] => 1
    [ПаспортВид] => Паспорт гражданина РФ
    [ПаспортСерия] => 6714
    [ПаспортНомер] => 388882
    [ПаспортДата] => 2014-04-15
    [ПаспортВыдан] => ОТДЕЛОМ УФМС РОССИИ ПО ХАНТЫ-МАНСИЙСКОМУ АВТОНОМ. ОКР. - ЮГРЕ В ГОР. ХАНТЫ-МНСИЙСКЕ
    [ПаспортКодПодразделения] => 860-031
    [СемейноеПоложение] => Не замужем
    [ПосещениеПодготовительныхКурсов] => Не посещал
    [ЗаведениеПодготовительныхКурсов] => 
    [МестоРаботы] => 
    [Должность] => 
    [ОтношениеКВоинскойСлужбе] => 
    [ВидДокументаВС] => 
    [ДокументВСНомер] => 
    [ДокументВСДата] => 0001-01-01
    [ДокументВСМестоВыдачи] => 
    [Военкомат] => 
    [ВоинскоеЗвание] => 
    [КатегорияЗапаса] => 
    [КатегорияГодностиКВоеннойСлужбе] => 
    [РегионДляФИС] => Ханты-Мансийский Автономный округ - Югра АО
    [ТипНаселенногоПунктаДляФИС] => Город
    [ИностранныйГражданин] => 
    [ПаспортВид2] => 
    [ПаспортСерия2] => 
    [ПаспортНомер2] => 
    [ПаспортДата2] => 0001-01-01
    [ПаспортВыдан2] => 
    [ПаспортКодПодразделения2] => 
    [СтатусЗаявки] => На доработке
    [IDMain] => 4186
    [Keyword] => 
)

2018-07-06T19:21:49Z
========

СоставСемьи
Array
(
    [0] => Array
        (
            [СтепеньРодства] => Отец
            [ФИО] => Шилов Ярослав Вячеславович
            [ДатаРождения] => 1970-01-01
            [МестоРаботы] => 
            [Телефон] => +7(902) 814-41-40
            [Адрес] => 
        )

    [1] => Array
        (
            [СтепеньРодства] => Мать
            [ФИО] => Шилова Татьяна Викторовна
            [ДатаРождения] => 1966-12-12
            [МестоРаботы] => 
            [Телефон] => +7(902) 819-48-29
            [Адрес] => 
        )

)

2018-07-06T19:21:52Z
========

ИностранныеЯзыки
Array
(
    [0] => Array
        (
            [ИностранныйЯзык] => Французский язык
            [Основной] => 
        )

    [1] => Array
        (
            [ИностранныйЯзык] => Немецкий язык
            [Основной] => 
        )

    [2] => Array
        (
            [ИностранныйЯзык] => Английский язык
            [Основной] => 1
        )

)

2018-07-06T19:21:54Z
========

ФайлыАбитуриента
Array
(
    [0] => Array
        (
            [ТипДокумента] => 00-000067
            [ПутьКФайлу] => 4186\00-000067_attestat_normalnyy_ilovepdf_compressed_0407092126.pdf
            [ДатаИзменения] => 2018-07-04
        )

    [1] => Array
        (
            [ТипДокумента] => 00-000001
            [ПутьКФайлу] => 4186\passport.pdf
            [ДатаИзменения] => 2018-07-04
        )

    [2] => Array
        (
            [ТипДокумента] => 00-000079
            [ПутьКФайлу] => 4186\00-000079_olimpiada_001_0407092126.jpg
            [ДатаИзменения] => 2018-07-04
        )

    [3] => Array
        (
            [ТипДокумента] => 00-000047
            [ПутьКФайлу] => 4186\education_00-000047.pdf
            [ДатаИзменения] => 2018-07-04
        )

)

2018-07-06T19:21:58Z
========

ПоданныеДокументы
Array
(
    [0] => Array
        (
            [ВидДокумента] => 00-000003
            [Серия] => 
            [Номер] => 
            [Дата] => 0001-01-01
        )

    [1] => Array
        (
            [ВидДокумента] => 00-000067
            [Серия] => 
            [Номер] => 
            [Дата] => 2018-06-23
        )

    [2] => Array
        (
            [ВидДокумента] => 00-000102
            [Серия] => 08624
            [Номер] => 002038539
            [Дата] => 2018-06-23
        )

)

2018-07-06T19:22:00Z
========

Заявления
Array
(
    [0] => Array
        (
            [НаправлениеПодготовки] => Юриспруденция
            [GUIDНП] => c55a0055-f268-11e5-9d71-005056963750
            [ФормаОбучения] => Очная
            [GUIDФО] => 8f9f43a8-bc09-433b-9057-64c6a3ac8b10
            [ЗаявлениеПроверено] => 1
            [КонкурснаяГруппа] => БАК Юрисп ОЧНАЯ бюджет
            [GUIDКГ] => a078523d-371c-11e8-812c-005056b32020
            [УровеньОбразования] => Бакалавр академический
            [GUIDУО] => 881a7dee-d400-4119-b425-a0d748d93022
            [Состояние] => Подал заявление
            [РегНомер] => 0109964
            [ДатаЗаявления] => 2018-07-03
            [ДатаОтзываЗаявления] => 0001-01-01
            [НаличиеПодлинника] => 
            [СогласиеНаЗачисление] => 
            [ДатаСогласиеНаЗачисление] => 0001-01-01
            [ДатаОтзываСогласиеНаЗачисление] => 0001-01-01
            [ВыбранныйИнститут] => 
            [ВыбранныйПрофиль] => 
            [ВидФинансирования] => Бюджетное
            [ЦелевойПрием] => 
            [ОсобаяКвота] => 
            [ПутьКФайлу] => 
            [ДатаИзменения] => 0001-01-01
            [RequestStatus] => На доработке
        )

    [1] => Array
        (
            [НаправлениеПодготовки] => Судебная и прокурорская деятельность
            [GUIDНП] => 015bcca1-3722-11e8-812c-005056b32020
            [ФормаОбучения] => Очная
            [GUIDФО] => 8f9f43a8-bc09-433b-9057-64c6a3ac8b10
            [ЗаявлениеПроверено] => 1
            [КонкурснаяГруппа] => Судебная и прокурорская деятельность ОЧНАЯ бюджет
            [GUIDКГ] => 33ae0cec-748d-11e8-8131-005056b32020
            [УровеньОбразования] => Специалист
            [GUIDУО] => e7ec8534-0420-46b4-8c23-3933acf41357
            [Состояние] => Подал заявление
            [РегНомер] => 0109964
            [ДатаЗаявления] => 2018-07-03
            [ДатаОтзываЗаявления] => 0001-01-01
            [НаличиеПодлинника] => 
            [СогласиеНаЗачисление] => 
            [ДатаСогласиеНаЗачисление] => 0001-01-01
            [ДатаОтзываСогласиеНаЗачисление] => 0001-01-01
            [ВыбранныйИнститут] => 
            [ВыбранныйПрофиль] => 
            [ВидФинансирования] => Бюджетное
            [ЦелевойПрием] => 
            [ОсобаяКвота] => 
            [ПутьКФайлу] => 
            [ДатаИзменения] => 0001-01-01
            [RequestStatus] => На доработке
        )

    [2] => Array
        (
            [НаправлениеПодготовки] => Правовое обеспечение национальной безопасности
            [GUIDНП] => c1cff574-2b55-11e6-80be-005056b32020
            [ФормаОбучения] => Очная
            [GUIDФО] => 8f9f43a8-bc09-433b-9057-64c6a3ac8b10
            [ЗаявлениеПроверено] => 1
            [КонкурснаяГруппа] => Нац без ОЧНАЯ бюджет
            [GUIDКГ] => 0c98b658-371f-11e8-812c-005056b32020
            [УровеньОбразования] => Специалист
            [GUIDУО] => e7ec8534-0420-46b4-8c23-3933acf41357
            [Состояние] => Подал заявление
            [РегНомер] => 0109964
            [ДатаЗаявления] => 2018-07-03
            [ДатаОтзываЗаявления] => 0001-01-01
            [НаличиеПодлинника] => 
            [СогласиеНаЗачисление] => 
            [ДатаСогласиеНаЗачисление] => 0001-01-01
            [ДатаОтзываСогласиеНаЗачисление] => 0001-01-01
            [ВыбранныйИнститут] => 
            [ВыбранныйПрофиль] => 
            [ВидФинансирования] => Бюджетное
            [ЦелевойПрием] => 
            [ОсобаяКвота] => 
            [ПутьКФайлу] => 
            [ДатаИзменения] => 0001-01-01
            [RequestStatus] => На доработке
        )

)

2018-07-06T19:22:03Z
========

*********************************************************************
2018-07-06T19:22:03Z
========

Абитуриент
Array
(
    [GUID] => 6ceea0b7-7ead-11e8-8131-005056b32020
    [Фамилия] => Шилова
    [Имя] => Мария
    [Отчество] => Ярославовна
    [ДатаРождения] => 2000-04-01
    [МестоРождения] => г. Нижневартовск
    [Пол] => Женский
    [Гражданство] => РОССИЯ
    [ИндексР] => 628007
    [РегионР] => Ханты-Мансийский Автономный округ - Югра АО
    [ГородР] => Ханты-Мансийск г
    [НасПунктР] => 
    [УлицаР] => Дунина-Горкавича ул
    [ДомР] => 7
    [КорпусР] => 
    [КвартираР] => 71
    [ИндексП] => 628007
    [РегионП] => Ханты-Мансийский Автономный округ - Югра АО
    [ГородП] => Ханты-Мансийск г
    [НасПунктП] => 
    [УлицаП] => Дунина-Горкавича ул
    [ДомП] => 7
    [КорпусП] => 
    [КвартираП] => 71
    [ТелефонКонтактный] => +7(950) 501-17-11
    [ТелефонДомашний] => 
    [ТелефонСлужебный] => 
    [ЭлПочта] => masha010400@mail.ru
    [НужноОбщежитие] => 1
    [ПаспортВид] => Паспорт гражданина РФ
    [ПаспортСерия] => 6714
    [ПаспортНомер] => 388882
    [ПаспортДата] => 2014-04-15
    [ПаспортВыдан] => ОТДЕЛОМ УФМС РОССИИ ПО ХАНТЫ-МАНСИЙСКОМУ АВТОНОМ. ОКР. - ЮГРЕ В ГОР. ХАНТЫ-МНСИЙСКЕ
    [ПаспортКодПодразделения] => 860-031
    [СемейноеПоложение] => Не замужем
    [ПосещениеПодготовительныхКурсов] => Не посещал
    [ЗаведениеПодготовительныхКурсов] => 
    [МестоРаботы] => 
    [Должность] => 
    [ОтношениеКВоинскойСлужбе] => 
    [ВидДокументаВС] => 
    [ДокументВСНомер] => 
    [ДокументВСДата] => 0001-01-01
    [ДокументВСМестоВыдачи] => 
    [Военкомат] => 
    [ВоинскоеЗвание] => 
    [КатегорияЗапаса] => 
    [КатегорияГодностиКВоеннойСлужбе] => 
    [РегионДляФИС] => Ханты-Мансийский Автономный округ - Югра АО
    [ТипНаселенногоПунктаДляФИС] => Город
    [ИностранныйГражданин] => 
    [ПаспортВид2] => 
    [ПаспортСерия2] => 
    [ПаспортНомер2] => 
    [ПаспортДата2] => 0001-01-01
    [ПаспортВыдан2] => 
    [ПаспортКодПодразделения2] => 
    [СтатусЗаявки] => На доработке
    [IDMain] => 4186
    [Keyword] => 
)

2018-07-15T19:07:44Z
========

СоставСемьи
Array
(
    [0] => Array
        (
            [СтепеньРодства] => Мать
            [ФИО] => Шилова Татьяна Викторовна
            [ДатаРождения] => 1966-12-12
            [МестоРаботы] => 
            [Телефон] => +7(902) 819-48-29
            [Адрес] => 
        )

    [1] => Array
        (
            [СтепеньРодства] => Отец
            [ФИО] => Шилов Ярослав Вячеславович
            [ДатаРождения] => 1970-01-01
            [МестоРаботы] => 
            [Телефон] => +7(902) 814-41-40
            [Адрес] => 
        )

)

2018-07-15T19:07:45Z
========

ИностранныеЯзыки
Array
(
    [0] => Array
        (
            [ИностранныйЯзык] => Английский язык
            [Основной] => 1
        )

    [1] => Array
        (
            [ИностранныйЯзык] => Немецкий язык
            [Основной] => 
        )

    [2] => Array
        (
            [ИностранныйЯзык] => Французский язык
            [Основной] => 
        )

)

2018-07-15T19:07:46Z
========

ФайлыАбитуриента
Array
(
    [0] => Array
        (
            [ТипДокумента] => 00-000003
            [ПутьКФайлу] => 4186\00-000003_mgyua_nats_1507185815.pdf
            [ДатаИзменения] => 2018-07-15
        )

    [1] => Array
        (
            [ТипДокумента] => 00-000022
            [ПутьКФайлу] => 4186\00-000022_mgyua_sud_1507185815.pdf
            [ДатаИзменения] => 2018-07-15
        )

    [2] => Array
        (
            [ТипДокумента] => 00-000067
            [ПутьКФайлу] => 4186\00-000067_attestat_normalnyy_ilovepdf_compressed_0407092126.pdf
            [ДатаИзменения] => 2018-07-04
        )

    [3] => Array
        (
            [ТипДокумента] => 00-000079
            [ПутьКФайлу] => 4186\00-000079_olimpiada_001_1507190006.jpg
            [ДатаИзменения] => 2018-07-15
        )

    [4] => Array
        (
            [ТипДокумента] => 00-000106
            [ПутьКФайлу] => 4186\00-000106_mgyua_yur_1507185814.pdf
            [ДатаИзменения] => 2018-07-15
        )

    [5] => Array
        (
            [ТипДокумента] => 00-000047
            [ПутьКФайлу] => 4186\education_00-000047.pdf
            [ДатаИзменения] => 2018-07-04
        )

    [6] => Array
        (
            [ТипДокумента] => 00-000001
            [ПутьКФайлу] => 4186\passport.pdf
            [ДатаИзменения] => 2018-07-04
        )

)

2018-07-15T19:07:46Z
========

ПоданныеДокументы
Array
(
    [0] => Array
        (
            [ВидДокумента] => 00-000067
            [Серия] => 
            [Номер] => 
            [Дата] => 2018-06-23
        )

    [1] => Array
        (
            [ВидДокумента] => 00-000102
            [Серия] => 08624
            [Номер] => 002038539
            [Дата] => 2018-06-23
        )

    [2] => Array
        (
            [ВидДокумента] => 00-000003
            [Серия] => 
            [Номер] => 
            [Дата] => 0001-01-01
        )

)

2018-07-15T19:07:47Z
========

Заявления
Array
(
    [0] => Array
        (
            [НаправлениеПодготовки] => Судебная и прокурорская деятельность
            [GUIDНП] => 015bcca1-3722-11e8-812c-005056b32020
            [ФормаОбучения] => Очная
            [GUIDФО] => 8f9f43a8-bc09-433b-9057-64c6a3ac8b10
            [ЗаявлениеПроверено] => 1
            [КонкурснаяГруппа] => Судебная и прокурорская деятельность ОЧНАЯ бюджет
            [GUIDКГ] => 33ae0cec-748d-11e8-8131-005056b32020
            [УровеньОбразования] => Специалист
            [GUIDУО] => e7ec8534-0420-46b4-8c23-3933acf41357
            [Состояние] => Подал заявление
            [РегНомер] => 0109964
            [ДатаЗаявления] => 2018-07-03
            [ДатаОтзываЗаявления] => 0001-01-01
            [НаличиеПодлинника] => 
            [СогласиеНаЗачисление] => 
            [ДатаСогласиеНаЗачисление] => 0001-01-01
            [ДатаОтзываСогласиеНаЗачисление] => 0001-01-01
            [ВыбранныйИнститут] => 
            [ВыбранныйПрофиль] => 
            [ВидФинансирования] => Бюджетное
            [ЦелевойПрием] => 
            [ОсобаяКвота] => 
            [ПутьКФайлу] => 
            [ДатаИзменения] => 0001-01-01
            [RequestStatus] => Принята
        )

    [1] => Array
        (
            [НаправлениеПодготовки] => Правовое обеспечение национальной безопасности
            [GUIDНП] => c1cff574-2b55-11e6-80be-005056b32020
            [ФормаОбучения] => Очная
            [GUIDФО] => 8f9f43a8-bc09-433b-9057-64c6a3ac8b10
            [ЗаявлениеПроверено] => 1
            [КонкурснаяГруппа] => Нац без ОЧНАЯ бюджет
            [GUIDКГ] => 0c98b658-371f-11e8-812c-005056b32020
            [УровеньОбразования] => Специалист
            [GUIDУО] => e7ec8534-0420-46b4-8c23-3933acf41357
            [Состояние] => Подал заявление
            [РегНомер] => 0109964
            [ДатаЗаявления] => 2018-07-03
            [ДатаОтзываЗаявления] => 0001-01-01
            [НаличиеПодлинника] => 
            [СогласиеНаЗачисление] => 
            [ДатаСогласиеНаЗачисление] => 0001-01-01
            [ДатаОтзываСогласиеНаЗачисление] => 0001-01-01
            [ВыбранныйИнститут] => 
            [ВыбранныйПрофиль] => 
            [ВидФинансирования] => Бюджетное
            [ЦелевойПрием] => 
            [ОсобаяКвота] => 
            [ПутьКФайлу] => 
            [ДатаИзменения] => 0001-01-01
            [RequestStatus] => Принята
        )

    [2] => Array
        (
            [НаправлениеПодготовки] => Юриспруденция
            [GUIDНП] => c55a0055-f268-11e5-9d71-005056963750
            [ФормаОбучения] => Очная
            [GUIDФО] => 8f9f43a8-bc09-433b-9057-64c6a3ac8b10
            [ЗаявлениеПроверено] => 1
            [КонкурснаяГруппа] => БАК Юрисп ОЧНАЯ бюджет
            [GUIDКГ] => a078523d-371c-11e8-812c-005056b32020
            [УровеньОбразования] => Бакалавр академический
            [GUIDУО] => 881a7dee-d400-4119-b425-a0d748d93022
            [Состояние] => Подал заявление
            [РегНомер] => 0109964
            [ДатаЗаявления] => 2018-07-03
            [ДатаОтзываЗаявления] => 0001-01-01
            [НаличиеПодлинника] => 
            [СогласиеНаЗачисление] => 
            [ДатаСогласиеНаЗачисление] => 0001-01-01
            [ДатаОтзываСогласиеНаЗачисление] => 0001-01-01
            [ВыбранныйИнститут] => 
            [ВыбранныйПрофиль] => 
            [ВидФинансирования] => Бюджетное
            [ЦелевойПрием] => 
            [ОсобаяКвота] => 
            [ПутьКФайлу] => 
            [ДатаИзменения] => 0001-01-01
            [RequestStatus] => Принята
        )

)

2018-07-15T19:07:48Z
========

*********************************************************************
2018-07-15T19:07:48Z
========

