Абитуриент
Array
(
    [GUID] => 
    [Фамилия] => Базыр-оол
    [Имя] => Байыр-Белек
    [Отчество] => Анатольевич
    [ДатаРождения] => 1997-06-11
    [МестоРождения] => с.Сукпак Кызылского р-на Республики Тыва
    [Пол] => Мужской
    [Гражданство] => РОССИЯ
    [ИндексР] => 667904
    [РегионР] => Тыва
    [ГородР] => Сукпак
    [НасПунктР] => Кызылский
    [УлицаР] => Саянская
    [ДомР] => 4
    [КорпусР] => 
    [КвартираР] => -
    [ИндексП] => 667904
    [РегионП] => Тыва
    [ГородП] => Сукпак
    [НасПунктП] => Кызылский
    [УлицаП] => Саянская
    [ДомП] => 4
    [КорпусП] => 
    [КвартираП] => -
    [ТелефонКонтактный] => +7(999) 485-06-05
    [ТелефонДомашний] => 
    [ТелефонСлужебный] => 
    [ЭлПочта] => bairbeleknazurool@gmail.com
    [НужноОбщежитие] => 1
    [ПаспортВид] => Паспорт гражданина РФ
    [ПаспортСерия] => 9317
    [ПаспортНомер] => 577444
    [ПаспортДата] => 2017-06-28
    [ПаспортВыдан] => МП УФМС РОССИИ ПО КРАСНОЯРСКОМУ КРАЮ И РЕСПУБЛИКЕ ТЫВА В ПГТ. КАА-ХЕМ
    [ПаспортКодПодразделения] => 240-079
    [СемейноеПоложение] => Холост
    [ПосещениеПодготовительныхКурсов] => не посещал(-а)
    [ЗаведениеПодготовительныхКурсов] => 
    [МестоРаботы] => 
    [Должность] => 
    [ОтношениеКВоинскойСлужбе] => 
    [ВидДокументаВС] => 
    [ДокументВСНомер] => 
    [ДокументВСДата] => 0001-01-01
    [ДокументВСМестоВыдачи] => 
    [Военкомат] => 
    [ВоинскоеЗвание] => 
    [КатегорияЗапаса] => 
    [КатегорияГодностиКВоеннойСлужбе] => 
    [РегионДляФИС] => Тыва Респ
    [ТипНаселенногоПунктаДляФИС] => citytype00-000002
    [ИностранныйГражданин] => 
    [ПаспортВид2] => 
    [ПаспортСерия2] => 
    [ПаспортНомер2] => 
    [ПаспортДата2] => 0001-01-01
    [ПаспортВыдан2] => 
    [ПаспортКодПодразделения2] => 
    [СтатусЗаявки] => 
)

2018-06-29T16:06:19Z
========

СоставСемьи

2018-06-29T16:06:20Z
========

ИностранныеЯзыки

2018-06-29T16:06:20Z
========

ФайлыАбитуриента

2018-06-29T16:06:20Z
========

ПоданныеДокументы
Array
(
    [ВидДокумента] => 00-000047
    [Серия] => 
    [Номер] => 01705000637513
    [Дата] => 2015-06-27
)

2018-06-29T16:06:20Z
========

Заявления

2018-06-29T16:06:20Z
========

*********************************************************************
2018-06-29T16:06:20Z
========

