Абитуриент
Array
(
    [GUID] => 
    [Фамилия] => Захарченко
    [Имя] => Лидия
    [Отчество] => Александровна
    [ДатаРождения] => 2000-10-23
    [МестоРождения] => г.Армавир
    [Пол] => Женский
    [Гражданство] => РОССИЯ
    [ИндексР] => 352900
    [РегионР] => Краснодарский
    [ГородР] => Армавир
    [НасПунктР] => 
    [УлицаР] => Тимирязева
    [ДомР] => 26
    [КорпусР] => 
    [КвартираР] => 7
    [ИндексП] => 352900
    [РегионП] => Краснодарский
    [ГородП] => Армавир
    [НасПунктП] => 
    [УлицаП] => Тимирязева
    [ДомП] => 26
    [КорпусП] => 
    [КвартираП] => 7
    [ТелефонКонтактный] => +7(952) 980-85-42
    [ТелефонДомашний] => 
    [ТелефонСлужебный] => +7(918) 214-14-72
    [ЭлПочта] => lidia.0318@yandex.ru
    [НужноОбщежитие] => 1
    [ПаспортВид] => Паспорт гражданина РФ
    [ПаспортСерия] => 0315
    [ПаспортНомер] => 087081
    [ПаспортДата] => 0001-01-01
    [ПаспортВыдан] => 
    [ПаспортКодПодразделения] => 
    [СемейноеПоложение] => Не замужем
    [ПосещениеПодготовительныхКурсов] => 
    [ЗаведениеПодготовительныхКурсов] => 
    [МестоРаботы] => 
    [Должность] => 
    [ОтношениеКВоинскойСлужбе] => 
    [ВидДокументаВС] => 
    [ДокументВСНомер] => 
    [ДокументВСДата] => 0001-01-01
    [ДокументВСМестоВыдачи] => 
    [Военкомат] => 
    [ВоинскоеЗвание] => 
    [КатегорияЗапаса] => 
    [КатегорияГодностиКВоеннойСлужбе] => 
    [РегионДляФИС] => Краснодарский край
    [ТипНаселенногоПунктаДляФИС] => citytype00-000002
    [ИностранныйГражданин] => 
    [ПаспортВид2] => 
    [ПаспортСерия2] => 
    [ПаспортНомер2] => 
    [ПаспортДата2] => 0001-01-01
    [ПаспортВыдан2] => 
    [ПаспортКодПодразделения2] => 
    [СтатусЗаявки] => 
    [IDMain] => 4542
    [Keyword] => 
)

2018-07-01T11:11:50Z
========

СоставСемьи
Array
(
    [СтепеньРодства] => 000000001
    [ФИО] => Захарченко Ольга Александровна
    [ДатаРождения] => 1973-11-08
    [МестоРаботы] => 
    [Телефон] => +7(928) 247-70-08
    [Адрес] => ул.Тимирязева 26 кв.7
)

2018-07-01T11:11:50Z
========

РезультатыЕГЭ

2018-07-01T11:11:50Z
========

ФайлыАбитуриента

2018-07-01T11:11:51Z
========

ПоданныеДокументы

2018-07-01T11:11:51Z
========

Заявления

2018-07-01T11:11:51Z
========

*********************************************************************
2018-07-01T11:11:51Z
========

