Абитуриент
Array
(
    [GUID] => 
    [Фамилия] => Лыкова
    [Имя] => Анастасия
    [Отчество] => Борисовна
    [ДатаРождения] => 2000-12-11
    [МестоРождения] => Курская обл., пос.Золотухино
    [Пол] => Женский
    [Гражданство] => РОССИЯ
    [ИндексР] => 306020
    [РегионР] => Курская
    [ГородР] => Золотухино
    [НасПунктР] => Золотухинский
    [УлицаР] => Степная
    [ДомР] => влд40ж
    [КорпусР] => 
    [КвартираР] => 8
    [ИндексП] => 306020
    [РегионП] => Курская
    [ГородП] => Золотухино
    [НасПунктП] => Золотухинский
    [УлицаП] => Степная
    [ДомП] => влд40ж
    [КорпусП] => 
    [КвартираП] => 8
    [ТелефонКонтактный] => +7(919) 133-64-85
    [ТелефонДомашний] => 
    [ТелефонСлужебный] => 
    [ЭлПочта] => nastyakit890@gmail.com
    [НужноОбщежитие] => 1
    [ПаспортВид] => Паспорт гражданина РФ
    [ПаспортСерия] => 3814
    [ПаспортНомер] => 995286
    [ПаспортДата] => 0001-01-01
    [ПаспортВыдан] => 
    [ПаспортКодПодразделения] => 
    [СемейноеПоложение] => Не замужем
    [ПосещениеПодготовительныхКурсов] => 
    [ЗаведениеПодготовительныхКурсов] => 
    [МестоРаботы] => 
    [Должность] => 
    [ОтношениеКВоинскойСлужбе] => 
    [ВидДокументаВС] => 
    [ДокументВСНомер] => 
    [ДокументВСДата] => 0001-01-01
    [ДокументВСМестоВыдачи] => 
    [Военкомат] => 
    [ВоинскоеЗвание] => 
    [КатегорияЗапаса] => 
    [КатегорияГодностиКВоеннойСлужбе] => 
    [РегионДляФИС] => Курская обл
    [ТипНаселенногоПунктаДляФИС] => citytype00-000003
    [ИностранныйГражданин] => 
    [ПаспортВид2] => 
    [ПаспортСерия2] => 
    [ПаспортНомер2] => 
    [ПаспортДата2] => 0001-01-01
    [ПаспортВыдан2] => 
    [ПаспортКодПодразделения2] => 
    [СтатусЗаявки] => 
    [IDMain] => 4864
    [Keyword] => 
)

2018-07-02T14:43:24Z
========

СоставСемьи
Array
(
    [СтепеньРодства] => 000000001
    [ФИО] => Лыкова Наталья Михайловна
    [ДатаРождения] => 1975-10-07
    [МестоРаботы] => 
    [Телефон] => +7(903) 875-26-10
    [Адрес] => 
)

2018-07-02T14:43:24Z
========

РезультатыЕГЭ

2018-07-02T14:43:24Z
========

ФайлыАбитуриента

2018-07-02T14:43:24Z
========

ПоданныеДокументы

2018-07-02T14:43:25Z
========

Заявления

2018-07-02T14:43:25Z
========

*********************************************************************
2018-07-02T14:43:25Z
========

