Абитуриент
Array
(
    [GUID] => 
    [Фамилия] => Артюшенко
    [Имя] => Максим
    [Отчество] => Дмитриевич
    [ДатаРождения] => 2000-09-09
    [МестоРождения] => Свердловская область, г. Нижний Тагил
    [Пол] => Мужской
    [Гражданство] => РОССИЯ
    [ИндексР] => 
    [РегионР] => Краснодарский
    [ГородР] => Геленджик
    [НасПунктР] => 
    [УлицаР] => Первомайская
    [ДомР] => 59
    [КорпусР] => 
    [КвартираР] => 7
    [ИндексП] => 
    [РегионП] => Краснодарский
    [ГородП] => Геленджик
    [НасПунктП] => 
    [УлицаП] => Степная
    [ДомП] => 1А
    [КорпусП] => 
    [КвартираП] => 7
    [ТелефонКонтактный] => +7(928) 228-16-22
    [ТелефонДомашний] => 
    [ТелефонСлужебный] => 
    [ЭлПочта] => artushenko00@mail.ru
    [НужноОбщежитие] => 1
    [ПаспортВид] => Паспорт гражданина РФ
    [ПаспортСерия] => 0314
    [ПаспортНомер] => 632245
    [ПаспортДата] => 2014-09-26
    [ПаспортВыдан] => Отделение УФМС России по Краснодарскому краю в г. Геленджике
    [ПаспортКодПодразделения] => 230-016
    [СемейноеПоложение] => Холост
    [ПосещениеПодготовительныхКурсов] => не посещал(-а)
    [ЗаведениеПодготовительныхКурсов] => 
    [МестоРаботы] => 
    [Должность] => 
    [ОтношениеКВоинскойСлужбе] => 
    [ВидДокументаВС] => 
    [ДокументВСНомер] => 
    [ДокументВСДата] => 0001-01-01
    [ДокументВСМестоВыдачи] => 
    [Военкомат] => 
    [ВоинскоеЗвание] => 
    [КатегорияЗапаса] => 
    [КатегорияГодностиКВоеннойСлужбе] => 
    [РегионДляФИС] => Москва г
    [ТипНаселенногоПунктаДляФИС] => citytype00-000001
    [ИностранныйГражданин] => 
    [ПаспортВид2] => 
    [ПаспортСерия2] => 
    [ПаспортНомер2] => 
    [ПаспортДата2] => 0001-01-01
    [ПаспортВыдан2] => 
    [ПаспортКодПодразделения2] => 
    [СтатусЗаявки] => 
    [IDMain] => 5054
    [Keyword] => 
)

2018-07-02T17:05:40Z
========

СоставСемьи
Array
(
    [0] => Array
        (
            [СтепеньРодства] => 000000002
            [ФИО] => Артюшенко Дмитрий Викторович
            [ДатаРождения] => 1968-05-09
            [МестоРаботы] => 
            [Телефон] => +7(928) 663-21-99
            [Адрес] => 
        )

    [1] => Array
        (
            [СтепеньРодства] => 000000001
            [ФИО] => Артюшенко Людмила Александровна
            [ДатаРождения] => 1971-05-24
            [МестоРаботы] => 
            [Телефон] => +7(928) 663-21-44
            [Адрес] => 
        )

)

2018-07-02T17:05:40Z
========

ИностранныеЯзыки
Array
(
    [0] => Array
        (
            [ИностранныйЯзык] => 00-000000010
            [Основной] => 
        )

    [1] => Array
        (
            [ИностранныйЯзык] => 00-000000014
            [Основной] => 1
        )

    [2] => Array
        (
            [ИностранныйЯзык] => 00-000000011
            [Основной] => 1
        )

)

2018-07-02T17:05:40Z
========

ФайлыАбитуриента

2018-07-02T17:05:41Z
========

ПоданныеДокументы
Array
(
    [ВидДокумента] => 00-000047
    [Серия] => -
    [Номер] => 02304000076748
    [Дата] => 2018-06-26
)

2018-07-02T17:05:41Z
========

Заявления

2018-07-02T17:05:41Z
========

*********************************************************************
2018-07-02T17:05:41Z
========

Абитуриент
Array
(
    [GUID] => 
    [Фамилия] => Максим
    [Имя] => Артюшенко
    [Отчество] => Дмитриевич
    [ДатаРождения] => 2000-09-09
    [МестоРождения] => Свердловская область, г. Нижний Тагил
    [Пол] => Мужской
    [Гражданство] => РОССИЯ
    [ИндексР] => 353475
    [РегионР] => Краснодарский
    [ГородР] => Геленджик
    [НасПунктР] => 
    [УлицаР] => Первомайская
    [ДомР] => 59
    [КорпусР] => 
    [КвартираР] => 7
    [ИндексП] => 353460
    [РегионП] => Краснодарский
    [ГородП] => Геленджик
    [НасПунктП] => 
    [УлицаП] => Степная
    [ДомП] => 1А
    [КорпусП] => 
    [КвартираП] => 7
    [ТелефонКонтактный] => +7(928) 228-16-22
    [ТелефонДомашний] => 
    [ТелефонСлужебный] => 
    [ЭлПочта] => artushenko00@mail.ru
    [НужноОбщежитие] => 1
    [ПаспортВид] => Паспорт гражданина РФ
    [ПаспортСерия] => 0314
    [ПаспортНомер] => 632245
    [ПаспортДата] => 2014-09-26
    [ПаспортВыдан] => Отделение УФМС России по Краснодарскому краю в г. Геленджике
    [ПаспортКодПодразделения] => 230-016
    [СемейноеПоложение] => Холост
    [ПосещениеПодготовительныхКурсов] => не посещал(-а)
    [ЗаведениеПодготовительныхКурсов] => 
    [МестоРаботы] => 
    [Должность] => 
    [ОтношениеКВоинскойСлужбе] => 
    [ВидДокументаВС] => 
    [ДокументВСНомер] => 
    [ДокументВСДата] => 0001-01-01
    [ДокументВСМестоВыдачи] => 
    [Военкомат] => 
    [ВоинскоеЗвание] => 
    [КатегорияЗапаса] => 
    [КатегорияГодностиКВоеннойСлужбе] => 
    [РегионДляФИС] => Москва г
    [ТипНаселенногоПунктаДляФИС] => citytype00-000001
    [ИностранныйГражданин] => 
    [ПаспортВид2] => 
    [ПаспортСерия2] => 
    [ПаспортНомер2] => 
    [ПаспортДата2] => 0001-01-01
    [ПаспортВыдан2] => 
    [ПаспортКодПодразделения2] => 
    [СтатусЗаявки] => 
    [IDMain] => 5054
    [Keyword] => 
)

2018-07-04T12:15:17Z
========

СоставСемьи
Array
(
    [0] => Array
        (
            [СтепеньРодства] => 000000002
            [ФИО] => Артюшенко Дмитрий Викторович
            [ДатаРождения] => 1968-05-09
            [МестоРаботы] => 
            [Телефон] => +7(928) 663-21-99
            [Адрес] => 
        )

    [1] => Array
        (
            [СтепеньРодства] => 000000001
            [ФИО] => Артюшенко Людмила Александровна
            [ДатаРождения] => 1971-05-24
            [МестоРаботы] => 
            [Телефон] => +7(928) 663-21-44
            [Адрес] => 
        )

)

2018-07-04T12:15:17Z
========

ИностранныеЯзыки
Array
(
    [0] => Array
        (
            [ИностранныйЯзык] => 00-000000010
            [Основной] => 
        )

    [1] => Array
        (
            [ИностранныйЯзык] => 00-000000014
            [Основной] => 1
        )

    [2] => Array
        (
            [ИностранныйЯзык] => 00-000000011
            [Основной] => 1
        )

)

2018-07-04T12:15:17Z
========

ФайлыАбитуриента

2018-07-04T12:15:17Z
========

ПоданныеДокументы
Array
(
    [ВидДокумента] => 00-000047
    [Серия] => -
    [Номер] => 02304000076748
    [Дата] => 2018-06-26
)

2018-07-04T12:15:17Z
========

Заявления

2018-07-04T12:15:18Z
========

*********************************************************************
2018-07-04T12:15:18Z
========

Абитуриент
Array
(
    [GUID] => 
    [Фамилия] => Максим
    [Имя] => Артюшенко
    [Отчество] => Дмитриевич
    [ДатаРождения] => 2000-09-09
    [МестоРождения] => Свердловская область, г. Нижний Тагил
    [Пол] => Мужской
    [Гражданство] => РОССИЯ
    [ИндексР] => 353475
    [РегионР] => Краснодарский
    [ГородР] => Геленджик
    [НасПунктР] => 
    [УлицаР] => Первомайская
    [ДомР] => 59
    [КорпусР] => 
    [КвартираР] => 7
    [ИндексП] => 353460
    [РегионП] => Краснодарский
    [ГородП] => Геленджик
    [НасПунктП] => 
    [УлицаП] => Степная
    [ДомП] => 1А
    [КорпусП] => 
    [КвартираП] => 7
    [ТелефонКонтактный] => +7(928) 228-16-22
    [ТелефонДомашний] => 
    [ТелефонСлужебный] => 
    [ЭлПочта] => artushenko00@mail.ru
    [НужноОбщежитие] => 1
    [ПаспортВид] => Паспорт гражданина РФ
    [ПаспортСерия] => 0314
    [ПаспортНомер] => 632245
    [ПаспортДата] => 2014-09-26
    [ПаспортВыдан] => Отделение УФМС России по Краснодарскому краю в г. Геленджике
    [ПаспортКодПодразделения] => 230-016
    [СемейноеПоложение] => Холост
    [ПосещениеПодготовительныхКурсов] => не посещал(-а)
    [ЗаведениеПодготовительныхКурсов] => 
    [МестоРаботы] => 
    [Должность] => 
    [ОтношениеКВоинскойСлужбе] => 
    [ВидДокументаВС] => 
    [ДокументВСНомер] => 
    [ДокументВСДата] => 0001-01-01
    [ДокументВСМестоВыдачи] => 
    [Военкомат] => 
    [ВоинскоеЗвание] => 
    [КатегорияЗапаса] => 
    [КатегорияГодностиКВоеннойСлужбе] => 
    [РегионДляФИС] => Москва г
    [ТипНаселенногоПунктаДляФИС] => citytype00-000001
    [ИностранныйГражданин] => 
    [ПаспортВид2] => 
    [ПаспортСерия2] => 
    [ПаспортНомер2] => 
    [ПаспортДата2] => 0001-01-01
    [ПаспортВыдан2] => 
    [ПаспортКодПодразделения2] => 
    [СтатусЗаявки] => 
    [IDMain] => 5054
    [Keyword] => 
)

2018-07-04T23:20:45Z
========

СоставСемьи
Array
(
    [0] => Array
        (
            [СтепеньРодства] => 000000001
            [ФИО] => Артюшенко Людмила Александровна
            [ДатаРождения] => 1971-05-24
            [МестоРаботы] => 
            [Телефон] => +7(928) 663-21-44
            [Адрес] => 
        )

    [1] => Array
        (
            [СтепеньРодства] => 000000002
            [ФИО] => Артюшенко Дмитрий Викторович
            [ДатаРождения] => 1968-05-09
            [МестоРаботы] => 
            [Телефон] => +7(928) 663-21-99
            [Адрес] => 
        )

)

2018-07-04T23:20:50Z
========

ИностранныеЯзыки
Array
(
    [0] => Array
        (
            [ИностранныйЯзык] => 00-000000010
            [Основной] => 
        )

    [1] => Array
        (
            [ИностранныйЯзык] => 00-000000014
            [Основной] => 1
        )

    [2] => Array
        (
            [ИностранныйЯзык] => 00-000000011
            [Основной] => 1
        )

)

2018-07-04T23:20:52Z
========

ФайлыАбитуриента

2018-07-04T23:20:57Z
========

ПоданныеДокументы
Array
(
    [ВидДокумента] => 00-000047
    [Серия] => -
    [Номер] => 02304000076748
    [Дата] => 2018-06-26
)

2018-07-04T23:21:01Z
========

Заявления

2018-07-04T23:21:08Z
========

*********************************************************************
2018-07-04T23:21:08Z
========

Абитуриент
Array
(
    [GUID] => 
    [Фамилия] => Максим
    [Имя] => Артюшенко
    [Отчество] => Дмитриевич
    [ДатаРождения] => 2000-09-09
    [МестоРождения] => Свердловская область, г. Нижний Тагил
    [Пол] => Мужской
    [Гражданство] => РОССИЯ
    [ИндексР] => 353475
    [РегионР] => Краснодарский
    [ГородР] => Геленджик
    [НасПунктР] => 
    [УлицаР] => Первомайская
    [ДомР] => 59
    [КорпусР] => 
    [КвартираР] => 7
    [ИндексП] => 353475
    [РегионП] => Краснодарский
    [ГородП] => Геленджик
    [НасПунктП] => 
    [УлицаП] => Первомайская
    [ДомП] => 59
    [КорпусП] => 
    [КвартираП] => 7
    [ТелефонКонтактный] => +7(928) 228-16-22
    [ТелефонДомашний] => +7(928) 663-21-44
    [ТелефонСлужебный] => 
    [ЭлПочта] => artushenko00@mail.ru
    [НужноОбщежитие] => 1
    [ПаспортВид] => Паспорт гражданина РФ
    [ПаспортСерия] => 0314
    [ПаспортНомер] => 632245
    [ПаспортДата] => 2014-09-26
    [ПаспортВыдан] => Отделение УФМС России по Краснодарскому краю в г. Геленджике
    [ПаспортКодПодразделения] => 230-016
    [СемейноеПоложение] => Холост
    [ПосещениеПодготовительныхКурсов] => не посещал(-а)
    [ЗаведениеПодготовительныхКурсов] => 
    [МестоРаботы] => 
    [Должность] => 
    [ОтношениеКВоинскойСлужбе] => 
    [ВидДокументаВС] => 
    [ДокументВСНомер] => 
    [ДокументВСДата] => 0001-01-01
    [ДокументВСМестоВыдачи] => 
    [Военкомат] => 
    [ВоинскоеЗвание] => 
    [КатегорияЗапаса] => 
    [КатегорияГодностиКВоеннойСлужбе] => 
    [РегионДляФИС] => Москва г
    [ТипНаселенногоПунктаДляФИС] => citytype00-000001
    [ИностранныйГражданин] => 
    [ПаспортВид2] => 
    [ПаспортСерия2] => 
    [ПаспортНомер2] => 
    [ПаспортДата2] => 0001-01-01
    [ПаспортВыдан2] => 
    [ПаспортКодПодразделения2] => 
    [СтатусЗаявки] => 
    [IDMain] => 5054
    [Keyword] => 
)

2018-07-05T21:32:46Z
========

СоставСемьи
Array
(
    [0] => Array
        (
            [СтепеньРодства] => 000000002
            [ФИО] => Артюшенко Дмитрий Викторович
            [ДатаРождения] => 1968-05-09
            [МестоРаботы] => 
            [Телефон] => +7(928) 663-21-99
            [Адрес] => Краснодарский край, г. Геленджик, ул. Первомайская 59
        )

    [1] => Array
        (
            [СтепеньРодства] => 000000001
            [ФИО] => Артюшенко Людмила Александровна
            [ДатаРождения] => 1971-05-24
            [МестоРаботы] => 
            [Телефон] => +7(928) 663-21-44
            [Адрес] => Краснодарский край, г. Геленджик, ул. Первомайская 59
        )

)

2018-07-05T21:32:46Z
========

ИностранныеЯзыки
Array
(
    [0] => Array
        (
            [ИностранныйЯзык] => 00-000000011
            [Основной] => 1
        )

    [1] => Array
        (
            [ИностранныйЯзык] => 00-000000010
            [Основной] => 1
        )

)

2018-07-05T21:32:46Z
========

ФайлыАбитуриента
Array
(
    [ТипДокумента] => 00-000001
    [ПутьКФайлу] => 5054\passport.jpg
    [ДатаИзменения] => 2018-07-05
)

2018-07-05T21:32:46Z
========

ПоданныеДокументы
Array
(
    [ВидДокумента] => 00-000047
    [Серия] => -
    [Номер] => 02304000076748
    [Дата] => 2018-06-26
)

2018-07-05T21:32:47Z
========

Заявления

2018-07-05T21:32:47Z
========

*********************************************************************
2018-07-05T21:32:47Z
========

Абитуриент
Array
(
    [GUID] => 
    [Фамилия] => Максим
    [Имя] => Артюшенко
    [Отчество] => Дмитриевич
    [ДатаРождения] => 2000-09-09
    [МестоРождения] => Свердловская область, г. Нижний Тагил
    [Пол] => Мужской
    [Гражданство] => РОССИЯ
    [ИндексР] => 353475
    [РегионР] => Краснодарский
    [ГородР] => Геленджик
    [НасПунктР] => 
    [УлицаР] => Первомайская
    [ДомР] => 59
    [КорпусР] => 
    [КвартираР] => 7
    [ИндексП] => 353475
    [РегионП] => Краснодарский
    [ГородП] => Геленджик
    [НасПунктП] => 
    [УлицаП] => Первомайская
    [ДомП] => 59
    [КорпусП] => 
    [КвартираП] => 7
    [ТелефонКонтактный] => +7(928) 228-16-22
    [ТелефонДомашний] => +7(928) 663-21-44
    [ТелефонСлужебный] => 
    [ЭлПочта] => artushenko00@mail.ru
    [НужноОбщежитие] => 1
    [ПаспортВид] => Паспорт гражданина РФ
    [ПаспортСерия] => 0314
    [ПаспортНомер] => 632245
    [ПаспортДата] => 2014-09-26
    [ПаспортВыдан] => Отделение УФМС России по Краснодарскому краю в г. Геленджике
    [ПаспортКодПодразделения] => 230-016
    [СемейноеПоложение] => Холост
    [ПосещениеПодготовительныхКурсов] => не посещал(-а)
    [ЗаведениеПодготовительныхКурсов] => 
    [МестоРаботы] => 
    [Должность] => 
    [ОтношениеКВоинскойСлужбе] => 
    [ВидДокументаВС] => 
    [ДокументВСНомер] => 
    [ДокументВСДата] => 0001-01-01
    [ДокументВСМестоВыдачи] => 
    [Военкомат] => 
    [ВоинскоеЗвание] => 
    [КатегорияЗапаса] => 
    [КатегорияГодностиКВоеннойСлужбе] => 
    [РегионДляФИС] => Москва г
    [ТипНаселенногоПунктаДляФИС] => citytype00-000001
    [ИностранныйГражданин] => 
    [ПаспортВид2] => 
    [ПаспортСерия2] => 0314
    [ПаспортНомер2] => 632245
    [ПаспортДата2] => 2014-09-26
    [ПаспортВыдан2] => 
    [ПаспортКодПодразделения2] => 
    [СтатусЗаявки] => 
    [IDMain] => 5054
    [Keyword] => 
)

2018-07-05T21:43:43Z
========

СоставСемьи
Array
(
    [0] => Array
        (
            [СтепеньРодства] => 000000001
            [ФИО] => Артюшенко Людмила Александровна
            [ДатаРождения] => 1971-05-24
            [МестоРаботы] => 
            [Телефон] => +7(928) 663-21-44
            [Адрес] => Краснодарский край, г. Геленджик, ул. Первомайская 59
        )

    [1] => Array
        (
            [СтепеньРодства] => 000000002
            [ФИО] => Артюшенко Дмитрий Викторович
            [ДатаРождения] => 1968-05-09
            [МестоРаботы] => 
            [Телефон] => +7(928) 663-21-99
            [Адрес] => Краснодарский край, г. Геленджик, ул. Первомайская 59
        )

)

2018-07-05T21:43:43Z
========

ИностранныеЯзыки
Array
(
    [0] => Array
        (
            [ИностранныйЯзык] => 00-000000010
            [Основной] => 1
        )

    [1] => Array
        (
            [ИностранныйЯзык] => 00-000000011
            [Основной] => 1
        )

)

2018-07-05T21:43:43Z
========

ФайлыАбитуриента
Array
(
    [0] => Array
        (
            [ТипДокумента] => 00-000047
            [ПутьКФайлу] => 5054\education_00-000047.jpg
            [ДатаИзменения] => 2018-07-05
        )

    [1] => Array
        (
            [ТипДокумента] => 00-000001
            [ПутьКФайлу] => 5054\passport.jpg
            [ДатаИзменения] => 2018-07-05
        )

)

2018-07-05T21:43:43Z
========

ПоданныеДокументы
Array
(
    [ВидДокумента] => 00-000047
    [Серия] => -
    [Номер] => 02304000076748
    [Дата] => 2018-06-26
)

2018-07-05T21:43:43Z
========

Заявления

2018-07-05T21:43:44Z
========

*********************************************************************
2018-07-05T21:43:44Z
========

Абитуриент
Array
(
    [GUID] => 
    [Фамилия] => Максим
    [Имя] => Артюшенко
    [Отчество] => Дмитриевич
    [ДатаРождения] => 2000-09-09
    [МестоРождения] => Свердловская область, г. Нижний Тагил
    [Пол] => Мужской
    [Гражданство] => РОССИЯ
    [ИндексР] => 353475
    [РегионР] => Краснодарский
    [ГородР] => Геленджик
    [НасПунктР] => 
    [УлицаР] => Первомайская
    [ДомР] => 59
    [КорпусР] => 
    [КвартираР] => 7
    [ИндексП] => 353475
    [РегионП] => Краснодарский
    [ГородП] => Геленджик
    [НасПунктП] => 
    [УлицаП] => Первомайская
    [ДомП] => 59
    [КорпусП] => 
    [КвартираП] => 7
    [ТелефонКонтактный] => +7(928) 228-16-22
    [ТелефонДомашний] => +7(928) 663-21-44
    [ТелефонСлужебный] => 
    [ЭлПочта] => artushenko00@mail.ru
    [НужноОбщежитие] => 1
    [ПаспортВид] => Паспорт гражданина РФ
    [ПаспортСерия] => 0314
    [ПаспортНомер] => 632245
    [ПаспортДата] => 2014-09-26
    [ПаспортВыдан] => Отделение УФМС России по Краснодарскому краю в г. Геленджике
    [ПаспортКодПодразделения] => 230-016
    [СемейноеПоложение] => Холост
    [ПосещениеПодготовительныхКурсов] => не посещал(-а)
    [ЗаведениеПодготовительныхКурсов] => 
    [МестоРаботы] => 
    [Должность] => 
    [ОтношениеКВоинскойСлужбе] => 
    [ВидДокументаВС] => 
    [ДокументВСНомер] => 
    [ДокументВСДата] => 0001-01-01
    [ДокументВСМестоВыдачи] => 
    [Военкомат] => 
    [ВоинскоеЗвание] => 
    [КатегорияЗапаса] => 
    [КатегорияГодностиКВоеннойСлужбе] => 
    [РегионДляФИС] => Москва г
    [ТипНаселенногоПунктаДляФИС] => citytype00-000001
    [ИностранныйГражданин] => 
    [ПаспортВид2] => 
    [ПаспортСерия2] => 0314
    [ПаспортНомер2] => 632245
    [ПаспортДата2] => 2014-09-26
    [ПаспортВыдан2] => 
    [ПаспортКодПодразделения2] => 
    [СтатусЗаявки] => 
    [IDMain] => 5054
    [Keyword] => 
)

2018-07-05T22:11:57Z
========

СоставСемьи
Array
(
    [0] => Array
        (
            [СтепеньРодства] => 000000002
            [ФИО] => Артюшенко Дмитрий Викторович
            [ДатаРождения] => 1968-05-09
            [МестоРаботы] => 
            [Телефон] => +7(928) 663-21-99
            [Адрес] => Краснодарский край, г. Геленджик, ул. Первомайская 59
        )

    [1] => Array
        (
            [СтепеньРодства] => 000000001
            [ФИО] => Артюшенко Людмила Александровна
            [ДатаРождения] => 1971-05-24
            [МестоРаботы] => 
            [Телефон] => +7(928) 663-21-44
            [Адрес] => Краснодарский край, г. Геленджик, ул. Первомайская 59
        )

)

2018-07-05T22:11:58Z
========

ИностранныеЯзыки
Array
(
    [0] => Array
        (
            [ИностранныйЯзык] => 00-000000011
            [Основной] => 1
        )

    [1] => Array
        (
            [ИностранныйЯзык] => 00-000000010
            [Основной] => 1
        )

)

2018-07-05T22:11:58Z
========

ФайлыАбитуриента
Array
(
    [0] => Array
        (
            [ТипДокумента] => 00-000001
            [ПутьКФайлу] => 5054\passport.jpg
            [ДатаИзменения] => 2018-07-05
        )

    [1] => Array
        (
            [ТипДокумента] => 00-000047
            [ПутьКФайлу] => 5054\education_00-000047.jpg
            [ДатаИзменения] => 2018-07-05
        )

)

2018-07-05T22:11:58Z
========

ПоданныеДокументы
Array
(
    [ВидДокумента] => 00-000047
    [Серия] => -
    [Номер] => 02304000076748
    [Дата] => 2018-06-26
)

2018-07-05T22:11:58Z
========

Заявления

2018-07-05T22:11:58Z
========

*********************************************************************
2018-07-05T22:11:58Z
========

Абитуриент
Array
(
    [GUID] => 
    [Фамилия] => Максим
    [Имя] => Артюшенко
    [Отчество] => Дмитриевич
    [ДатаРождения] => 2000-09-09
    [МестоРождения] => Свердловская область, г. Нижний Тагил
    [Пол] => Мужской
    [Гражданство] => РОССИЯ
    [ИндексР] => 353475
    [РегионР] => Краснодарский
    [ГородР] => Геленджик
    [НасПунктР] => 
    [УлицаР] => Первомайская
    [ДомР] => 59
    [КорпусР] => 
    [КвартираР] => 7
    [ИндексП] => 353475
    [РегионП] => Краснодарский
    [ГородП] => Геленджик
    [НасПунктП] => 
    [УлицаП] => Первомайская
    [ДомП] => 59
    [КорпусП] => 
    [КвартираП] => 7
    [ТелефонКонтактный] => +7(928) 228-16-22
    [ТелефонДомашний] => +7(928) 663-21-44
    [ТелефонСлужебный] => 
    [ЭлПочта] => artushenko00@mail.ru
    [НужноОбщежитие] => 1
    [ПаспортВид] => Паспорт гражданина РФ
    [ПаспортСерия] => 0314
    [ПаспортНомер] => 632245
    [ПаспортДата] => 2014-09-26
    [ПаспортВыдан] => Отделение УФМС России по Краснодарскому краю в г. Геленджике
    [ПаспортКодПодразделения] => 230-016
    [СемейноеПоложение] => Холост
    [ПосещениеПодготовительныхКурсов] => не посещал(-а)
    [ЗаведениеПодготовительныхКурсов] => 
    [МестоРаботы] => 
    [Должность] => 
    [ОтношениеКВоинскойСлужбе] => 
    [ВидДокументаВС] => 
    [ДокументВСНомер] => 
    [ДокументВСДата] => 0001-01-01
    [ДокументВСМестоВыдачи] => 
    [Военкомат] => 
    [ВоинскоеЗвание] => 
    [КатегорияЗапаса] => 
    [КатегорияГодностиКВоеннойСлужбе] => 
    [РегионДляФИС] => Москва г
    [ТипНаселенногоПунктаДляФИС] => citytype00-000001
    [ИностранныйГражданин] => 
    [ПаспортВид2] => 
    [ПаспортСерия2] => 0314
    [ПаспортНомер2] => 632245
    [ПаспортДата2] => 2014-09-26
    [ПаспортВыдан2] => 
    [ПаспортКодПодразделения2] => 
    [СтатусЗаявки] => 
    [IDMain] => 5054
    [Keyword] => 
)

2018-07-05T23:17:09Z
========

СоставСемьи
Array
(
    [0] => Array
        (
            [СтепеньРодства] => 000000002
            [ФИО] => Артюшенко Дмитрий Викторович
            [ДатаРождения] => 1968-05-09
            [МестоРаботы] => 
            [Телефон] => +7(928) 663-21-99
            [Адрес] => Краснодарский край, г. Геленджик, ул. Первомайская 59
        )

    [1] => Array
        (
            [СтепеньРодства] => 000000001
            [ФИО] => Артюшенко Людмила Александровна
            [ДатаРождения] => 1971-05-24
            [МестоРаботы] => 
            [Телефон] => +7(928) 663-21-44
            [Адрес] => Краснодарский край, г. Геленджик, ул. Первомайская 59
        )

)

2018-07-05T23:17:10Z
========

ИностранныеЯзыки
Array
(
    [0] => Array
        (
            [ИностранныйЯзык] => 00-000000011
            [Основной] => 1
        )

    [1] => Array
        (
            [ИностранныйЯзык] => 00-000000010
            [Основной] => 
        )

    [2] => Array
        (
            [ИностранныйЯзык] => 00-000000010
            [Основной] => 1
        )

)

2018-07-05T23:17:10Z
========

ФайлыАбитуриента
Array
(
    [0] => Array
        (
            [ТипДокумента] => 00-000047
            [ПутьКФайлу] => 5054\education_00-000047.jpg
            [ДатаИзменения] => 2018-07-05
        )

    [1] => Array
        (
            [ТипДокумента] => 00-000001
            [ПутьКФайлу] => 5054\passport.jpg
            [ДатаИзменения] => 2018-07-05
        )

)

2018-07-05T23:17:10Z
========

ПоданныеДокументы
Array
(
    [ВидДокумента] => 00-000047
    [Серия] => -
    [Номер] => 02304000076748
    [Дата] => 2018-06-26
)

2018-07-05T23:17:10Z
========

Заявления

2018-07-05T23:17:10Z
========

*********************************************************************
2018-07-05T23:17:10Z
========

Абитуриент
Array
(
    [GUID] => 
    [Фамилия] => Максим
    [Имя] => Артюшенко
    [Отчество] => Дмитриевич
    [ДатаРождения] => 2000-09-09
    [МестоРождения] => Свердловская область, г. Нижний Тагил
    [Пол] => Мужской
    [Гражданство] => РОССИЯ
    [ИндексР] => 353475
    [РегионР] => Краснодарский
    [ГородР] => Геленджик
    [НасПунктР] => 
    [УлицаР] => Первомайская
    [ДомР] => 59
    [КорпусР] => 
    [КвартираР] => 7
    [ИндексП] => 353475
    [РегионП] => Краснодарский
    [ГородП] => Геленджик
    [НасПунктП] => 
    [УлицаП] => Первомайская
    [ДомП] => 59
    [КорпусП] => 
    [КвартираП] => 7
    [ТелефонКонтактный] => +7(928) 228-16-22
    [ТелефонДомашний] => +7(928) 663-21-44
    [ТелефонСлужебный] => 
    [ЭлПочта] => artushenko00@mail.ru
    [НужноОбщежитие] => 1
    [ПаспортВид] => Паспорт гражданина РФ
    [ПаспортСерия] => 0314
    [ПаспортНомер] => 632245
    [ПаспортДата] => 2014-09-26
    [ПаспортВыдан] => Отделение УФМС России по Краснодарскому краю в г. Геленджике
    [ПаспортКодПодразделения] => 230-016
    [СемейноеПоложение] => Холост
    [ПосещениеПодготовительныхКурсов] => не посещал(-а)
    [ЗаведениеПодготовительныхКурсов] => 
    [МестоРаботы] => 
    [Должность] => 
    [ОтношениеКВоинскойСлужбе] => 
    [ВидДокументаВС] => 
    [ДокументВСНомер] => 
    [ДокументВСДата] => 0001-01-01
    [ДокументВСМестоВыдачи] => 
    [Военкомат] => 
    [ВоинскоеЗвание] => 
    [КатегорияЗапаса] => 
    [КатегорияГодностиКВоеннойСлужбе] => 
    [РегионДляФИС] => Москва г
    [ТипНаселенногоПунктаДляФИС] => citytype00-000001
    [ИностранныйГражданин] => 
    [ПаспортВид2] => 
    [ПаспортСерия2] => 0314
    [ПаспортНомер2] => 632245
    [ПаспортДата2] => 2014-09-26
    [ПаспортВыдан2] => 
    [ПаспортКодПодразделения2] => 
    [СтатусЗаявки] => 
    [IDMain] => 5054
    [Keyword] => 
)

2018-07-09T12:25:07Z
========

СоставСемьи
Array
(
    [0] => Array
        (
            [СтепеньРодства] => 000000001
            [ФИО] => Артюшенко Людмила Александровна
            [ДатаРождения] => 1971-05-24
            [МестоРаботы] => 
            [Телефон] => +7(928) 663-21-44
            [Адрес] => Краснодарский край, г. Геленджик, ул. Первомайская 59
        )

    [1] => Array
        (
            [СтепеньРодства] => 000000002
            [ФИО] => Артюшенко Дмитрий Викторович
            [ДатаРождения] => 1968-05-09
            [МестоРаботы] => 
            [Телефон] => +7(928) 663-21-99
            [Адрес] => Краснодарский край, г. Геленджик, ул. Первомайская 59
        )

)

2018-07-09T12:25:07Z
========

ИностранныеЯзыки
Array
(
    [0] => Array
        (
            [ИностранныйЯзык] => 00-000000011
            [Основной] => 1
        )

    [1] => Array
        (
            [ИностранныйЯзык] => 00-000000010
            [Основной] => 1
        )

)

2018-07-09T12:25:07Z
========

ФайлыАбитуриента

2018-07-09T12:25:08Z
========

ПоданныеДокументы
Array
(
    [ВидДокумента] => 00-000047
    [Серия] => -
    [Номер] => 02304000076748
    [Дата] => 2018-06-26
)

2018-07-09T12:25:08Z
========

Заявления

2018-07-09T12:25:08Z
========

*********************************************************************
2018-07-09T12:25:08Z
========

Абитуриент
Array
(
    [GUID] => 
    [Фамилия] => Максим
    [Имя] => Артюшенко
    [Отчество] => Дмитриевич
    [ДатаРождения] => 2000-09-09
    [МестоРождения] => Свердловская область, г. Нижний Тагил
    [Пол] => Мужской
    [Гражданство] => РОССИЯ
    [ИндексР] => 353475
    [РегионР] => Краснодарский
    [ГородР] => Геленджик
    [НасПунктР] => 
    [УлицаР] => Первомайская
    [ДомР] => 59
    [КорпусР] => 
    [КвартираР] => 7
    [ИндексП] => 353475
    [РегионП] => Краснодарский
    [ГородП] => Геленджик
    [НасПунктП] => 
    [УлицаП] => Первомайская
    [ДомП] => 59
    [КорпусП] => 
    [КвартираП] => 7
    [ТелефонКонтактный] => +7(928) 228-16-22
    [ТелефонДомашний] => +7(928) 663-21-44
    [ТелефонСлужебный] => 
    [ЭлПочта] => artushenko00@mail.ru
    [НужноОбщежитие] => 1
    [ПаспортВид] => Паспорт гражданина РФ
    [ПаспортСерия] => 0314
    [ПаспортНомер] => 632245
    [ПаспортДата] => 2014-09-26
    [ПаспортВыдан] => Отделение УФМС России по Краснодарскому краю в г. Геленджике
    [ПаспортКодПодразделения] => 230-016
    [СемейноеПоложение] => Холост
    [ПосещениеПодготовительныхКурсов] => не посещал(-а)
    [ЗаведениеПодготовительныхКурсов] => 
    [МестоРаботы] => 
    [Должность] => 
    [ОтношениеКВоинскойСлужбе] => 
    [ВидДокументаВС] => 
    [ДокументВСНомер] => 
    [ДокументВСДата] => 0001-01-01
    [ДокументВСМестоВыдачи] => 
    [Военкомат] => 
    [ВоинскоеЗвание] => 
    [КатегорияЗапаса] => 
    [КатегорияГодностиКВоеннойСлужбе] => 
    [РегионДляФИС] => Москва г
    [ТипНаселенногоПунктаДляФИС] => citytype00-000001
    [ИностранныйГражданин] => 
    [ПаспортВид2] => 
    [ПаспортСерия2] => 0314
    [ПаспортНомер2] => 632245
    [ПаспортДата2] => 2014-09-26
    [ПаспортВыдан2] => 
    [ПаспортКодПодразделения2] => 
    [СтатусЗаявки] => 
    [IDMain] => 5054
    [Keyword] => 
)

2018-07-09T13:05:47Z
========

СоставСемьи
Array
(
    [0] => Array
        (
            [СтепеньРодства] => 000000002
            [ФИО] => Артюшенко Дмитрий Викторович
            [ДатаРождения] => 1968-05-09
            [МестоРаботы] => 
            [Телефон] => +7(928) 663-21-99
            [Адрес] => Краснодарский край, г. Геленджик, ул. Первомайская 59
        )

    [1] => Array
        (
            [СтепеньРодства] => 000000001
            [ФИО] => Артюшенко Людмила Александровна
            [ДатаРождения] => 1971-05-24
            [МестоРаботы] => 
            [Телефон] => +7(928) 663-21-44
            [Адрес] => Краснодарский край, г. Геленджик, ул. Первомайская 59
        )

)

2018-07-09T13:05:47Z
========

ИностранныеЯзыки
Array
(
    [0] => Array
        (
            [ИностранныйЯзык] => 00-000000011
            [Основной] => 1
        )

    [1] => Array
        (
            [ИностранныйЯзык] => 00-000000010
            [Основной] => 1
        )

)

2018-07-09T13:05:47Z
========

ФайлыАбитуриента

2018-07-09T13:05:47Z
========

ПоданныеДокументы
Array
(
    [ВидДокумента] => 00-000047
    [Серия] => -
    [Номер] => 02304000076748
    [Дата] => 2018-06-26
)

2018-07-09T13:05:48Z
========

Заявления
Array
(
    [НаправлениеПодготовки] => 
    [GUIDНП] => 63c2f2fc-55aa-11e7-80e8-005056b32020
    [ФормаОбучения] => 
    [GUIDФО] => 
    [ЗаявлениеПроверено] => 
    [КонкурснаяГруппа] => 
    [GUIDКГ] => a078523d-371c-11e8-812c-005056b32020
    [УровеньОбразования] => 
    [GUIDУО] => 
    [Состояние] => 
    [РегНомер] => 
    [ДатаЗаявления] => 0001-01-01
    [ДатаОтзываЗаявления] => 0001-01-01
    [НаличиеПодлинника] => 
    [СогласиеНаЗачисление] => 1
    [ДатаСогласиеНаЗачисление] => 0001-01-01
    [ДатаОтзываСогласиеНаЗачисление] => 0001-01-01
    [ВыбранныйИнститут] => 
    [ВыбранныйПрофиль] => 
    [ВидФинансирования] => 
    [ЦелевойПрием] => 
    [ОсобаяКвота] => 
    [ПутьКФайлу] => 
    [ДатаИзменения] => 2018-07-09
    [RequestStatus] => 
)

2018-07-09T13:05:48Z
========

*********************************************************************
2018-07-09T13:05:48Z
========

Абитуриент
Array
(
    [GUID] => 
    [Фамилия] => Артюшенко
    [Имя] => Максим
    [Отчество] => Дмитриевич
    [ДатаРождения] => 2000-09-09
    [МестоРождения] => Свердловская область, г. Нижний Тагил
    [Пол] => Мужской
    [Гражданство] => РОССИЯ
    [ИндексР] => 353475
    [РегионР] => Краснодарский
    [ГородР] => Геленджик
    [НасПунктР] => 
    [УлицаР] => Первомайская
    [ДомР] => 59
    [КорпусР] => 
    [КвартираР] => 7
    [ИндексП] => 353475
    [РегионП] => Краснодарский
    [ГородП] => Геленджик
    [НасПунктП] => 
    [УлицаП] => Первомайская
    [ДомП] => 59
    [КорпусП] => 
    [КвартираП] => 7
    [ТелефонКонтактный] => +7(928) 228-16-22
    [ТелефонДомашний] => +7(928) 663-21-44
    [ТелефонСлужебный] => 
    [ЭлПочта] => artushenko00@mail.ru
    [НужноОбщежитие] => 1
    [ПаспортВид] => Паспорт гражданина РФ
    [ПаспортСерия] => 0314
    [ПаспортНомер] => 632245
    [ПаспортДата] => 2014-09-26
    [ПаспортВыдан] => Отделение УФМС России по Краснодарскому краю в г. Геленджике
    [ПаспортКодПодразделения] => 230-016
    [СемейноеПоложение] => Холост
    [ПосещениеПодготовительныхКурсов] => не посещал(-а)
    [ЗаведениеПодготовительныхКурсов] => 
    [МестоРаботы] => 
    [Должность] => 
    [ОтношениеКВоинскойСлужбе] => 
    [ВидДокументаВС] => 
    [ДокументВСНомер] => 
    [ДокументВСДата] => 0001-01-01
    [ДокументВСМестоВыдачи] => 
    [Военкомат] => 
    [ВоинскоеЗвание] => 
    [КатегорияЗапаса] => 
    [КатегорияГодностиКВоеннойСлужбе] => 
    [РегионДляФИС] => Москва г
    [ТипНаселенногоПунктаДляФИС] => citytype00-000001
    [ИностранныйГражданин] => 
    [ПаспортВид2] => 
    [ПаспортСерия2] => 0314
    [ПаспортНомер2] => 632245
    [ПаспортДата2] => 2014-09-26
    [ПаспортВыдан2] => 
    [ПаспортКодПодразделения2] => 
    [СтатусЗаявки] => 
    [IDMain] => 5054
    [Keyword] => 
)

2018-07-09T13:07:52Z
========

СоставСемьи
Array
(
    [0] => Array
        (
            [СтепеньРодства] => 000000001
            [ФИО] => Артюшенко Людмила Александровна
            [ДатаРождения] => 1971-05-24
            [МестоРаботы] => 
            [Телефон] => +7(928) 663-21-44
            [Адрес] => Краснодарский край, г. Геленджик, ул. Первомайская 59
        )

    [1] => Array
        (
            [СтепеньРодства] => 000000002
            [ФИО] => Артюшенко Дмитрий Викторович
            [ДатаРождения] => 1968-05-09
            [МестоРаботы] => 
            [Телефон] => +7(928) 663-21-99
            [Адрес] => Краснодарский край, г. Геленджик, ул. Первомайская 59
        )

)

2018-07-09T13:07:52Z
========

ИностранныеЯзыки
Array
(
    [0] => Array
        (
            [ИностранныйЯзык] => 00-000000011
            [Основной] => 1
        )

    [1] => Array
        (
            [ИностранныйЯзык] => 00-000000010
            [Основной] => 1
        )

)

2018-07-09T13:07:52Z
========

ФайлыАбитуриента

2018-07-09T13:07:52Z
========

ПоданныеДокументы
Array
(
    [ВидДокумента] => 00-000047
    [Серия] => -
    [Номер] => 02304000076748
    [Дата] => 2018-06-26
)

2018-07-09T13:07:53Z
========

Заявления
Array
(
    [НаправлениеПодготовки] => 
    [GUIDНП] => 63c2f2fc-55aa-11e7-80e8-005056b32020
    [ФормаОбучения] => 
    [GUIDФО] => 
    [ЗаявлениеПроверено] => 
    [КонкурснаяГруппа] => 
    [GUIDКГ] => a078523d-371c-11e8-812c-005056b32020
    [УровеньОбразования] => 
    [GUIDУО] => 
    [Состояние] => 
    [РегНомер] => 
    [ДатаЗаявления] => 0001-01-01
    [ДатаОтзываЗаявления] => 0001-01-01
    [НаличиеПодлинника] => 
    [СогласиеНаЗачисление] => 1
    [ДатаСогласиеНаЗачисление] => 0001-01-01
    [ДатаОтзываСогласиеНаЗачисление] => 0001-01-01
    [ВыбранныйИнститут] => 
    [ВыбранныйПрофиль] => 
    [ВидФинансирования] => 
    [ЦелевойПрием] => 
    [ОсобаяКвота] => 
    [ПутьКФайлу] => 
    [ДатаИзменения] => 2018-07-09
    [RequestStatus] => 
)

2018-07-09T13:07:53Z
========

*********************************************************************
2018-07-09T13:07:53Z
========

