Абитуриент
Array
(
    [GUID] => 
    [Фамилия] => Гасанов
    [Имя] => Теймур
    [Отчество] => Али оглы
    [ДатаРождения] => 2000-10-25
    [МестоРождения] => 
    [Пол] => Женский
    [Гражданство] => 
    [ИндексР] => 
    [РегионР] => 
    [ГородР] => 
    [НасПунктР] => 
    [УлицаР] => 
    [ДомР] => 
    [КорпусР] => 
    [КвартираР] => 
    [ИндексП] => 
    [РегионП] => 
    [ГородП] => 
    [НасПунктП] => 
    [УлицаП] => 
    [ДомП] => 
    [КорпусП] => 
    [КвартираП] => 
    [ТелефонКонтактный] => 
    [ТелефонДомашний] => 
    [ТелефонСлужебный] => 
    [ЭлПочта] => saywhat48@yandex.ru
    [НужноОбщежитие] => 
    [ПаспортВид] => Паспорт гражданина РФ
    [ПаспортСерия] => 2817
    [ПаспортНомер] => 562096
    [ПаспортДата] => 0001-01-01
    [ПаспортВыдан] => 
    [ПаспортКодПодразделения] => 
    [СемейноеПоложение] => 
    [ПосещениеПодготовительныхКурсов] => 
    [ЗаведениеПодготовительныхКурсов] => 
    [МестоРаботы] => 
    [Должность] => 
    [ОтношениеКВоинскойСлужбе] => 
    [ВидДокументаВС] => 
    [ДокументВСНомер] => 
    [ДокументВСДата] => 0001-01-01
    [ДокументВСМестоВыдачи] => 
    [Военкомат] => 
    [ВоинскоеЗвание] => 
    [КатегорияЗапаса] => 
    [КатегорияГодностиКВоеннойСлужбе] => 
    [РегионДляФИС] => 
    [ТипНаселенногоПунктаДляФИС] => 
    [ИностранныйГражданин] => 
    [ПаспортВид2] => 
    [ПаспортСерия2] => 
    [ПаспортНомер2] => 
    [ПаспортДата2] => 0001-01-01
    [ПаспортВыдан2] => 
    [ПаспортКодПодразделения2] => 
    [СтатусЗаявки] => 
    [IDMain] => 5186
    [Keyword] => 
)

2018-07-03T11:56:29Z
========

СоставСемьи

2018-07-03T11:56:30Z
========

ИностранныеЯзыки

2018-07-03T11:56:30Z
========

РезультатыЕГЭ

2018-07-03T11:56:30Z
========

ФайлыАбитуриента

2018-07-03T11:56:30Z
========

ПоданныеДокументы

2018-07-03T11:56:30Z
========

Заявления

2018-07-03T11:56:30Z
========

*********************************************************************
2018-07-03T11:56:30Z
========

Абитуриент
Array
(
    [GUID] => 
    [Фамилия] => Гасанов
    [Имя] => Теймур
    [Отчество] => Али оглы
    [ДатаРождения] => 2000-10-25
    [МестоРождения] => респ. Азербайджан гор.Баку
    [Пол] => Мужской
    [Гражданство] => РОССИЯ
    [ИндексР] => 170024
    [РегионР] => Тверская
    [ГородР] => Тверь
    [НасПунктР] => Калининский
    [УлицаР] => Республиканская
    [ДомР] => 4
    [КорпусР] => 
    [КвартираР] => 
    [ИндексП] => 170024
    [РегионП] => Тверская
    [ГородП] => Тверь
    [НасПунктП] => Калининский
    [УлицаП] => Республиканская
    [ДомП] => 4
    [КорпусП] => 
    [КвартираП] => 
    [ТелефонКонтактный] => +7(996) 922-19-61
    [ТелефонДомашний] => 
    [ТелефонСлужебный] => 
    [ЭлПочта] => saywhat48@yandex.ru
    [НужноОбщежитие] => 1
    [ПаспортВид] => Паспорт гражданина РФ
    [ПаспортСерия] => 2817
    [ПаспортНомер] => 562096
    [ПаспортДата] => 0001-01-01
    [ПаспортВыдан] => 
    [ПаспортКодПодразделения] => 
    [СемейноеПоложение] => 
    [ПосещениеПодготовительныхКурсов] => 
    [ЗаведениеПодготовительныхКурсов] => 
    [МестоРаботы] => 
    [Должность] => 
    [ОтношениеКВоинскойСлужбе] => 
    [ВидДокументаВС] => 
    [ДокументВСНомер] => 
    [ДокументВСДата] => 0001-01-01
    [ДокументВСМестоВыдачи] => 
    [Военкомат] => 
    [ВоинскоеЗвание] => 
    [КатегорияЗапаса] => 
    [КатегорияГодностиКВоеннойСлужбе] => 
    [РегионДляФИС] => Тверская обл
    [ТипНаселенногоПунктаДляФИС] => citytype00-000002
    [ИностранныйГражданин] => 
    [ПаспортВид2] => 
    [ПаспортСерия2] => 
    [ПаспортНомер2] => 
    [ПаспортДата2] => 0001-01-01
    [ПаспортВыдан2] => 
    [ПаспортКодПодразделения2] => 
    [СтатусЗаявки] => 
    [IDMain] => 5186
    [Keyword] => 
)

2018-07-03T11:57:07Z
========

СоставСемьи

2018-07-03T11:57:07Z
========

ИностранныеЯзыки

2018-07-03T11:57:08Z
========

РезультатыЕГЭ

2018-07-03T11:57:08Z
========

ФайлыАбитуриента

2018-07-03T11:57:08Z
========

ПоданныеДокументы

2018-07-03T11:57:08Z
========

Заявления

2018-07-03T11:57:08Z
========

*********************************************************************
2018-07-03T11:57:08Z
========

