Абитуриент
Array
(
    [GUID] => 
    [Фамилия] => Назаров
    [Имя] => Валерий
    [Отчество] => Александрович
    [ДатаРождения] => 2001-01-17
    [МестоРождения] => Москва 
    [Пол] => Мужской
    [Гражданство] => РОССИЯ
    [ИндексР] => 
    [РегионР] => Москва
    [ГородР] => Москва
    [НасПунктР] => Зюзино
    [УлицаР] => Юшуньская М.
    [ДомР] => 3
    [КорпусР] => 
    [КвартираР] => 360
    [ИндексП] => 
    [РегионП] => Москва
    [ГородП] => Москва
    [НасПунктП] => Зюзино
    [УлицаП] => Юшуньская М.
    [ДомП] => 3
    [КорпусП] => 
    [КвартираП] => 360
    [ТелефонКонтактный] => +7(915) 065-18-68
    [ТелефонДомашний] => 
    [ТелефонСлужебный] => 
    [ЭлПочта] => vapenationv@icloud.com
    [НужноОбщежитие] => 
    [ПаспортВид] => Паспорт гражданина РФ
    [ПаспортСерия] => 951356
    [ПаспортНомер] => 4514
    [ПаспортДата] => 0001-01-01
    [ПаспортВыдан] => 
    [ПаспортКодПодразделения] => 
    [СемейноеПоложение] => 
    [ПосещениеПодготовительныхКурсов] => 
    [ЗаведениеПодготовительныхКурсов] => 
    [МестоРаботы] => 
    [Должность] => 
    [ОтношениеКВоинскойСлужбе] => 
    [ВидДокументаВС] => 
    [ДокументВСНомер] => 
    [ДокументВСДата] => 0001-01-01
    [ДокументВСМестоВыдачи] => 
    [Военкомат] => 
    [ВоинскоеЗвание] => 
    [КатегорияЗапаса] => 
    [КатегорияГодностиКВоеннойСлужбе] => 
    [РегионДляФИС] => Москва г
    [ТипНаселенногоПунктаДляФИС] => citytype00-000002
    [ИностранныйГражданин] => 
    [ПаспортВид2] => 
    [ПаспортСерия2] => 
    [ПаспортНомер2] => 
    [ПаспортДата2] => 0001-01-01
    [ПаспортВыдан2] => 
    [ПаспортКодПодразделения2] => 
    [СтатусЗаявки] => 
    [IDMain] => 5406
    [Keyword] => 
)

2018-07-03T13:23:34Z
========

СоставСемьи

2018-07-03T13:23:34Z
========

ИностранныеЯзыки

2018-07-03T13:23:34Z
========

РезультатыЕГЭ
Array
(
    [0] => Array
        (
            [Дисциплина] => Обществознание
            [Отметка] => 69
        )

    [1] => Array
        (
            [Дисциплина] => История
            [Отметка] => 57
        )

    [2] => Array
        (
            [Дисциплина] => Русский
            [Отметка] => 82
        )

)

2018-07-03T13:23:34Z
========

ФайлыАбитуриента

2018-07-03T13:23:35Z
========

ПоданныеДокументы

2018-07-03T13:23:35Z
========

Заявления

2018-07-03T13:23:35Z
========

*********************************************************************
2018-07-03T13:23:35Z
========

