Абитуриент
Array
(
    [GUID] => 
    [Фамилия] => Чернышов
    [Имя] => Денис
    [Отчество] => Александрович
    [ДатаРождения] => 2000-11-20
    [МестоРождения] => Россия,Ставропольский край,г.Пятигорск
    [Пол] => Мужской
    [Гражданство] => РОССИЯ
    [ИндексР] => 357538
    [РегионР] => Ставропольский
    [ГородР] => Пятигорск
    [НасПунктР] => 
    [УлицаР] => Ессентукская
    [ДомР] => 66А/общ
    [КорпусР] => 
    [КвартираР] => 20
    [ИндексП] => 357538
    [РегионП] => Ставропольский
    [ГородП] => Пятигорск
    [НасПунктП] => 
    [УлицаП] => Ессентукская
    [ДомП] => 66А/общ
    [КорпусП] => 
    [КвартираП] => 20
    [ТелефонКонтактный] => +7(919) 747-17-82
    [ТелефонДомашний] => 
    [ТелефонСлужебный] => 
    [ЭлПочта] => denis.chernyschov2011@yandex.ru
    [НужноОбщежитие] => 1
    [ПаспортВид] => Паспорт гражданина РФ
    [ПаспортСерия] => 0714
    [ПаспортНомер] => 975365
    [ПаспортДата] => 0001-01-01
    [ПаспортВыдан] => 
    [ПаспортКодПодразделения] => 
    [СемейноеПоложение] => 
    [ПосещениеПодготовительныхКурсов] => 
    [ЗаведениеПодготовительныхКурсов] => 
    [МестоРаботы] => 
    [Должность] => 
    [ОтношениеКВоинскойСлужбе] => 
    [ВидДокументаВС] => 
    [ДокументВСНомер] => 
    [ДокументВСДата] => 0001-01-01
    [ДокументВСМестоВыдачи] => 
    [Военкомат] => 
    [ВоинскоеЗвание] => 
    [КатегорияЗапаса] => 
    [КатегорияГодностиКВоеннойСлужбе] => 
    [РегионДляФИС] => Ставропольский край
    [ТипНаселенногоПунктаДляФИС] => citytype00-000002
    [ИностранныйГражданин] => 
    [ПаспортВид2] => 
    [ПаспортСерия2] => 
    [ПаспортНомер2] => 
    [ПаспортДата2] => 0001-01-01
    [ПаспортВыдан2] => 
    [ПаспортКодПодразделения2] => 
    [СтатусЗаявки] => 
    [IDMain] => 5415
    [Keyword] => 
)

2018-07-03T16:09:29Z
========

ИностранныеЯзыки

2018-07-03T16:09:29Z
========

РезультатыЕГЭ

2018-07-03T16:09:29Z
========

ФайлыАбитуриента

2018-07-03T16:09:29Z
========

ПоданныеДокументы

2018-07-03T16:09:30Z
========

Заявления

2018-07-03T16:09:30Z
========

*********************************************************************
2018-07-03T16:09:30Z
========

