Абитуриент
Array
(
    [GUID] => 
    [Фамилия] => Нартикоев
    [Имя] => Атей
    [Отчество] => Альбертович
    [ДатаРождения] => 2000-08-21
    [МестоРождения] => 
    [Пол] => Мужской
    [Гражданство] => РОССИЯ
    [ИндексР] => 
    [РегионР] => Северная Осетия - Алания
    [ГородР] => Владикавказ
    [НасПунктР] => 
    [УлицаР] => Автобусный
    [ДомР] => 8
    [КорпусР] => 
    [КвартираР] => 45
    [ИндексП] => 
    [РегионП] => Северная Осетия - Алания
    [ГородП] => Владикавказ
    [НасПунктП] => 
    [УлицаП] => Зураба Магкаева
    [ДомП] => 10к3
    [КорпусП] => 
    [КвартираП] => 27
    [ТелефонКонтактный] => +7(918) 826-16-74
    [ТелефонДомашний] => 
    [ТелефонСлужебный] => 
    [ЭлПочта] => atei7@mail.ru
    [НужноОбщежитие] => 1
    [ПаспортВид] => Паспорт гражданина РФ
    [ПаспортСерия] => 9014
    [ПаспортНомер] => 132795
    [ПаспортДата] => 0001-01-01
    [ПаспортВыдан] => 
    [ПаспортКодПодразделения] => 
    [СемейноеПоложение] => 
    [ПосещениеПодготовительныхКурсов] => 
    [ЗаведениеПодготовительныхКурсов] => 
    [МестоРаботы] => 
    [Должность] => 
    [ОтношениеКВоинскойСлужбе] => 
    [ВидДокументаВС] => 
    [ДокументВСНомер] => 
    [ДокументВСДата] => 0001-01-01
    [ДокументВСМестоВыдачи] => 
    [Военкомат] => 
    [ВоинскоеЗвание] => 
    [КатегорияЗапаса] => 
    [КатегорияГодностиКВоеннойСлужбе] => 
    [РегионДляФИС] => Северная Осетия - Алания Респ
    [ТипНаселенногоПунктаДляФИС] => citytype00-000002
    [ИностранныйГражданин] => 
    [ПаспортВид2] => 
    [ПаспортСерия2] => 
    [ПаспортНомер2] => 
    [ПаспортДата2] => 0001-01-01
    [ПаспортВыдан2] => 
    [ПаспортКодПодразделения2] => 
    [СтатусЗаявки] => 
    [IDMain] => 6039
    [Keyword] => 
)

2018-07-04T16:53:00Z
========

ИностранныеЯзыки
Array
(
    [ИностранныйЯзык] => 
    [Основной] => 
)

2018-07-04T16:53:02Z
========

РезультатыЕГЭ

2018-07-04T16:53:04Z
========

ФайлыАбитуриента

2018-07-04T16:53:06Z
========

ПоданныеДокументы

2018-07-04T16:53:07Z
========

*********************************************************************
2018-07-04T16:53:07Z
========

