Абитуриент
Array
(
    [GUID] => 
    [Фамилия] => Логинов
    [Имя] => Михаил
    [Отчество] => Михайлович
    [ДатаРождения] => 2000-04-29
    [МестоРождения] => Москва
    [Пол] => Мужской
    [Гражданство] => РОССИЯ
    [ИндексР] => 117208
    [РегионР] => Москва
    [ГородР] => Москва
    [НасПунктР] => 
    [УлицаР] => Сумской
    [ДомР] => 4к1
    [КорпусР] => 
    [КвартираР] => 77
    [ИндексП] => 117208
    [РегионП] => Москва
    [ГородП] => Москва
    [НасПунктП] => 
    [УлицаП] => Сумской
    [ДомП] => 4к1
    [КорпусП] => 
    [КвартираП] => 77
    [ТелефонКонтактный] => +7(965) 345-46-72
    [ТелефонДомашний] => +7(495) 311-99-01
    [ТелефонСлужебный] => 
    [ЭлПочта] => sv.loginof@gmail.com
    [НужноОбщежитие] => 
    [ПаспортВид] => Паспорт гражданина РФ
    [ПаспортСерия] => 4514
    [ПаспортНомер] => 627182
    [ПаспортДата] => 0001-01-01
    [ПаспортВыдан] => 
    [ПаспортКодПодразделения] => 
    [СемейноеПоложение] => Холост
    [ПосещениеПодготовительныхКурсов] => не посещал(-а)
    [ЗаведениеПодготовительныхКурсов] => 
    [МестоРаботы] => 
    [Должность] => 
    [ОтношениеКВоинскойСлужбе] => 
    [ВидДокументаВС] => 
    [ДокументВСНомер] => 
    [ДокументВСДата] => 0001-01-01
    [ДокументВСМестоВыдачи] => 
    [Военкомат] => 
    [ВоинскоеЗвание] => 
    [КатегорияЗапаса] => 
    [КатегорияГодностиКВоеннойСлужбе] => 
    [РегионДляФИС] => Москва г
    [ТипНаселенногоПунктаДляФИС] => citytype00-000001
    [ИностранныйГражданин] => 
    [ПаспортВид2] => 
    [ПаспортСерия2] => 
    [ПаспортНомер2] => 
    [ПаспортДата2] => 0001-01-01
    [ПаспортВыдан2] => 
    [ПаспортКодПодразделения2] => 
    [СтатусЗаявки] => 
    [IDMain] => 6336
    [Keyword] => 
)

2018-07-05T13:20:44Z
========

СоставСемьи

2018-07-05T13:20:44Z
========

ИностранныеЯзыки

2018-07-05T13:20:44Z
========

РезультатыЕГЭ

2018-07-05T13:20:45Z
========

ФайлыАбитуриента

2018-07-05T13:20:45Z
========

ПоданныеДокументы

2018-07-05T13:20:45Z
========

Заявления

2018-07-05T13:20:45Z
========

*********************************************************************
2018-07-05T13:20:45Z
========

