Абитуриент
Array
(
    [GUID] => 
    [Фамилия] => Бардина
    [Имя] => Елизавета
    [Отчество] => Сергеевна
    [ДатаРождения] => 2000-04-27
    [МестоРождения] => 
    [Пол] => Женский
    [Гражданство] => РОССИЯ
    [ИндексР] => 125373
    [РегионР] => Москва
    [ГородР] => Москва
    [НасПунктР] => Тушино
    [УлицаР] => Героев Панфиловцев
    [ДомР] => 43
    [КорпусР] => 
    [КвартираР] => 103
    [ИндексП] => 125373
    [РегионП] => Москва
    [ГородП] => Москва
    [НасПунктП] => Тушино
    [УлицаП] => Героев Панфиловцев
    [ДомП] => 43
    [КорпусП] => 
    [КвартираП] => 103
    [ТелефонКонтактный] => +7(925) 176-15-17
    [ТелефонДомашний] => +7(945) 944-25-59
    [ТелефонСлужебный] => +7(926) 288-37-01
    [ЭлПочта] => lenamay2003@mail.ru
    [НужноОбщежитие] => 
    [ПаспортВид] => Паспорт гражданина РФ
    [ПаспортСерия] => 4514
    [ПаспортНомер] => 629826
    [ПаспортДата] => 0001-01-01
    [ПаспортВыдан] => 
    [ПаспортКодПодразделения] => 
    [СемейноеПоложение] => 
    [ПосещениеПодготовительныхКурсов] => 
    [ЗаведениеПодготовительныхКурсов] => 
    [МестоРаботы] => 
    [Должность] => 
    [ОтношениеКВоинскойСлужбе] => 
    [ВидДокументаВС] => 
    [ДокументВСНомер] => 
    [ДокументВСДата] => 0001-01-01
    [ДокументВСМестоВыдачи] => 
    [Военкомат] => 
    [ВоинскоеЗвание] => 
    [КатегорияЗапаса] => 
    [КатегорияГодностиКВоеннойСлужбе] => 
    [РегионДляФИС] => Москва г
    [ТипНаселенногоПунктаДляФИС] => citytype00-000001
    [ИностранныйГражданин] => 
    [ПаспортВид2] => 
    [ПаспортСерия2] => 
    [ПаспортНомер2] => 
    [ПаспортДата2] => 0001-01-01
    [ПаспортВыдан2] => 
    [ПаспортКодПодразделения2] => 
    [СтатусЗаявки] => 
    [IDMain] => 6943
    [Keyword] => 
)

2018-07-07T12:23:35Z
========

ИностранныеЯзыки

2018-07-07T12:23:35Z
========

РезультатыЕГЭ

2018-07-07T12:23:36Z
========

ФайлыАбитуриента

2018-07-07T12:23:36Z
========

ПоданныеДокументы

2018-07-07T12:23:36Z
========

Заявления

2018-07-07T12:23:36Z
========

*********************************************************************
2018-07-07T12:23:36Z
========

