Абитуриент
Array
(
    [GUID] => 
    [Фамилия] => Горбатовский
    [Имя] => Андрей
    [Отчество] => Романович
    [ДатаРождения] => 2001-01-04
    [МестоРождения] => гор.Клинцы Брянской обл.
    [Пол] => Мужской
    [Гражданство] => РОССИЯ
    [ИндексР] => 243140
    [РегионР] => Брянская
    [ГородР] => Клинцы
    [НасПунктР] => 
    [УлицаР] => Коммунистическая
    [ДомР] => 105
    [КорпусР] => 
    [КвартираР] => 1
    [ИндексП] => 243140
    [РегионП] => Брянская
    [ГородП] => Клинцы
    [НасПунктП] => 
    [УлицаП] => Коммунистическая
    [ДомП] => 105
    [КорпусП] => 
    [КвартираП] => 1
    [ТелефонКонтактный] => +7(930) 725-50-55
    [ТелефонДомашний] => 
    [ТелефонСлужебный] => 
    [ЭлПочта] => anvi2001andrey@mail.ru
    [НужноОбщежитие] => 1
    [ПаспортВид] => Паспорт гражданина РФ
    [ПаспортСерия] => 1514
    [ПаспортНомер] => 180597
    [ПаспортДата] => 2015-01-26
    [ПаспортВыдан] => Межрайонным отделом УФМС России по Брянской обл. в г. Клинцы
    [ПаспортКодПодразделения] => 320-017
    [СемейноеПоложение] => Холост
    [ПосещениеПодготовительныхКурсов] => не посещал(-а)
    [ЗаведениеПодготовительныхКурсов] => 
    [МестоРаботы] => 
    [Должность] => 
    [ОтношениеКВоинскойСлужбе] => 
    [ВидДокументаВС] => 
    [ДокументВСНомер] => 
    [ДокументВСДата] => 0001-01-01
    [ДокументВСМестоВыдачи] => 
    [Военкомат] => 
    [ВоинскоеЗвание] => 
    [КатегорияЗапаса] => 
    [КатегорияГодностиКВоеннойСлужбе] => 
    [РегионДляФИС] => Брянская обл
    [ТипНаселенногоПунктаДляФИС] => citytype00-000002
    [ИностранныйГражданин] => 
    [ПаспортВид2] => 
    [ПаспортСерия2] => 
    [ПаспортНомер2] => 
    [ПаспортДата2] => 0001-01-01
    [ПаспортВыдан2] => 
    [ПаспортКодПодразделения2] => 
    [СтатусЗаявки] => 
    [IDMain] => 6985
    [Keyword] => 
)

2018-07-07T14:07:54Z
========

СоставСемьи

2018-07-07T14:07:55Z
========

ИностранныеЯзыки
Array
(
    [ИностранныйЯзык] => 00-000000010
    [Основной] => 
)

2018-07-07T14:07:55Z
========

ФайлыАбитуриента

2018-07-07T14:07:55Z
========

ПоданныеДокументы
Array
(
    [ВидДокумента] => 00-000047
    [Серия] => 
    [Номер] => 03205000230846
    [Дата] => 2018-06-27
)

2018-07-07T14:07:55Z
========

Заявления

2018-07-07T14:07:55Z
========

*********************************************************************
2018-07-07T14:07:55Z
========

