Абитуриент
Array
(
    [GUID] => 
    [Фамилия] => Нечепорук
    [Имя] => Иван
    [Отчество] => Нечепорук
    [ДатаРождения] => 1997-03-11
    [МестоРождения] => П.СОФРИНО-1 ПУШКИНСКОГО Р-НА МОСКОВСКОЙ ОБЛ.
    [Пол] => Мужской
    [Гражданство] => РОССИЯ
    [ИндексР] => 141014
    [РегионР] => Московская
    [ГородР] => Мытищи
    [НасПунктР] => 
    [УлицаР] => Крестьянская 3-я
    [ДомР] => 12/1
    [КорпусР] => 
    [КвартираР] => 111
    [ИндексП] => 141014
    [РегионП] => Московская
    [ГородП] => Мытищи
    [НасПунктП] => 
    [УлицаП] => Крестьянская 3-я
    [ДомП] => 12/1
    [КорпусП] => 
    [КвартираП] => 111
    [ТелефонКонтактный] => +7(977) 261-88-23
    [ТелефонДомашний] => +7(495) 788-24-29
    [ТелефонСлужебный] => 
    [ЭлПочта] => niceboy1977@mail.ru
    [НужноОбщежитие] => 
    [ПаспортВид] => Паспорт гражданина РФ
    [ПаспортСерия] => 4617
    [ПаспортНомер] => 539896
    [ПаспортДата] => 0001-01-01
    [ПаспортВыдан] => 
    [ПаспортКодПодразделения] => 
    [СемейноеПоложение] => Холост
    [ПосещениеПодготовительныхКурсов] => 
    [ЗаведениеПодготовительныхКурсов] => 
    [МестоРаботы] => 
    [Должность] => 
    [ОтношениеКВоинскойСлужбе] => 
    [ВидДокументаВС] => 
    [ДокументВСНомер] => 
    [ДокументВСДата] => 0001-01-01
    [ДокументВСМестоВыдачи] => 
    [Военкомат] => 
    [ВоинскоеЗвание] => 
    [КатегорияЗапаса] => 
    [КатегорияГодностиКВоеннойСлужбе] => 
    [РегионДляФИС] => Москва г
    [ТипНаселенногоПунктаДляФИС] => citytype00-000002
    [ИностранныйГражданин] => 
    [ПаспортВид2] => 
    [ПаспортСерия2] => 
    [ПаспортНомер2] => 
    [ПаспортДата2] => 0001-01-01
    [ПаспортВыдан2] => 
    [ПаспортКодПодразделения2] => 
    [СтатусЗаявки] => 
    [IDMain] => 7266
    [Keyword] => 
)

2018-07-09T12:55:26Z
========

СоставСемьи

2018-07-09T12:55:26Z
========

РезультатыЕГЭ

2018-07-09T12:55:27Z
========

ФайлыАбитуриента

2018-07-09T12:55:27Z
========

ПоданныеДокументы

2018-07-09T12:55:27Z
========

Заявления

2018-07-09T12:55:27Z
========

*********************************************************************
2018-07-09T12:55:27Z
========

Абитуриент
Array
(
    [GUID] => 
    [Фамилия] => Нечепорук
    [Имя] => Иван
    [Отчество] => Богданович
    [ДатаРождения] => 1997-03-11
    [МестоРождения] => П.СОФРИНО-1 ПУШКИНСКОГО Р-НА МОСКОВСКОЙ ОБЛ.
    [Пол] => Мужской
    [Гражданство] => РОССИЯ
    [ИндексР] => 141014
    [РегионР] => Московская
    [ГородР] => Мытищи
    [НасПунктР] => 
    [УлицаР] => Крестьянская 3-я
    [ДомР] => 12/1
    [КорпусР] => 
    [КвартираР] => 111
    [ИндексП] => 141014
    [РегионП] => Московская
    [ГородП] => Мытищи
    [НасПунктП] => 
    [УлицаП] => Крестьянская 3-я
    [ДомП] => 12/1
    [КорпусП] => 
    [КвартираП] => 111
    [ТелефонКонтактный] => +7(977) 261-88-23
    [ТелефонДомашний] => +7(495) 788-24-29
    [ТелефонСлужебный] => 
    [ЭлПочта] => niceboy1977@mail.ru
    [НужноОбщежитие] => 
    [ПаспортВид] => Паспорт гражданина РФ
    [ПаспортСерия] => 4617
    [ПаспортНомер] => 539896
    [ПаспортДата] => 2017-04-13
    [ПаспортВыдан] => ТП №2 МЕЖРАЙОННОГО ОУФМС РОССИИ ПО МОСКОВСКОЙ ОБЛАСТИ В ГОРОДСКОМ ПОСЕЛЕНИИ МЫТИЩИ
    [ПаспортКодПодразделения] => 500-085
    [СемейноеПоложение] => Холост
    [ПосещениеПодготовительныхКурсов] => не посещал(-а)
    [ЗаведениеПодготовительныхКурсов] => 
    [МестоРаботы] => -
    [Должность] => -
    [ОтношениеКВоинскойСлужбе] => 
    [ВидДокументаВС] => 
    [ДокументВСНомер] => 
    [ДокументВСДата] => 0001-01-01
    [ДокументВСМестоВыдачи] => 
    [Военкомат] => 
    [ВоинскоеЗвание] => 
    [КатегорияЗапаса] => 
    [КатегорияГодностиКВоеннойСлужбе] => 
    [РегионДляФИС] => Москва г
    [ТипНаселенногоПунктаДляФИС] => citytype00-000002
    [ИностранныйГражданин] => 
    [ПаспортВид2] => 
    [ПаспортСерия2] => 
    [ПаспортНомер2] => 
    [ПаспортДата2] => 0001-01-01
    [ПаспортВыдан2] => 
    [ПаспортКодПодразделения2] => 
    [СтатусЗаявки] => 
    [IDMain] => 7266
    [Keyword] => 
)

2018-07-09T13:05:50Z
========

СоставСемьи

2018-07-09T13:05:50Z
========

РезультатыЕГЭ

2018-07-09T13:05:50Z
========

ФайлыАбитуриента

2018-07-09T13:05:51Z
========

ПоданныеДокументы
Array
(
    [ВидДокумента] => 00-000050
    [Серия] => 107718
    [Номер] => 1030491
    [Дата] => 2018-06-22
)

2018-07-09T13:05:51Z
========

Заявления
Array
(
    [НаправлениеПодготовки] => 
    [GUIDНП] => d79c9ce9-566d-11e7-80e8-005056b32020
    [ФормаОбучения] => 
    [GUIDФО] => 
    [ЗаявлениеПроверено] => 
    [КонкурснаяГруппа] => 
    [GUIDКГ] => c44182c5-371d-11e8-812c-005056b32020
    [УровеньОбразования] => 
    [GUIDУО] => 
    [Состояние] => 
    [РегНомер] => 
    [ДатаЗаявления] => 0001-01-01
    [ДатаОтзываЗаявления] => 0001-01-01
    [НаличиеПодлинника] => 
    [СогласиеНаЗачисление] => 1
    [ДатаСогласиеНаЗачисление] => 0001-01-01
    [ДатаОтзываСогласиеНаЗачисление] => 0001-01-01
    [ВыбранныйИнститут] => 
    [ВыбранныйПрофиль] => 
    [ВидФинансирования] => 
    [ЦелевойПрием] => 
    [ОсобаяКвота] => 
    [ПутьКФайлу] => 
    [ДатаИзменения] => 2018-07-09
    [RequestStatus] => 
)

2018-07-09T13:05:51Z
========

*********************************************************************
2018-07-09T13:05:51Z
========

