Абитуриент
Array
(
    [GUID] => 
    [Фамилия] => Кандакова
    [Имя] => Дарья
    [Отчество] => Андреевна
    [ДатаРождения] => 2000-04-17
    [МестоРождения] => РФ, город Березовский Кемеровской области
    [Пол] => Женский
    [Гражданство] => РОССИЯ
    [ИндексР] => 652423
    [РегионР] => Кемеровская
    [ГородР] => Березовский
    [НасПунктР] => 
    [УлицаР] => А.Лужбина
    [ДомР] => 1а
    [КорпусР] => 
    [КвартираР] => 2
    [ИндексП] => 652423
    [РегионП] => Кемеровская
    [ГородП] => Березовский
    [НасПунктП] => 
    [УлицаП] => А.Лужбина
    [ДомП] => 1а
    [КорпусП] => 
    [КвартираП] => 2
    [ТелефонКонтактный] => +7(961) 712-56-72
    [ТелефонДомашний] => 
    [ТелефонСлужебный] => 
    [ЭлПочта] => dkandakova@yandex.ru
    [НужноОбщежитие] => 1
    [ПаспортВид] => Паспорт гражданина РФ
    [ПаспортСерия] => 3213
    [ПаспортНомер] => 388064
    [ПаспортДата] => 0001-01-01
    [ПаспортВыдан] => 
    [ПаспортКодПодразделения] => 
    [СемейноеПоложение] => Не замужем
    [ПосещениеПодготовительныхКурсов] => 
    [ЗаведениеПодготовительныхКурсов] => 
    [МестоРаботы] => 
    [Должность] => 
    [ОтношениеКВоинскойСлужбе] => 
    [ВидДокументаВС] => 
    [ДокументВСНомер] => 
    [ДокументВСДата] => 0001-01-01
    [ДокументВСМестоВыдачи] => 
    [Военкомат] => 
    [ВоинскоеЗвание] => 
    [КатегорияЗапаса] => 
    [КатегорияГодностиКВоеннойСлужбе] => 
    [РегионДляФИС] => Кемеровская обл
    [ТипНаселенногоПунктаДляФИС] => citytype00-000002
    [ИностранныйГражданин] => 
    [ПаспортВид2] => 
    [ПаспортСерия2] => 
    [ПаспортНомер2] => 
    [ПаспортДата2] => 0001-01-01
    [ПаспортВыдан2] => 
    [ПаспортКодПодразделения2] => 
    [СтатусЗаявки] => 
    [IDMain] => 7408
    [Keyword] => 
)

2018-07-09T15:55:44Z
========

СоставСемьи

2018-07-09T15:55:44Z
========

РезультатыЕГЭ

2018-07-09T15:55:44Z
========

ФайлыАбитуриента

2018-07-09T15:55:44Z
========

ПоданныеДокументы

2018-07-09T15:55:45Z
========

Заявления

2018-07-09T15:55:45Z
========

*********************************************************************
2018-07-09T15:55:45Z
========

