Абитуриент
Array
(
    [GUID] => 
    [Фамилия] => Лысенко
    [Имя] => Дарья
    [Отчество] => Валерьевна
    [ДатаРождения] => 1995-06-28
    [МестоРождения] => 
    [Пол] => Женский
    [Гражданство] => 
    [ИндексР] => 
    [РегионР] => 
    [ГородР] => 
    [НасПунктР] => 
    [УлицаР] => 
    [ДомР] => 
    [КорпусР] => 
    [КвартираР] => 
    [ИндексП] => 
    [РегионП] => 
    [ГородП] => 
    [НасПунктП] => 
    [УлицаП] => 
    [ДомП] => 
    [КорпусП] => 
    [КвартираП] => 
    [ТелефонКонтактный] => 
    [ТелефонДомашний] => 
    [ТелефонСлужебный] => 
    [ЭлПочта] => dashkin-95@yandex.ru
    [НужноОбщежитие] => 
    [ПаспортВид] => Паспорт гражданина РФ
    [ПаспортСерия] => 2915
    [ПаспортНомер] => 696701
    [ПаспортДата] => 0001-01-01
    [ПаспортВыдан] => 
    [ПаспортКодПодразделения] => 
    [СемейноеПоложение] => 
    [ПосещениеПодготовительныхКурсов] => 
    [ЗаведениеПодготовительныхКурсов] => 
    [МестоРаботы] => 
    [Должность] => 
    [ОтношениеКВоинскойСлужбе] => 
    [ВидДокументаВС] => 
    [ДокументВСНомер] => 
    [ДокументВСДата] => 0001-01-01
    [ДокументВСМестоВыдачи] => 
    [Военкомат] => 
    [ВоинскоеЗвание] => 
    [КатегорияЗапаса] => 
    [КатегорияГодностиКВоеннойСлужбе] => 
    [РегионДляФИС] => 
    [ТипНаселенногоПунктаДляФИС] => 
    [ИностранныйГражданин] => 
    [ПаспортВид2] => 
    [ПаспортСерия2] => 
    [ПаспортНомер2] => 
    [ПаспортДата2] => 0001-01-01
    [ПаспортВыдан2] => 
    [ПаспортКодПодразделения2] => 
    [СтатусЗаявки] => 
    [IDMain] => 7470
    [Keyword] => 
)

2018-07-09T20:14:37Z
========

СоставСемьи

2018-07-09T20:14:37Z
========

ИностранныеЯзыки

2018-07-09T20:14:38Z
========

РезультатыЕГЭ

2018-07-09T20:14:38Z
========

ФайлыАбитуриента

2018-07-09T20:14:38Z
========

ПоданныеДокументы

2018-07-09T20:14:38Z
========

Заявления

2018-07-09T20:14:39Z
========

*********************************************************************
2018-07-09T20:14:39Z
========

Абитуриент
Array
(
    [GUID] => 
    [Фамилия] => Лысенко
    [Имя] => Дарья
    [Отчество] => Валерьевна
    [ДатаРождения] => 1995-06-28
    [МестоРождения] => 
    [Пол] => Женский
    [Гражданство] => РОССИЯ
    [ИндексР] => 
    [РегионР] => Калужская
    [ГородР] => Обнинск
    [НасПунктР] => 
    [УлицаР] => Белкинская
    [ДомР] => 11
    [КорпусР] => 
    [КвартираР] => 31
    [ИндексП] => 249034
    [РегионП] => Москва
    [ГородП] => Москва
    [НасПунктП] => 
    [УлицаП] => Ереванская
    [ДомП] => 15/1
    [КорпусП] => 
    [КвартираП] => 74
    [ТелефонКонтактный] => +7(920) 615-26-31
    [ТелефонДомашний] => 
    [ТелефонСлужебный] => 
    [ЭлПочта] => dashkin-95@yandex.ru
    [НужноОбщежитие] => 
    [ПаспортВид] => Паспорт гражданина РФ
    [ПаспортСерия] => 2915
    [ПаспортНомер] => 696701
    [ПаспортДата] => 2015-07-09
    [ПаспортВыдан] => Отдел УФМС России по Калужской области в г. Обнинске
    [ПаспортКодПодразделения] => 400-004
    [СемейноеПоложение] => Не замужем
    [ПосещениеПодготовительныхКурсов] => не посещал(-а)
    [ЗаведениеПодготовительныхКурсов] => 
    [МестоРаботы] => HSBC банк РР
    [Должность] => Младший специалист по проектному и торговому финансированию
    [ОтношениеКВоинскойСлужбе] => 
    [ВидДокументаВС] => 
    [ДокументВСНомер] => 
    [ДокументВСДата] => 0001-01-01
    [ДокументВСМестоВыдачи] => 
    [Военкомат] => 
    [ВоинскоеЗвание] => 
    [КатегорияЗапаса] => 
    [КатегорияГодностиКВоеннойСлужбе] => 
    [РегионДляФИС] => Москва г
    [ТипНаселенногоПунктаДляФИС] => citytype00-000001
    [ИностранныйГражданин] => 
    [ПаспортВид2] => 
    [ПаспортСерия2] => 
    [ПаспортНомер2] => 
    [ПаспортДата2] => 0001-01-01
    [ПаспортВыдан2] => 
    [ПаспортКодПодразделения2] => 
    [СтатусЗаявки] => 
    [IDMain] => 7470
    [Keyword] => 
)

2018-07-09T20:33:03Z
========

СоставСемьи

2018-07-09T20:33:03Z
========

ИностранныеЯзыки
Array
(
    [ИностранныйЯзык] => 00-000000010
    [Основной] => 1
)

2018-07-09T20:33:04Z
========

РезультатыЕГЭ

2018-07-09T20:33:04Z
========

ФайлыАбитуриента

2018-07-09T20:33:04Z
========

ПоданныеДокументы
Array
(
    [ВидДокумента] => 00-000051
    [Серия] => 107724
    [Номер] => 2244968
    [Дата] => 2018-06-22
)

2018-07-09T20:33:04Z
========

Заявления

2018-07-09T20:33:05Z
========

*********************************************************************
2018-07-09T20:33:05Z
========

Абитуриент
Array
(
    [GUID] => 
    [Фамилия] => Лысенко
    [Имя] => Дарья
    [Отчество] => Валерьевна
    [ДатаРождения] => 1995-06-28
    [МестоРождения] => 
    [Пол] => Женский
    [Гражданство] => РОССИЯ
    [ИндексР] => 
    [РегионР] => Калужская
    [ГородР] => Обнинск
    [НасПунктР] => 
    [УлицаР] => Курчатова
    [ДомР] => 47/2
    [КорпусР] => 
    [КвартираР] => 31
    [ИндексП] => 249034
    [РегионП] => Москва
    [ГородП] => Москва
    [НасПунктП] => 
    [УлицаП] => Ереванская
    [ДомП] => 15/1
    [КорпусП] => 
    [КвартираП] => 74
    [ТелефонКонтактный] => +7(920) 615-26-31
    [ТелефонДомашний] => 
    [ТелефонСлужебный] => 
    [ЭлПочта] => dashkin-95@yandex.ru
    [НужноОбщежитие] => 
    [ПаспортВид] => Паспорт гражданина РФ
    [ПаспортСерия] => 2915
    [ПаспортНомер] => 696701
    [ПаспортДата] => 2015-07-09
    [ПаспортВыдан] => Отдел УФМС России по Калужской области в г. Обнинске
    [ПаспортКодПодразделения] => 400-004
    [СемейноеПоложение] => Не замужем
    [ПосещениеПодготовительныхКурсов] => не посещал(-а)
    [ЗаведениеПодготовительныхКурсов] => 
    [МестоРаботы] => HSBC банк РР
    [Должность] => Младший специалист по проектному и торговому финансированию
    [ОтношениеКВоинскойСлужбе] => 
    [ВидДокументаВС] => 
    [ДокументВСНомер] => 
    [ДокументВСДата] => 0001-01-01
    [ДокументВСМестоВыдачи] => 
    [Военкомат] => 
    [ВоинскоеЗвание] => 
    [КатегорияЗапаса] => 
    [КатегорияГодностиКВоеннойСлужбе] => 
    [РегионДляФИС] => Москва г
    [ТипНаселенногоПунктаДляФИС] => citytype00-000001
    [ИностранныйГражданин] => 
    [ПаспортВид2] => 
    [ПаспортСерия2] => 
    [ПаспортНомер2] => 
    [ПаспортДата2] => 0001-01-01
    [ПаспортВыдан2] => 
    [ПаспортКодПодразделения2] => 
    [СтатусЗаявки] => 
    [IDMain] => 7470
    [Keyword] => 
)

2018-07-09T20:33:22Z
========

СоставСемьи

2018-07-09T20:33:22Z
========

ИностранныеЯзыки
Array
(
    [ИностранныйЯзык] => 00-000000010
    [Основной] => 1
)

2018-07-09T20:33:23Z
========

РезультатыЕГЭ

2018-07-09T20:33:23Z
========

ФайлыАбитуриента

2018-07-09T20:33:23Z
========

ПоданныеДокументы
Array
(
    [ВидДокумента] => 00-000051
    [Серия] => 107724
    [Номер] => 2244968
    [Дата] => 2018-06-22
)

2018-07-09T20:33:23Z
========

Заявления

2018-07-09T20:33:23Z
========

*********************************************************************
2018-07-09T20:33:23Z
========

Абитуриент
Array
(
    [GUID] => 
    [Фамилия] => Лысенко
    [Имя] => Дарья
    [Отчество] => Валерьевна
    [ДатаРождения] => 1995-06-28
    [МестоРождения] => 
    [Пол] => Женский
    [Гражданство] => РОССИЯ
    [ИндексР] => 
    [РегионР] => Калужская
    [ГородР] => Обнинск
    [НасПунктР] => 
    [УлицаР] => Курчатова
    [ДомР] => 47/2
    [КорпусР] => 
    [КвартираР] => 31
    [ИндексП] => 249034
    [РегионП] => Москва
    [ГородП] => Москва
    [НасПунктП] => 
    [УлицаП] => Ереванская
    [ДомП] => 15/1
    [КорпусП] => 
    [КвартираП] => 74
    [ТелефонКонтактный] => +7(920) 615-26-31
    [ТелефонДомашний] => 
    [ТелефонСлужебный] => 
    [ЭлПочта] => dashkin-95@yandex.ru
    [НужноОбщежитие] => 
    [ПаспортВид] => Паспорт гражданина РФ
    [ПаспортСерия] => 2915
    [ПаспортНомер] => 696701
    [ПаспортДата] => 2015-07-09
    [ПаспортВыдан] => Отдел УФМС России по Калужской области в г. Обнинске
    [ПаспортКодПодразделения] => 400-004
    [СемейноеПоложение] => Не замужем
    [ПосещениеПодготовительныхКурсов] => не посещал(-а)
    [ЗаведениеПодготовительныхКурсов] => 
    [МестоРаботы] => HSBC банк РР
    [Должность] => Младший специалист по проектному и торговому финансированию
    [ОтношениеКВоинскойСлужбе] => 
    [ВидДокументаВС] => 
    [ДокументВСНомер] => 
    [ДокументВСДата] => 0001-01-01
    [ДокументВСМестоВыдачи] => 
    [Военкомат] => 
    [ВоинскоеЗвание] => 
    [КатегорияЗапаса] => 
    [КатегорияГодностиКВоеннойСлужбе] => 
    [РегионДляФИС] => Москва г
    [ТипНаселенногоПунктаДляФИС] => citytype00-000001
    [ИностранныйГражданин] => 
    [ПаспортВид2] => 
    [ПаспортСерия2] => 
    [ПаспортНомер2] => 
    [ПаспортДата2] => 0001-01-01
    [ПаспортВыдан2] => 
    [ПаспортКодПодразделения2] => 
    [СтатусЗаявки] => 
    [IDMain] => 7470
    [Keyword] => 
)

2018-07-18T21:14:52Z
========

СоставСемьи

2018-07-18T21:14:52Z
========

ИностранныеЯзыки
Array
(
    [ИностранныйЯзык] => 00-000000010
    [Основной] => 1
)

2018-07-18T21:14:52Z
========

РезультатыЕГЭ

2018-07-18T21:14:52Z
========

ФайлыАбитуриента

2018-07-18T21:14:53Z
========

ПоданныеДокументы
Array
(
    [ВидДокумента] => 00-000051
    [Серия] => 107724
    [Номер] => 2244968
    [Дата] => 2018-06-22
)

2018-07-18T21:14:53Z
========

Заявления

2018-07-18T21:14:53Z
========

*********************************************************************
2018-07-18T21:14:53Z
========

Абитуриент
Array
(
    [GUID] => 
    [Фамилия] => Лысенко
    [Имя] => Дарья
    [Отчество] => Валерьевна
    [ДатаРождения] => 1995-06-28
    [МестоРождения] => 
    [Пол] => Женский
    [Гражданство] => РОССИЯ
    [ИндексР] => 
    [РегионР] => Калужская
    [ГородР] => Обнинск
    [НасПунктР] => 
    [УлицаР] => Курчатова
    [ДомР] => 47/2
    [КорпусР] => 
    [КвартираР] => 31
    [ИндексП] => 249034
    [РегионП] => Москва
    [ГородП] => Москва
    [НасПунктП] => 
    [УлицаП] => Ереванская
    [ДомП] => 15/1
    [КорпусП] => 
    [КвартираП] => 74
    [ТелефонКонтактный] => +7(920) 615-26-31
    [ТелефонДомашний] => 
    [ТелефонСлужебный] => 
    [ЭлПочта] => dashkin-95@yandex.ru
    [НужноОбщежитие] => 
    [ПаспортВид] => Паспорт гражданина РФ
    [ПаспортСерия] => 2915
    [ПаспортНомер] => 696701
    [ПаспортДата] => 2015-07-09
    [ПаспортВыдан] => Отдел УФМС России по Калужской области в г. Обнинске
    [ПаспортКодПодразделения] => 400-004
    [СемейноеПоложение] => Не замужем
    [ПосещениеПодготовительныхКурсов] => не посещал(-а)
    [ЗаведениеПодготовительныхКурсов] => 
    [МестоРаботы] => HSBC банк РР
    [Должность] => Младший специалист по проектному и торговому финансированию
    [ОтношениеКВоинскойСлужбе] => 
    [ВидДокументаВС] => 
    [ДокументВСНомер] => 
    [ДокументВСДата] => 0001-01-01
    [ДокументВСМестоВыдачи] => 
    [Военкомат] => 
    [ВоинскоеЗвание] => 
    [КатегорияЗапаса] => 
    [КатегорияГодностиКВоеннойСлужбе] => 
    [РегионДляФИС] => Москва г
    [ТипНаселенногоПунктаДляФИС] => citytype00-000001
    [ИностранныйГражданин] => 
    [ПаспортВид2] => 
    [ПаспортСерия2] => 
    [ПаспортНомер2] => 
    [ПаспортДата2] => 0001-01-01
    [ПаспортВыдан2] => 
    [ПаспортКодПодразделения2] => 
    [СтатусЗаявки] => 
    [IDMain] => 7470
    [Keyword] => 
)

2018-07-18T21:15:03Z
========

СоставСемьи

2018-07-18T21:15:03Z
========

ИностранныеЯзыки
Array
(
    [ИностранныйЯзык] => 00-000000010
    [Основной] => 1
)

2018-07-18T21:15:03Z
========

РезультатыЕГЭ

2018-07-18T21:15:03Z
========

ФайлыАбитуриента

2018-07-18T21:15:04Z
========

ПоданныеДокументы
Array
(
    [ВидДокумента] => 00-000051
    [Серия] => 107724
    [Номер] => 2244968
    [Дата] => 2018-06-22
)

2018-07-18T21:15:04Z
========

Заявления

2018-07-18T21:15:04Z
========

*********************************************************************
2018-07-18T21:15:04Z
========

Абитуриент
Array
(
    [GUID] => 
    [Фамилия] => Лысенко
    [Имя] => Дарья
    [Отчество] => Валерьевна
    [ДатаРождения] => 1995-06-28
    [МестоРождения] => 
    [Пол] => Женский
    [Гражданство] => РОССИЯ
    [ИндексР] => 
    [РегионР] => Калужская
    [ГородР] => Обнинск
    [НасПунктР] => 
    [УлицаР] => Курчатова
    [ДомР] => 47/2
    [КорпусР] => 
    [КвартираР] => 31
    [ИндексП] => 249034
    [РегионП] => Москва
    [ГородП] => Москва
    [НасПунктП] => 
    [УлицаП] => Ереванская
    [ДомП] => 15/1
    [КорпусП] => 
    [КвартираП] => 74
    [ТелефонКонтактный] => +7(920) 615-26-31
    [ТелефонДомашний] => 
    [ТелефонСлужебный] => 
    [ЭлПочта] => dashkin-95@yandex.ru
    [НужноОбщежитие] => 
    [ПаспортВид] => Паспорт гражданина РФ
    [ПаспортСерия] => 2915
    [ПаспортНомер] => 696701
    [ПаспортДата] => 2015-07-09
    [ПаспортВыдан] => Отдел УФМС России по Калужской области в г. Обнинске
    [ПаспортКодПодразделения] => 400-004
    [СемейноеПоложение] => Не замужем
    [ПосещениеПодготовительныхКурсов] => не посещал(-а)
    [ЗаведениеПодготовительныхКурсов] => 
    [МестоРаботы] => HSBC банк РР
    [Должность] => Младший специалист по проектному и торговому финансированию
    [ОтношениеКВоинскойСлужбе] => 
    [ВидДокументаВС] => 
    [ДокументВСНомер] => 
    [ДокументВСДата] => 0001-01-01
    [ДокументВСМестоВыдачи] => 
    [Военкомат] => 
    [ВоинскоеЗвание] => 
    [КатегорияЗапаса] => 
    [КатегорияГодностиКВоеннойСлужбе] => 
    [РегионДляФИС] => Москва г
    [ТипНаселенногоПунктаДляФИС] => citytype00-000001
    [ИностранныйГражданин] => 
    [ПаспортВид2] => 
    [ПаспортСерия2] => 
    [ПаспортНомер2] => 
    [ПаспортДата2] => 0001-01-01
    [ПаспортВыдан2] => 
    [ПаспортКодПодразделения2] => 
    [СтатусЗаявки] => На доработке
    [IDMain] => 7470
    [Keyword] => 
)

2018-07-24T21:55:24Z
========

СоставСемьи

2018-07-24T21:55:24Z
========

ИностранныеЯзыки
Array
(
    [ИностранныйЯзык] => 00-000000010
    [Основной] => 1
)

2018-07-24T21:55:25Z
========

РезультатыЕГЭ

2018-07-24T21:55:25Z
========

ФайлыАбитуриента
Array
(
    [ТипДокумента] => 00-000001
    [ПутьКФайлу] => 7470\passport.pdf
    [ДатаИзменения] => 2018-07-18
)

2018-07-24T21:55:25Z
========

ПоданныеДокументы
Array
(
    [ВидДокумента] => 00-000051
    [Серия] => 107724
    [Номер] => 2244968
    [Дата] => 2018-06-22
)

2018-07-24T21:55:25Z
========

Заявления
Array
(
    [НаправлениеПодготовки] => 
    [GUIDНП] => b068e915-566c-11e7-80e8-005056b32020
    [ФормаОбучения] => 
    [GUIDФО] => 
    [ЗаявлениеПроверено] => 
    [КонкурснаяГруппа] => МАГ Юрисп ЗАОЧНАЯ договор
    [GUIDКГ] => 9caca1f9-371d-11e8-812c-005056b32020
    [УровеньОбразования] => 
    [GUIDУО] => Магистр
    [Состояние] => 
    [РегНомер] => 
    [ДатаЗаявления] => 0001-01-01
    [ДатаОтзываЗаявления] => 0001-01-01
    [НаличиеПодлинника] => 
    [СогласиеНаЗачисление] => 1
    [ДатаСогласиеНаЗачисление] => 0001-01-01
    [ДатаОтзываСогласиеНаЗачисление] => 0001-01-01
    [ВыбранныйИнститут] => 
    [ВыбранныйПрофиль] => 
    [GUIDПрофиль] => 
    [ВидФинансирования] => 
    [ЦелевойПрием] => 
    [ОсобаяКвота] => 
    [ПутьКФайлу] => 7470\9caca1f9-371d-11e8-812c-005056b32020_mgyua1_compressed_1807213618.pdf
    [ДатаИзменения] => 2018-07-18
    [RequestStatus] => На доработке
)

2018-07-24T21:55:25Z
========

*********************************************************************
2018-07-24T21:55:25Z
========

Абитуриент
Array
(
    [GUID] => 
    [Фамилия] => Лысенко
    [Имя] => Дарья
    [Отчество] => Валерьевна
    [ДатаРождения] => 1995-06-28
    [МестоРождения] => 
    [Пол] => Женский
    [Гражданство] => РОССИЯ
    [ИндексР] => 
    [РегионР] => Калужская
    [ГородР] => Обнинск
    [НасПунктР] => 
    [УлицаР] => Курчатова
    [ДомР] => 47/2
    [КорпусР] => 
    [КвартираР] => 31
    [ИндексП] => 249034
    [РегионП] => Москва
    [ГородП] => Москва
    [НасПунктП] => 
    [УлицаП] => Ереванская
    [ДомП] => 15/1
    [КорпусП] => 
    [КвартираП] => 74
    [ТелефонКонтактный] => +7(920) 615-26-31
    [ТелефонДомашний] => 
    [ТелефонСлужебный] => 
    [ЭлПочта] => dashkin-95@yandex.ru
    [НужноОбщежитие] => 
    [ПаспортВид] => Паспорт гражданина РФ
    [ПаспортСерия] => 2915
    [ПаспортНомер] => 696701
    [ПаспортДата] => 2015-07-09
    [ПаспортВыдан] => Отдел УФМС России по Калужской области в г. Обнинске
    [ПаспортКодПодразделения] => 400-004
    [СемейноеПоложение] => Не замужем
    [ПосещениеПодготовительныхКурсов] => не посещал(-а)
    [ЗаведениеПодготовительныхКурсов] => 
    [МестоРаботы] => HSBC банк РР
    [Должность] => Младший специалист по проектному и торговому финансированию
    [ОтношениеКВоинскойСлужбе] => 
    [ВидДокументаВС] => 
    [ДокументВСНомер] => 
    [ДокументВСДата] => 0001-01-01
    [ДокументВСМестоВыдачи] => 
    [Военкомат] => 
    [ВоинскоеЗвание] => 
    [КатегорияЗапаса] => 
    [КатегорияГодностиКВоеннойСлужбе] => 
    [РегионДляФИС] => Москва г
    [ТипНаселенногоПунктаДляФИС] => citytype00-000001
    [ИностранныйГражданин] => 
    [ПаспортВид2] => 
    [ПаспортСерия2] => 
    [ПаспортНомер2] => 
    [ПаспортДата2] => 0001-01-01
    [ПаспортВыдан2] => 
    [ПаспортКодПодразделения2] => 
    [СтатусЗаявки] => На рассмотрении
    [IDMain] => 7470
    [Keyword] => 
)

2018-07-30T22:20:24Z
========

СоставСемьи

2018-07-30T22:20:25Z
========

ИностранныеЯзыки
Array
(
    [ИностранныйЯзык] => 00-000000010
    [Основной] => 1
)

2018-07-30T22:20:25Z
========

РезультатыЕГЭ

2018-07-30T22:20:25Z
========

ФайлыАбитуриента
Array
(
    [0] => Array
        (
            [ТипДокумента] => 00-000001
            [ПутьКФайлу] => 7470\passport.pdf
            [ДатаИзменения] => 2018-07-18
        )

    [1] => Array
        (
            [ТипДокумента] => 00-000052
            [ПутьКФайлу] => 7470\education_00-000052.pdf
            [ДатаИзменения] => 2018-07-30
        )

)

2018-07-30T22:20:25Z
========

ПоданныеДокументы
Array
(
    [0] => Array
        (
            [ВидДокумента] => 00-000052
            [Серия] => 107724
            [Номер] => 2244968
            [Дата] => 2018-06-22
        )

    [1] => Array
        (
            [ВидДокумента] => 00-000051
            [Серия] => 107724
            [Номер] => 2244968
            [Дата] => 2018-06-22
        )

)

2018-07-30T22:20:26Z
========

Заявления
Array
(
    [НаправлениеПодготовки] => 
    [GUIDНП] => b068e915-566c-11e7-80e8-005056b32020
    [ФормаОбучения] => 
    [GUIDФО] => 
    [ЗаявлениеПроверено] => 
    [КонкурснаяГруппа] => МАГ Юрисп ЗАОЧНАЯ договор
    [GUIDКГ] => 9caca1f9-371d-11e8-812c-005056b32020
    [УровеньОбразования] => 
    [GUIDУО] => 
    [Состояние] => 
    [РегНомер] => 
    [ДатаЗаявления] => 0001-01-01
    [ДатаОтзываЗаявления] => 0001-01-01
    [НаличиеПодлинника] => 
    [СогласиеНаЗачисление] => 1
    [ДатаСогласиеНаЗачисление] => 0001-01-01
    [ДатаОтзываСогласиеНаЗачисление] => 0001-01-01
    [ВыбранныйИнститут] => 
    [ВыбранныйПрофиль] => 
    [GUIDПрофиль] => 
    [ВидФинансирования] => 
    [ЦелевойПрием] => 
    [ОсобаяКвота] => 
    [ПутьКФайлу] => 7470\9caca1f9-371d-11e8-812c-005056b32020_mgyua1_compressed_1807213618.pdf
    [ДатаИзменения] => 2018-07-18
    [RequestStatus] => На доработке
)

2018-07-30T22:20:26Z
========

*********************************************************************
2018-07-30T22:20:26Z
========

