Абитуриент
Array
(
    [GUID] => 
    [Фамилия] => Мамаев
    [Имя] => Степан
    [Отчество] => Александрович
    [ДатаРождения] => 2000-05-09
    [МестоРождения] => Республика Хакасия
    [Пол] => Мужской
    [Гражданство] => РОССИЯ
    [ИндексР] => 655007
    [РегионР] => Хакасия
    [ГородР] => Абакан
    [НасПунктР] => 
    [УлицаР] => Чертыгашева
    [ДомР] => 135
    [КорпусР] => 
    [КвартираР] => 22
    [ИндексП] => 655007
    [РегионП] => Хакасия
    [ГородП] => Абакан
    [НасПунктП] => 
    [УлицаП] => Чертыгашева
    [ДомП] => 135
    [КорпусП] => 
    [КвартираП] => 22
    [ТелефонКонтактный] => +7(983) 376-37-49
    [ТелефонДомашний] => 
    [ТелефонСлужебный] => 
    [ЭлПочта] => mamaeva-n@list.ru
    [НужноОбщежитие] => 1
    [ПаспортВид] => Паспорт гражданина РФ
    [ПаспортСерия] => 9514
    [ПаспортНомер] => 850282
    [ПаспортДата] => 2014-05-22
    [ПаспортВыдан] => УФМС РХ
    [ПаспортКодПодразделения] => 190-002
    [СемейноеПоложение] => Холост
    [ПосещениеПодготовительныхКурсов] => 
    [ЗаведениеПодготовительныхКурсов] => 
    [МестоРаботы] => 
    [Должность] => 
    [ОтношениеКВоинскойСлужбе] => 
    [ВидДокументаВС] => 
    [ДокументВСНомер] => 
    [ДокументВСДата] => 0001-01-01
    [ДокументВСМестоВыдачи] => 
    [Военкомат] => 
    [ВоинскоеЗвание] => 
    [КатегорияЗапаса] => 
    [КатегорияГодностиКВоеннойСлужбе] => 
    [РегионДляФИС] => Хакасия Респ
    [ТипНаселенногоПунктаДляФИС] => citytype00-000002
    [ИностранныйГражданин] => 
    [ПаспортВид2] => 
    [ПаспортСерия2] => 
    [ПаспортНомер2] => 
    [ПаспортДата2] => 0001-01-01
    [ПаспортВыдан2] => 
    [ПаспортКодПодразделения2] => 
    [СтатусЗаявки] => 
    [IDMain] => 7546
    [Keyword] => 
)

2018-07-11T09:57:44Z
========

СоставСемьи

2018-07-11T09:57:46Z
========

ИностранныеЯзыки

2018-07-11T09:57:48Z
========

РезультатыЕГЭ
Array
(
    [0] => Array
        (
            [Дисциплина] => История
            [Отметка] => 96
        )

    [1] => Array
        (
            [Дисциплина] => Русский
            [Отметка] => 80
        )

    [2] => Array
        (
            [Дисциплина] => Обществознание
            [Отметка] => 92
        )

)

2018-07-11T09:57:50Z
========

ФайлыАбитуриента
Array
(
    [0] => Array
        (
            [ТипДокумента] => 00-000001
            [ПутьКФайлу] => 7546\passport.PDF
            [ДатаИзменения] => 2018-07-11
        )

    [1] => Array
        (
            [ТипДокумента] => 00-000047
            [ПутьКФайлу] => 7546\education_00-000047.PDF
            [ДатаИзменения] => 2018-07-11
        )

)

2018-07-11T09:57:52Z
========

ПоданныеДокументы
Array
(
    [ВидДокумента] => 00-000047
    [Серия] => 000
    [Номер] => 01924003826010
    [Дата] => 2018-06-23
)

2018-07-11T09:57:53Z
========

Заявления

2018-07-11T09:57:53Z
========

*********************************************************************
2018-07-11T09:57:53Z
========

Абитуриент
Array
(
    [GUID] => 
    [Фамилия] => Мамаев
    [Имя] => Степан
    [Отчество] => Александрович
    [ДатаРождения] => 2000-05-09
    [МестоРождения] => Республика Хакасия
    [Пол] => Мужской
    [Гражданство] => РОССИЯ
    [ИндексР] => 655007
    [РегионР] => Хакасия
    [ГородР] => Абакан
    [НасПунктР] => 
    [УлицаР] => Чертыгашева
    [ДомР] => 135
    [КорпусР] => 
    [КвартираР] => 22
    [ИндексП] => 655007
    [РегионП] => Хакасия
    [ГородП] => Абакан
    [НасПунктП] => 
    [УлицаП] => Чертыгашева
    [ДомП] => 135
    [КорпусП] => 
    [КвартираП] => 22
    [ТелефонКонтактный] => +7(983) 376-37-49
    [ТелефонДомашний] => 
    [ТелефонСлужебный] => 
    [ЭлПочта] => mamaeva-n@list.ru
    [НужноОбщежитие] => 1
    [ПаспортВид] => Паспорт гражданина РФ
    [ПаспортСерия] => 9514
    [ПаспортНомер] => 850282
    [ПаспортДата] => 2014-05-22
    [ПаспортВыдан] => УФМС РХ
    [ПаспортКодПодразделения] => 190-002
    [СемейноеПоложение] => Холост
    [ПосещениеПодготовительныхКурсов] => 
    [ЗаведениеПодготовительныхКурсов] => 
    [МестоРаботы] => 
    [Должность] => 
    [ОтношениеКВоинскойСлужбе] => 
    [ВидДокументаВС] => 
    [ДокументВСНомер] => 
    [ДокументВСДата] => 0001-01-01
    [ДокументВСМестоВыдачи] => 
    [Военкомат] => 
    [ВоинскоеЗвание] => 
    [КатегорияЗапаса] => 
    [КатегорияГодностиКВоеннойСлужбе] => 
    [РегионДляФИС] => Хакасия Респ
    [ТипНаселенногоПунктаДляФИС] => citytype00-000002
    [ИностранныйГражданин] => 
    [ПаспортВид2] => 
    [ПаспортСерия2] => 
    [ПаспортНомер2] => 
    [ПаспортДата2] => 0001-01-01
    [ПаспортВыдан2] => 
    [ПаспортКодПодразделения2] => 
    [СтатусЗаявки] => 
    [IDMain] => 7546
    [Keyword] => 
)

2018-07-11T09:59:44Z
========

СоставСемьи

2018-07-11T09:59:45Z
========

ИностранныеЯзыки

2018-07-11T09:59:46Z
========

РезультатыЕГЭ
Array
(
    [0] => Array
        (
            [Дисциплина] => Обществознание
            [Отметка] => 92
        )

    [1] => Array
        (
            [Дисциплина] => История
            [Отметка] => 96
        )

    [2] => Array
        (
            [Дисциплина] => Русский
            [Отметка] => 80
        )

)

2018-07-11T09:59:47Z
========

ФайлыАбитуриента
Array
(
    [0] => Array
        (
            [ТипДокумента] => 00-000001
            [ПутьКФайлу] => 7546\passport.PDF
            [ДатаИзменения] => 2018-07-11
        )

    [1] => Array
        (
            [ТипДокумента] => 00-000047
            [ПутьКФайлу] => 7546\education_00-000047.PDF
            [ДатаИзменения] => 2018-07-11
        )

)

2018-07-11T09:59:49Z
========

ПоданныеДокументы
Array
(
    [ВидДокумента] => 00-000047
    [Серия] => 000
    [Номер] => 01924003826010
    [Дата] => 2018-06-23
)

2018-07-11T09:59:51Z
========

Заявления

2018-07-11T09:59:53Z
========

*********************************************************************
2018-07-11T09:59:53Z
========

Абитуриент
Array
(
    [GUID] => 
    [Фамилия] => Мамаев
    [Имя] => Степан
    [Отчество] => Александрович
    [ДатаРождения] => 2000-05-09
    [МестоРождения] => Республика Хакасия
    [Пол] => Мужской
    [Гражданство] => РОССИЯ
    [ИндексР] => 655007
    [РегионР] => Хакасия
    [ГородР] => Абакан
    [НасПунктР] => 
    [УлицаР] => Чертыгашева
    [ДомР] => 135
    [КорпусР] => 
    [КвартираР] => 22
    [ИндексП] => 655007
    [РегионП] => Хакасия
    [ГородП] => Абакан
    [НасПунктП] => 
    [УлицаП] => Чертыгашева
    [ДомП] => 135
    [КорпусП] => 
    [КвартираП] => 22
    [ТелефонКонтактный] => +7(983) 376-37-49
    [ТелефонДомашний] => 
    [ТелефонСлужебный] => 
    [ЭлПочта] => mamaeva-n@list.ru
    [НужноОбщежитие] => 1
    [ПаспортВид] => Паспорт гражданина РФ
    [ПаспортСерия] => 9514
    [ПаспортНомер] => 850282
    [ПаспортДата] => 2014-05-22
    [ПаспортВыдан] => УФМС РХ
    [ПаспортКодПодразделения] => 190-002
    [СемейноеПоложение] => Холост
    [ПосещениеПодготовительныхКурсов] => 
    [ЗаведениеПодготовительныхКурсов] => 
    [МестоРаботы] => 
    [Должность] => 
    [ОтношениеКВоинскойСлужбе] => 
    [ВидДокументаВС] => 
    [ДокументВСНомер] => 
    [ДокументВСДата] => 0001-01-01
    [ДокументВСМестоВыдачи] => 
    [Военкомат] => 
    [ВоинскоеЗвание] => 
    [КатегорияЗапаса] => 
    [КатегорияГодностиКВоеннойСлужбе] => 
    [РегионДляФИС] => Хакасия Респ
    [ТипНаселенногоПунктаДляФИС] => citytype00-000002
    [ИностранныйГражданин] => 
    [ПаспортВид2] => 
    [ПаспортСерия2] => 
    [ПаспортНомер2] => 
    [ПаспортДата2] => 0001-01-01
    [ПаспортВыдан2] => 
    [ПаспортКодПодразделения2] => 
    [СтатусЗаявки] => 
    [IDMain] => 7546
    [Keyword] => 
)

2018-07-11T10:00:17Z
========

СоставСемьи

2018-07-11T10:00:18Z
========

ИностранныеЯзыки

2018-07-11T10:00:19Z
========

РезультатыЕГЭ
Array
(
    [0] => Array
        (
            [Дисциплина] => Русский
            [Отметка] => 80
        )

    [1] => Array
        (
            [Дисциплина] => История
            [Отметка] => 96
        )

    [2] => Array
        (
            [Дисциплина] => Обществознание
            [Отметка] => 92
        )

)

2018-07-11T10:00:21Z
========

ФайлыАбитуриента
Array
(
    [0] => Array
        (
            [ТипДокумента] => 00-000047
            [ПутьКФайлу] => 7546\education_00-000047.PDF
            [ДатаИзменения] => 2018-07-11
        )

    [1] => Array
        (
            [ТипДокумента] => 00-000001
            [ПутьКФайлу] => 7546\passport.PDF
            [ДатаИзменения] => 2018-07-11
        )

)

2018-07-11T10:00:23Z
========

ПоданныеДокументы
Array
(
    [ВидДокумента] => 00-000047
    [Серия] => 000
    [Номер] => 01924003826010
    [Дата] => 2018-06-23
)

2018-07-11T10:00:25Z
========

Заявления

2018-07-11T10:00:28Z
========

*********************************************************************
2018-07-11T10:00:28Z
========

Абитуриент
Array
(
    [GUID] => 
    [Фамилия] => Мамаев
    [Имя] => Степан
    [Отчество] => Александрович
    [ДатаРождения] => 2000-05-09
    [МестоРождения] => Республика Хакасия
    [Пол] => Женский
    [Гражданство] => РОССИЯ
    [ИндексР] => 655007
    [РегионР] => Хакасия
    [ГородР] => Абакан
    [НасПунктР] => 
    [УлицаР] => Чертыгашева
    [ДомР] => 135
    [КорпусР] => 
    [КвартираР] => 22
    [ИндексП] => 655007
    [РегионП] => Хакасия
    [ГородП] => Абакан
    [НасПунктП] => 
    [УлицаП] => Чертыгашева
    [ДомП] => 135
    [КорпусП] => 
    [КвартираП] => 22
    [ТелефонКонтактный] => +7(983) 376-37-49
    [ТелефонДомашний] => 
    [ТелефонСлужебный] => 
    [ЭлПочта] => mamaeva-n@list.ru
    [НужноОбщежитие] => 
    [ПаспортВид] => Паспорт гражданина РФ
    [ПаспортСерия] => 9514
    [ПаспортНомер] => 850282
    [ПаспортДата] => 2014-05-22
    [ПаспортВыдан] => УФМС РХ
    [ПаспортКодПодразделения] => 190-002
    [СемейноеПоложение] => Холост
    [ПосещениеПодготовительныхКурсов] => не посещал(-а)
    [ЗаведениеПодготовительныхКурсов] => 
    [МестоРаботы] => 
    [Должность] => 
    [ОтношениеКВоинскойСлужбе] => 
    [ВидДокументаВС] => 
    [ДокументВСНомер] => 
    [ДокументВСДата] => 0001-01-01
    [ДокументВСМестоВыдачи] => 
    [Военкомат] => 
    [ВоинскоеЗвание] => 
    [КатегорияЗапаса] => 
    [КатегорияГодностиКВоеннойСлужбе] => 
    [РегионДляФИС] => Хакасия Респ
    [ТипНаселенногоПунктаДляФИС] => citytype00-000002
    [ИностранныйГражданин] => 
    [ПаспортВид2] => 
    [ПаспортСерия2] => 
    [ПаспортНомер2] => 
    [ПаспортДата2] => 0001-01-01
    [ПаспортВыдан2] => 
    [ПаспортКодПодразделения2] => 
    [СтатусЗаявки] => 
    [IDMain] => 7546
    [Keyword] => 
)

2018-07-12T07:13:18Z
========

СоставСемьи

2018-07-12T07:13:18Z
========

ИностранныеЯзыки

2018-07-12T07:13:18Z
========

РезультатыЕГЭ
Array
(
    [0] => Array
        (
            [Дисциплина] => Обществознание
            [Отметка] => 92
        )

    [1] => Array
        (
            [Дисциплина] => История
            [Отметка] => 96
        )

    [2] => Array
        (
            [Дисциплина] => Русский
            [Отметка] => 80
        )

)

2018-07-12T07:13:18Z
========

ФайлыАбитуриента
Array
(
    [0] => Array
        (
            [ТипДокумента] => 00-000001
            [ПутьКФайлу] => 7546\passport.PDF
            [ДатаИзменения] => 2018-07-11
        )

    [1] => Array
        (
            [ТипДокумента] => 00-000047
            [ПутьКФайлу] => 7546\education_00-000047.PDF
            [ДатаИзменения] => 2018-07-11
        )

)

2018-07-12T07:13:18Z
========

ПоданныеДокументы
Array
(
    [ВидДокумента] => 00-000047
    [Серия] => 000
    [Номер] => 01924003826010
    [Дата] => 2018-06-23
)

2018-07-12T07:13:19Z
========

Заявления

2018-07-12T07:13:19Z
========

*********************************************************************
2018-07-12T07:13:19Z
========

Абитуриент
Array
(
    [GUID] => 1b55ca8f-89a1-11e8-8138-005056b32020
    [Фамилия] => Мамаев
    [Имя] => Степан
    [Отчество] => Александрович
    [ДатаРождения] => 2000-05-09
    [МестоРождения] => город Абакан республика Хакасия 
    [Пол] => Мужской
    [Гражданство] => РОССИЯ
    [ИндексР] => 655004
    [РегионР] => Хакасия Респ
    [ГородР] => Абакан г
    [НасПунктР] => 
    [УлицаР] => Чертыгашева ул
    [ДомР] => 135
    [КорпусР] => 
    [КвартираР] => 22
    [ИндексП] => 655004
    [РегионП] => Хакасия Респ
    [ГородП] => Абакан г
    [НасПунктП] => 
    [УлицаП] => Чертыгашева ул
    [ДомП] => 135
    [КорпусП] => 
    [КвартираП] => 22
    [ТелефонКонтактный] => 89833763749
    [ТелефонДомашний] => 
    [ТелефонСлужебный] => 
    [ЭлПочта] => mamaeva-n@list.ru
    [НужноОбщежитие] => 1
    [ПаспортВид] => Паспорт гражданина РФ
    [ПаспортСерия] => 9514
    [ПаспортНомер] => 850282
    [ПаспортДата] => 2014-05-22
    [ПаспортВыдан] => отделом УФМС России по республике Хакасия в г. Абакан
    [ПаспортКодПодразделения] => 190 - 002
    [СемейноеПоложение] => Холост
    [ПосещениеПодготовительныхКурсов] => Не посещал
    [ЗаведениеПодготовительныхКурсов] => 
    [МестоРаботы] => 
    [Должность] => 
    [ОтношениеКВоинскойСлужбе] => 
    [ВидДокументаВС] => 
    [ДокументВСНомер] => 
    [ДокументВСДата] => 0001-01-01
    [ДокументВСМестоВыдачи] => 
    [Военкомат] => 
    [ВоинскоеЗвание] => 
    [КатегорияЗапаса] => 
    [КатегорияГодностиКВоеннойСлужбе] => 
    [РегионДляФИС] => Хакасия Респ
    [ТипНаселенногоПунктаДляФИС] => Город
    [ИностранныйГражданин] => 
    [ПаспортВид2] => 
    [ПаспортСерия2] => 
    [ПаспортНомер2] => 
    [ПаспортДата2] => 0001-01-01
    [ПаспортВыдан2] => 
    [ПаспортКодПодразделения2] => 
    [СтатусЗаявки] => Принята
    [IDMain] => 7546
    [Keyword] => 
)

2018-08-27T16:23:18Z
========

СоставСемьи

2018-08-27T16:23:19Z
========

ИностранныеЯзыки
Array
(
    [ИностранныйЯзык] => 00-000000010
    [Основной] => 1
)

2018-08-27T16:23:19Z
========

РезультатыЕГЭ
Array
(
    [0] => Array
        (
            [Дисциплина] => Русский язык
            [Отметка] => 80
        )

    [1] => Array
        (
            [Дисциплина] => История
            [Отметка] => 96
        )

    [2] => Array
        (
            [Дисциплина] => Обществознание
            [Отметка] => 92
        )

)

2018-08-27T16:23:20Z
========

ФайлыАбитуриента
Array
(
    [0] => Array
        (
            [ТипДокумента] => 00-000047
            [ПутьКФайлу] => 7546\education_00-000047.PDF
            [ДатаИзменения] => 2018-07-11
        )

    [1] => Array
        (
            [ТипДокумента] => 00-000001
            [ПутьКФайлу] => 7546\passport.PDF
            [ДатаИзменения] => 2018-07-11
        )

)

2018-08-27T16:23:20Z
========

ПоданныеДокументы
Array
(
    [0] => Array
        (
            [ВидДокумента] => 00-000047
            [Серия] => 
            [Номер] => 01924003826010
            [Дата] => 2018-06-23
        )

    [1] => Array
        (
            [ВидДокумента] => 00-000106
            [Серия] => 
            [Номер] => 
            [Дата] => 2018-07-11
        )

    [2] => Array
        (
            [ВидДокумента] => 00-000003
            [Серия] => 
            [Номер] => 
            [Дата] => 0001-01-01
        )

    [3] => Array
        (
            [ВидДокумента] => 00-000007
            [Серия] => 
            [Номер] => 
            [Дата] => 0001-01-01
        )

    [4] => Array
        (
            [ВидДокумента] => 000000002
            [Серия] => 
            [Номер] => 
            [Дата] => 0001-01-01
        )

)

2018-08-27T16:23:20Z
========

Заявления
Array
(
    [0] => Array
        (
            [НаправлениеПодготовки] => Судебная экспертиза
            [GUIDНП] => 3c68ce87-2b55-11e6-80be-005056b32020
            [ФормаОбучения] => Очная
            [GUIDФО] => 8f9f43a8-bc09-433b-9057-64c6a3ac8b10
            [ЗаявлениеПроверено] => 1
            [КонкурснаяГруппа] => Суд эксп ОЧНАЯ бюджет
            [GUIDКГ] => ba5ada94-371f-11e8-812c-005056b32020
            [УровеньОбразования] => Специалист
            [GUIDУО] => e7ec8534-0420-46b4-8c23-3933acf41357
            [Состояние] => Подал заявление
            [РегНомер] => 0113548
            [ДатаЗаявления] => 2018-07-17
            [ДатаОтзываЗаявления] => 0001-01-01
            [НаличиеПодлинника] => 1
            [СогласиеНаЗачисление] => 
            [ДатаСогласиеНаЗачисление] => 0001-01-01
            [ДатаОтзываСогласиеНаЗачисление] => 0001-01-01
            [ВыбранныйИнститут] => 
            [ВыбранныйПрофиль] => Судебная экспертиза
            [GUIDПрофиль] => 4d69e020-5666-11e7-80e8-005056b32020
            [ВидФинансирования] => Бюджетное
            [ЦелевойПрием] => 
            [ОсобаяКвота] => 
            [ПутьКФайлу] => 
            [ДатаИзменения] => 0001-01-01
            [RequestStatus] => Принята
        )

    [1] => Array
        (
            [НаправлениеПодготовки] => Правовое обеспечение национальной безопасности
            [GUIDНП] => c1cff574-2b55-11e6-80be-005056b32020
            [ФормаОбучения] => Очная
            [GUIDФО] => 8f9f43a8-bc09-433b-9057-64c6a3ac8b10
            [ЗаявлениеПроверено] => 1
            [КонкурснаяГруппа] => Нац без ОЧНАЯ бюджет
            [GUIDКГ] => 0c98b658-371f-11e8-812c-005056b32020
            [УровеньОбразования] => Специалист
            [GUIDУО] => e7ec8534-0420-46b4-8c23-3933acf41357
            [Состояние] => Зачислен
            [РегНомер] => 0113548
            [ДатаЗаявления] => 2018-07-17
            [ДатаОтзываЗаявления] => 0001-01-01
            [НаличиеПодлинника] => 1
            [СогласиеНаЗачисление] => 1
            [ДатаСогласиеНаЗачисление] => 2018-07-30
            [ДатаОтзываСогласиеНаЗачисление] => 0001-01-01
            [ВыбранныйИнститут] => Институт публичного права и управления
            [ВыбранныйПрофиль] => Правовое обеспечение национальной безопасности
            [GUIDПрофиль] => 32b9a3a5-55b8-11e7-80e8-005056b32020
            [ВидФинансирования] => Бюджетное
            [ЦелевойПрием] => 
            [ОсобаяКвота] => 
            [ПутьКФайлу] => 
            [ДатаИзменения] => 0001-01-01
            [RequestStatus] => Принята
        )

    [2] => Array
        (
            [НаправлениеПодготовки] => Юриспруденция
            [GUIDНП] => c55a0055-f268-11e5-9d71-005056963750
            [ФормаОбучения] => Очная
            [GUIDФО] => 8f9f43a8-bc09-433b-9057-64c6a3ac8b10
            [ЗаявлениеПроверено] => 1
            [КонкурснаяГруппа] => БАК Юрисп ОЧНАЯ бюджет
            [GUIDКГ] => a078523d-371c-11e8-812c-005056b32020
            [УровеньОбразования] => Бакалавр академический
            [GUIDУО] => 881a7dee-d400-4119-b425-a0d748d93022
            [Состояние] => Подал заявление
            [РегНомер] => 0113548
            [ДатаЗаявления] => 2018-07-17
            [ДатаОтзываЗаявления] => 0001-01-01
            [НаличиеПодлинника] => 1
            [СогласиеНаЗачисление] => 
            [ДатаСогласиеНаЗачисление] => 0001-01-01
            [ДатаОтзываСогласиеНаЗачисление] => 0001-01-01
            [ВыбранныйИнститут] => 
            [ВыбранныйПрофиль] => 
            [GUIDПрофиль] => 00000000-0000-0000-0000-000000000000
            [ВидФинансирования] => Бюджетное
            [ЦелевойПрием] => 
            [ОсобаяКвота] => 
            [ПутьКФайлу] => 
            [ДатаИзменения] => 0001-01-01
            [RequestStatus] => Принята
        )

)

2018-08-27T16:23:21Z
========

*********************************************************************
2018-08-27T16:23:21Z
========

Абитуриент
Array
(
    [GUID] => 1b55ca8f-89a1-11e8-8138-005056b32020
    [Фамилия] => Мамаев
    [Имя] => Степан
    [Отчество] => Александрович
    [ДатаРождения] => 2000-05-09
    [МестоРождения] => город Абакан республика Хакасия 
    [Пол] => Мужской
    [Гражданство] => РОССИЯ
    [ИндексР] => 655004
    [РегионР] => Хакасия Респ
    [ГородР] => Абакан г
    [НасПунктР] => 
    [УлицаР] => Чертыгашева ул
    [ДомР] => 135
    [КорпусР] => 
    [КвартираР] => 22
    [ИндексП] => 655004
    [РегионП] => Хакасия Респ
    [ГородП] => Абакан г
    [НасПунктП] => 
    [УлицаП] => Чертыгашева ул
    [ДомП] => 135
    [КорпусП] => 
    [КвартираП] => 22
    [ТелефонКонтактный] => 89833763749
    [ТелефонДомашний] => 
    [ТелефонСлужебный] => 
    [ЭлПочта] => mamaeva-n@list.ru
    [НужноОбщежитие] => 1
    [ПаспортВид] => Паспорт гражданина РФ
    [ПаспортСерия] => 9514
    [ПаспортНомер] => 850282
    [ПаспортДата] => 2014-05-22
    [ПаспортВыдан] => отделом УФМС России по республике Хакасия в г. Абакан
    [ПаспортКодПодразделения] => 190 - 002
    [СемейноеПоложение] => Холост
    [ПосещениеПодготовительныхКурсов] => Не посещал
    [ЗаведениеПодготовительныхКурсов] => 
    [МестоРаботы] => 
    [Должность] => 
    [ОтношениеКВоинскойСлужбе] => 
    [ВидДокументаВС] => 
    [ДокументВСНомер] => 
    [ДокументВСДата] => 0001-01-01
    [ДокументВСМестоВыдачи] => 
    [Военкомат] => 
    [ВоинскоеЗвание] => 
    [КатегорияЗапаса] => 
    [КатегорияГодностиКВоеннойСлужбе] => 
    [РегионДляФИС] => Хакасия Респ
    [ТипНаселенногоПунктаДляФИС] => Город
    [ИностранныйГражданин] => 
    [ПаспортВид2] => 
    [ПаспортСерия2] => 
    [ПаспортНомер2] => 
    [ПаспортДата2] => 0001-01-01
    [ПаспортВыдан2] => 
    [ПаспортКодПодразделения2] => 
    [СтатусЗаявки] => Принята
    [IDMain] => 7546
    [Keyword] => 
)

2018-08-27T16:23:32Z
========

СоставСемьи

2018-08-27T16:23:32Z
========

ИностранныеЯзыки
Array
(
    [ИностранныйЯзык] => 00-000000010
    [Основной] => 1
)

2018-08-27T16:23:33Z
========

РезультатыЕГЭ
Array
(
    [0] => Array
        (
            [Дисциплина] => Русский язык
            [Отметка] => 80
        )

    [1] => Array
        (
            [Дисциплина] => История
            [Отметка] => 96
        )

    [2] => Array
        (
            [Дисциплина] => Обществознание
            [Отметка] => 92
        )

)

2018-08-27T16:23:33Z
========

ФайлыАбитуриента
Array
(
    [0] => Array
        (
            [ТипДокумента] => 00-000047
            [ПутьКФайлу] => 7546\education_00-000047.PDF
            [ДатаИзменения] => 2018-07-11
        )

    [1] => Array
        (
            [ТипДокумента] => 00-000001
            [ПутьКФайлу] => 7546\passport.PDF
            [ДатаИзменения] => 2018-07-11
        )

)

2018-08-27T16:23:34Z
========

ПоданныеДокументы
Array
(
    [0] => Array
        (
            [ВидДокумента] => 00-000047
            [Серия] => 
            [Номер] => 01924003826010
            [Дата] => 2018-06-23
        )

    [1] => Array
        (
            [ВидДокумента] => 00-000106
            [Серия] => 
            [Номер] => 
            [Дата] => 2018-07-11
        )

    [2] => Array
        (
            [ВидДокумента] => 00-000003
            [Серия] => 
            [Номер] => 
            [Дата] => 0001-01-01
        )

    [3] => Array
        (
            [ВидДокумента] => 00-000007
            [Серия] => 
            [Номер] => 
            [Дата] => 0001-01-01
        )

    [4] => Array
        (
            [ВидДокумента] => 000000002
            [Серия] => 
            [Номер] => 
            [Дата] => 0001-01-01
        )

)

2018-08-27T16:23:34Z
========

Заявления
Array
(
    [0] => Array
        (
            [НаправлениеПодготовки] => Судебная экспертиза
            [GUIDНП] => 3c68ce87-2b55-11e6-80be-005056b32020
            [ФормаОбучения] => Очная
            [GUIDФО] => 8f9f43a8-bc09-433b-9057-64c6a3ac8b10
            [ЗаявлениеПроверено] => 1
            [КонкурснаяГруппа] => Суд эксп ОЧНАЯ бюджет
            [GUIDКГ] => ba5ada94-371f-11e8-812c-005056b32020
            [УровеньОбразования] => Специалист
            [GUIDУО] => e7ec8534-0420-46b4-8c23-3933acf41357
            [Состояние] => Подал заявление
            [РегНомер] => 0113548
            [ДатаЗаявления] => 2018-07-17
            [ДатаОтзываЗаявления] => 0001-01-01
            [НаличиеПодлинника] => 1
            [СогласиеНаЗачисление] => 
            [ДатаСогласиеНаЗачисление] => 0001-01-01
            [ДатаОтзываСогласиеНаЗачисление] => 0001-01-01
            [ВыбранныйИнститут] => 
            [ВыбранныйПрофиль] => Судебная экспертиза
            [GUIDПрофиль] => 4d69e020-5666-11e7-80e8-005056b32020
            [ВидФинансирования] => Бюджетное
            [ЦелевойПрием] => 
            [ОсобаяКвота] => 
            [ПутьКФайлу] => 
            [ДатаИзменения] => 0001-01-01
            [RequestStatus] => Принята
        )

    [1] => Array
        (
            [НаправлениеПодготовки] => Правовое обеспечение национальной безопасности
            [GUIDНП] => c1cff574-2b55-11e6-80be-005056b32020
            [ФормаОбучения] => Очная
            [GUIDФО] => 8f9f43a8-bc09-433b-9057-64c6a3ac8b10
            [ЗаявлениеПроверено] => 1
            [КонкурснаяГруппа] => Нац без ОЧНАЯ бюджет
            [GUIDКГ] => 0c98b658-371f-11e8-812c-005056b32020
            [УровеньОбразования] => Специалист
            [GUIDУО] => e7ec8534-0420-46b4-8c23-3933acf41357
            [Состояние] => Зачислен
            [РегНомер] => 0113548
            [ДатаЗаявления] => 2018-07-17
            [ДатаОтзываЗаявления] => 0001-01-01
            [НаличиеПодлинника] => 1
            [СогласиеНаЗачисление] => 1
            [ДатаСогласиеНаЗачисление] => 2018-07-30
            [ДатаОтзываСогласиеНаЗачисление] => 0001-01-01
            [ВыбранныйИнститут] => Институт публичного права и управления
            [ВыбранныйПрофиль] => Правовое обеспечение национальной безопасности
            [GUIDПрофиль] => 32b9a3a5-55b8-11e7-80e8-005056b32020
            [ВидФинансирования] => Бюджетное
            [ЦелевойПрием] => 
            [ОсобаяКвота] => 
            [ПутьКФайлу] => 
            [ДатаИзменения] => 0001-01-01
            [RequestStatus] => Принята
        )

    [2] => Array
        (
            [НаправлениеПодготовки] => Юриспруденция
            [GUIDНП] => c55a0055-f268-11e5-9d71-005056963750
            [ФормаОбучения] => Очная
            [GUIDФО] => 8f9f43a8-bc09-433b-9057-64c6a3ac8b10
            [ЗаявлениеПроверено] => 1
            [КонкурснаяГруппа] => БАК Юрисп ОЧНАЯ бюджет
            [GUIDКГ] => a078523d-371c-11e8-812c-005056b32020
            [УровеньОбразования] => Бакалавр академический
            [GUIDУО] => 881a7dee-d400-4119-b425-a0d748d93022
            [Состояние] => Подал заявление
            [РегНомер] => 0113548
            [ДатаЗаявления] => 2018-07-17
            [ДатаОтзываЗаявления] => 0001-01-01
            [НаличиеПодлинника] => 1
            [СогласиеНаЗачисление] => 
            [ДатаСогласиеНаЗачисление] => 0001-01-01
            [ДатаОтзываСогласиеНаЗачисление] => 0001-01-01
            [ВыбранныйИнститут] => 
            [ВыбранныйПрофиль] => 
            [GUIDПрофиль] => 00000000-0000-0000-0000-000000000000
            [ВидФинансирования] => Бюджетное
            [ЦелевойПрием] => 
            [ОсобаяКвота] => 
            [ПутьКФайлу] => 
            [ДатаИзменения] => 0001-01-01
            [RequestStatus] => Принята
        )

)

2018-08-27T16:23:35Z
========

*********************************************************************
2018-08-27T16:23:35Z
========

