Абитуриент
Array
(
    [GUID] => 
    [Фамилия] => Рыков
    [Имя] => Елисей
    [Отчество] => Сергеевич
    [ДатаРождения] => 2000-07-15
    [МестоРождения] => 
    [Пол] => Женский
    [Гражданство] => РОССИЯ
    [ИндексР] => 346312
    [РегионР] => Ростовская
    [ГородР] => Зверево
    [НасПунктР] => 
    [УлицаР] => Казакова
    [ДомР] => 24
    [КорпусР] => 
    [КвартираР] => 2
    [ИндексП] => 346312
    [РегионП] => Ростовская
    [ГородП] => Зверево
    [НасПунктП] => 
    [УлицаП] => Казакова
    [ДомП] => 24
    [КорпусП] => 
    [КвартираП] => 2
    [ТелефонКонтактный] => +7(999) 696-50-62
    [ТелефонДомашний] => 
    [ТелефонСлужебный] => 
    [ЭлПочта] => elisey-rykov@gmail.com
    [НужноОбщежитие] => 1
    [ПаспортВид] => Паспорт гражданина РФ
    [ПаспортСерия] => 6014
    [ПаспортНомер] => 600755
    [ПаспортДата] => 0001-01-01
    [ПаспортВыдан] => 
    [ПаспортКодПодразделения] => 
    [СемейноеПоложение] => 
    [ПосещениеПодготовительныхКурсов] => 
    [ЗаведениеПодготовительныхКурсов] => 
    [МестоРаботы] => 
    [Должность] => 
    [ОтношениеКВоинскойСлужбе] => 
    [ВидДокументаВС] => 
    [ДокументВСНомер] => 
    [ДокументВСДата] => 0001-01-01
    [ДокументВСМестоВыдачи] => 
    [Военкомат] => 
    [ВоинскоеЗвание] => 
    [КатегорияЗапаса] => 
    [КатегорияГодностиКВоеннойСлужбе] => 
    [РегионДляФИС] => Ростовская обл
    [ТипНаселенногоПунктаДляФИС] => citytype00-000002
    [ИностранныйГражданин] => 
    [ПаспортВид2] => 
    [ПаспортСерия2] => 
    [ПаспортНомер2] => 
    [ПаспортДата2] => 0001-01-01
    [ПаспортВыдан2] => 
    [ПаспортКодПодразделения2] => 
    [СтатусЗаявки] => 
    [IDMain] => 9171
    [Keyword] => 
)

2018-07-12T09:34:08Z
========

ИностранныеЯзыки

2018-07-12T09:34:08Z
========

РезультатыЕГЭ

2018-07-12T09:34:08Z
========

ФайлыАбитуриента

2018-07-12T09:34:09Z
========

ПоданныеДокументы

2018-07-12T09:34:09Z
========

Заявления

2018-07-12T09:34:09Z
========

*********************************************************************
2018-07-12T09:34:09Z
========

