Абитуриент
Array
(
    [GUID] => 
    [Фамилия] => Миндлин
    [Имя] => Никита
    [Отчество] => Сергеевич
    [ДатаРождения] => 1996-12-10
    [МестоРождения] => г. Москва
    [Пол] => Мужской
    [Гражданство] => РОССИЯ
    [ИндексР] => 125502
    [РегионР] => Москва
    [ГородР] => Москва
    [НасПунктР] => 
    [УлицаР] => Фестивальная
    [ДомР] => 61
    [КорпусР] => 
    [КвартираР] => 96
    [ИндексП] => 125502
    [РегионП] => Москва
    [ГородП] => Москва
    [НасПунктП] => 
    [УлицаП] => Фестивальная
    [ДомП] => 61
    [КорпусП] => 
    [КвартираП] => 96
    [ТелефонКонтактный] => +7(916) 391-12-86
    [ТелефонДомашний] => 
    [ТелефонСлужебный] => 
    [ЭлПочта] => nikita9610@yandex.ru
    [НужноОбщежитие] => 
    [ПаспортВид] => Паспорт гражданина РФ
    [ПаспортСерия] => 4516
    [ПаспортНомер] => 946807
    [ПаспортДата] => 2017-01-10
    [ПаспортВыдан] => Отделом УФМС России по гор. Москве по району Ховрино
    [ПаспортКодПодразделения] => 770-027
    [СемейноеПоложение] => Холост
    [ПосещениеПодготовительныхКурсов] => посещал(-а) в МГЮА
    [ЗаведениеПодготовительныхКурсов] => 
    [МестоРаботы] => АО "ММЗ "Знамя"
    [Должность] => юрисконсульт
    [ОтношениеКВоинскойСлужбе] => 
    [ВидДокументаВС] => 
    [ДокументВСНомер] => 
    [ДокументВСДата] => 0001-01-01
    [ДокументВСМестоВыдачи] => 
    [Военкомат] => 
    [ВоинскоеЗвание] => 
    [КатегорияЗапаса] => 
    [КатегорияГодностиКВоеннойСлужбе] => 
    [РегионДляФИС] => Москва г
    [ТипНаселенногоПунктаДляФИС] => citytype00-000001
    [ИностранныйГражданин] => 
    [ПаспортВид2] => 
    [ПаспортСерия2] => 
    [ПаспортНомер2] => 
    [ПаспортДата2] => 0001-01-01
    [ПаспортВыдан2] => 
    [ПаспортКодПодразделения2] => 
    [СтатусЗаявки] => 
    [IDMain] => 9815
    [Keyword] => 
)

2018-07-16T14:44:18Z
========

СоставСемьи
Array
(
    [0] => Array
        (
            [СтепеньРодства] => 000000001
            [ФИО] => Миндлина Марина Николаевна
            [ДатаРождения] => 1973-04-02
            [МестоРаботы] => 
            [Телефон] => +7(915) 349-31-81
            [Адрес] => 125502, г.Москва, ул. Фестивальная д. 61, кв. 96
        )

    [1] => Array
        (
            [СтепеньРодства] => 000000002
            [ФИО] => Миндлин Сергей Станиславович
            [ДатаРождения] => 1971-03-03
            [МестоРаботы] => 
            [Телефон] => +7(910) 591-90-54
            [Адрес] => 125502, г. Москва, ул. Фестивальная, д. 61, кв. 96
        )

)

2018-07-16T14:44:18Z
========

ИностранныеЯзыки
Array
(
    [ИностранныйЯзык] => 00-000000010
    [Основной] => 
)

2018-07-16T14:44:18Z
========

ФайлыАбитуриента

2018-07-16T14:44:18Z
========

ПоданныеДокументы
Array
(
    [ВидДокумента] => 00-000050
    [Серия] => 
    [Номер] => 1077040131283
    [Дата] => 2018-07-09
)

2018-07-16T14:44:19Z
========

Заявления

2018-07-16T14:44:19Z
========

*********************************************************************
2018-07-16T14:44:19Z
========

